﻿<?xml version="1.0"?>
<!-- Generator: Adobe Illustrator 10.0, SVG Export Plug-In . SVG Version: 3.0.0 Build 77)  -->
<!DOCTYPE svg PUBLIC "-//W3C//DTD SVG 1.0//EN" "http://www.w3.org/TR/2001/REC-SVG-20010904/DTD/svg10.dtd"[
	<!ENTITY ns_flows "http://ns.adobe.com/Flows/1.0/">
	<!ENTITY ns_svg "http://www.w3.org/2000/svg">
	<!ENTITY ns_xlink "http://www.w3.org/1999/xlink">
	<!ENTITY st0 "fill:none;stroke:#000000;stroke-linecap:round;stroke-linejoin:round;">
	<!ENTITY st1 "fill:none;stroke:#000000;stroke-width:0.6;stroke-linecap:round;stroke-linejoin:round;">
	<!ENTITY st2 "font-size:6px;">
	<!ENTITY st3 "font-family:'Arial';">
	<!ATTLIST svg
		ewd:ver CDATA #IMPLIED
		xmlns:ewd CDATA #FIXED "http://shcl.co.jp/ewd"
		xmlns:a CDATA #FIXED "http://ns.adobe.com/AdobeSVGViewerExtensions/3.0/">
	<!ATTLIST g
		ewd:pinNo CDATA #IMPLIED>
]>
<svg width="71.326" height="53.408" viewBox="0 0 71.326 53.408" style="overflow:visible;enable-background:new 0 0 71.326 53.408" xml:space="preserve" onload="call_execInitLoadProc_svg('connector')" ewd:ver="L2.1.2.8" xmlns="&ns_svg;" xmlns:ewd="http://shcl.co.jp/ewd" xmlns:a="http://ns.adobe.com/AdobeSVGViewerExtensions/3.0/" xmlns:xlink="&ns_xlink;">
<script type="text/javascript" xlink:href="../../../../../system/js/ewd/fig/svgfig.js"/>
<g id="レイヤー_1">
	<path style="&st1;" d="M22.206,18.914c-3.355,0-6.212,0.903-8.958,2.832"/>
	<path style="&st1;" d="M30.704,34.495c0-4.694-3.805-8.499-8.499-8.499"/>
	<path style="&st1;" d="M22.206,25.996c-4.694,0-8.499,3.805-8.499,8.499"/>
	<path style="&st1;" d="M13.707,34.495c0,4.693,3.805,8.499,8.499,8.499"/>
	<path style="&st1;" d="M22.206,42.993c4.693,0,8.499-3.805,8.499-8.499"/>
	<path style="&st1;" d="M57.616,34.495c0-4.694-3.805-8.499-8.499-8.499"/>
	<path style="&st1;" d="M49.117,25.996c-4.693,0-8.498,3.805-8.498,8.499"/>
	<path style="&st1;" d="M40.619,34.495c0,4.693,3.805,8.499,8.498,8.499"/>
	<path style="&st1;" d="M49.117,42.993c4.694,0,8.499-3.805,8.499-8.499"/>
	<path style="&st1;" d="M33.537,34.495c0-6.258-5.073-11.332-11.331-11.332"/>
	<path style="&st1;" d="M22.206,23.163c-6.258,0-11.332,5.073-11.332,11.332"/>
	<path style="&st1;" d="M10.874,34.495c0,6.258,5.073,11.332,11.332,11.332"/>
	<path style="&st1;" d="M22.206,45.826c6.258,0,11.331-5.074,11.331-11.332"/>
	<path style="&st1;" d="M34.953,34.495c0-7.041-5.708-12.748-12.748-12.748"/>
	<path style="&st1;" d="M22.206,21.747c-7.041,0-12.748,5.708-12.748,12.748"/>
	<path style="&st1;" d="M9.458,34.495c0,7.041,5.708,12.748,12.748,12.748"/>
	<path style="&st1;" d="M22.206,47.242c7.04,0,12.748-5.707,12.748-12.748"/>
	<path style="&st1;" d="M60.449,34.495c0-6.258-5.073-11.332-11.332-11.332"/>
	<path style="&st1;" d="M49.117,23.163c-6.258,0-11.331,5.073-11.331,11.332"/>
	<path style="&st1;" d="M37.786,34.495c0,6.258,5.073,11.332,11.331,11.332"/>
	<path style="&st1;" d="M49.117,45.826c6.258,0,11.332-5.074,11.332-11.332"/>
	<path style="&st1;" d="M61.865,34.495c0-7.041-5.708-12.748-12.748-12.748"/>
	<path style="&st1;" d="M49.117,21.747c-7.04,0-12.748,5.708-12.748,12.748"/>
	<path style="&st1;" d="M36.37,34.495c0,7.041,5.708,12.748,12.748,12.748"/>
	<path style="&st1;" d="M49.117,47.242c7.041,0,12.748-5.707,12.748-12.748"/>
	<path style="&st1;" d="M37.732,45.129c5.354,5.733,13.926,6.623,20.344,2.111"/>
	<path style="&st0;" d="M49.117,52.908c3.967,0,7.344-1.068,10.589-3.349"/>
	<path style="&st1;" d="M9.148,25.996c-3.448,5.298-3.448,11.7,0,16.998"/>
	<path style="&st1;" d="M37.732,45.129c-1.069-1.144-2.862-1.205-4.006-0.136"/>
	<path style="&st1;" d="M33.727,44.993c-0.049,0.046-0.089,0.085-0.135,0.135"/>
	<path style="&st1;" d="M13.248,47.242c6.418,4.511,14.99,3.62,20.344-2.114"/>
	<path style="&st1;" d="M58.078,21.747c-2.746-1.93-5.604-2.834-8.96-2.834"/>
	<path style="&st0;" d="M11.619,49.56c3.244,2.28,6.621,3.348,10.586,3.348"/>
	<path style="&st1;" d="M62.177,42.993c3.448-5.298,3.448-11.699,0-16.998"/>
	<path style="&st0;" d="M0.5,46.727c0,1.565,1.269,2.833,2.833,2.833"/>
	<path style="&st0;" d="M12.333,2.375c-1.942,0.647-3.4,1.79-4.495,3.52"/>
	<path style="&st0;" d="M63.486,5.894c-1.095-1.73-2.554-2.872-4.496-3.519"/>
	<path style="&st0;" d="M67.993,49.56c1.564,0,2.833-1.268,2.833-2.833"/>
	<path style="&st1;" d="M17.956,6.353c-2.423-0.626-4.896,0.832-5.521,3.255"/>
	<path style="&st1;" d="M12.435,9.608c-0.625,2.423,0.832,4.896,3.255,5.521"/>
	<path style="&st1;" d="M15.69,15.129c1.909,0.493,3.818-0.238,4.909-1.881"/>
	<path style="&st0;" d="M19.335,0.5c-0.961,0-1.776,0.132-2.688,0.437"/>
	<path style="&st0;" d="M54.675,0.937C53.763,0.632,52.949,0.5,51.987,0.5"/>
	<path style="&st1;" d="M52.231,14.665c2.167,1.253,4.939,0.512,6.192-1.654"/>
	<path style="&st1;" d="M58.423,13.01c1.253-2.167,0.513-4.939-1.654-6.193"/>
	<path style="&st1;" d="M56.769,6.817c-1.072-0.62-2.204-0.774-3.402-0.465"/>
	<path style="&st0;" d="M22.206,52.908h26.912"/>
	<path style="&st1;" d="M13.248,21.747H4.749v4.249h4.399"/>
	<path style="&st1;" d="M17.956,3.333h35.411"/>
	<path style="&st1;" d="M22.206,18.914h26.912"/>
	<path style="&st1;" d="M20.599,13.248h1.606v5.666"/>
	<path style="&st1;" d="M13.248,47.242H4.749v-4.249h4.399"/>
	<path style="&st1;" d="M17.956,6.353v-3.02"/>
	<path style="&st1;" d="M58.078,21.747h8.499v4.249h-4.4"/>
	<path style="&st1;" d="M58.078,47.242h8.499v-4.249h-4.4"/>
	<path style="&st1;" d="M49.117,14.665v4.25"/>
	<path style="&st1;" d="M52.231,14.665h-3.114"/>
	<path style="&st0;" d="M59.707,49.56h8.286"/>
	<path style="&st0;" d="M3.333,49.56h8.287"/>
	<path style="&st0;" d="M0.5,17.498v29.229"/>
	<path style="&st0;" d="M70.826,17.498v29.229"/>
	<path style="&st0;" d="M19.335,0.5h32.652"/>
	<path style="&st0;" d="M12.333,2.375l4.314-1.439"/>
	<path style="&st0;" d="M54.675,0.937l4.315,1.439"/>
	<path style="&st0;" d="M0.5,17.498L7.837,5.894"/>
	<path style="&st0;" d="M63.486,5.894l7.34,11.604"/>
	<path style="&st1;" d="M53.367,6.353v-3.02"/>
	<g ewd:pinNo="1">
		<text transform="matrix(1 0 0 1 20.1948 36.3789)"><tspan x="0" y="0" style="&st3; &st2;">1</tspan></text>
	</g>
	<g ewd:pinNo="2">
		<text transform="matrix(1 0 0 1 47.4487 36.3789)"><tspan x="0" y="0" style="&st3; &st2;">2</tspan></text>
	</g>
</g>
</svg>