﻿<?xml version="1.0"?>
<!-- Generator: Adobe Illustrator 10.0, SVG Export Plug-In . SVG Version: 3.0.0 Build 77)  -->
<!DOCTYPE svg PUBLIC "-//W3C//DTD SVG 1.0//EN" "http://www.w3.org/TR/2001/REC-SVG-20010904/DTD/svg10.dtd"[
	<!ENTITY ns_flows "http://ns.adobe.com/Flows/1.0/">
	<!ENTITY ns_svg "http://www.w3.org/2000/svg">
	<!ENTITY ns_xlink "http://www.w3.org/1999/xlink">
	<!ENTITY st0 "fill:none;stroke:#000000;stroke-linecap:round;stroke-linejoin:round;">
	<!ENTITY st1 "fill:none;stroke:#000000;stroke-width:0.6;stroke-linecap:round;stroke-linejoin:round;">
	<!ENTITY st2 "font-size:6px;">
	<!ENTITY st3 "font-family:'Arial';">
	<!ATTLIST svg
		ewd:ver CDATA #IMPLIED
		xmlns:ewd CDATA #FIXED "http://shcl.co.jp/ewd"
		xmlns:a CDATA #FIXED "http://ns.adobe.com/AdobeSVGViewerExtensions/3.0/">
	<!ATTLIST g
		ewd:pinNo CDATA #IMPLIED>
]>
<svg width="77.246" height="78.054" viewBox="0 0 77.246 78.054" style="overflow:visible;enable-background:new 0 0 77.246 78.054" xml:space="preserve" onload="call_execInitLoadProc_svg('connector')" ewd:ver="L2.1.2.8" xmlns="&ns_svg;" xmlns:ewd="http://shcl.co.jp/ewd" xmlns:a="http://ns.adobe.com/AdobeSVGViewerExtensions/3.0/" xmlns:xlink="&ns_xlink;">
<script type="text/javascript" xlink:href="../../../../../system/js/ewd/fig/svgfig.js"/>
<g id="レイヤー_1">
	<path style="&st0;" d="M58.653,18.274c-3.541-2.972-7.085-4.85-11.533-6.11"/>
	<path style="&st1;" d="M66.95,42.143c0-15.645-12.683-28.329-28.329-28.329"/>
	<path style="&st1;" d="M38.622,13.814c-15.645,0-28.329,12.684-28.329,28.329"/>
	<path style="&st1;" d="M10.293,42.143c0,15.646,12.684,28.329,28.329,28.329"/>
	<path style="&st1;" d="M38.622,70.472c15.646,0,28.329-12.683,28.329-28.329"/>
	<path style="&st0;" d="M23.041,69.129c3.233,1.867,6.244,2.977,9.916,3.656"/>
	<path style="&st0;" d="M30.123,12.163c-4.447,1.261-7.99,3.138-11.531,6.108"/>
	<path style="&st1;" d="M62.701,42.143c0-13.298-10.781-24.079-24.08-24.079"/>
	<path style="&st1;" d="M38.622,18.064c-13.298,0-24.079,10.781-24.079,24.079"/>
	<path style="&st1;" d="M14.542,42.143c0,13.299,10.781,24.08,24.079,24.08"/>
	<path style="&st1;" d="M38.622,66.223c13.298,0,24.08-10.781,24.08-24.08"/>
	<path style="&st1;" d="M58.452,42.143c0-10.952-8.878-19.83-19.83-19.83"/>
	<path style="&st1;" d="M38.622,22.313c-10.952,0-19.83,8.878-19.83,19.83"/>
	<path style="&st1;" d="M18.792,42.143c0,10.952,8.878,19.83,19.83,19.83"/>
	<path style="&st1;" d="M38.622,61.973c10.952,0,19.83-8.878,19.83-19.83"/>
	<path style="&st0;" d="M44.288,72.786c3.671-0.679,6.682-1.789,9.916-3.656"/>
	<path style="&st1;" d="M47.12,12.163c-5.823-1.651-11.174-1.651-16.997,0"/>
	<path style="&st0;" d="M18.593,20.257c-0.729,0.667-1.319,1.261-1.982,1.995"/>
	<path style="&st0;" d="M60.636,22.251c-0.663-0.734-1.252-1.327-1.982-1.995"/>
	<path style="&st1;" d="M68.959,64.795l-7.966,9.833"/>
	<path style="&st0;" d="M76.746,14.024v25.711"/>
	<path style="&st1;" d="M24.458,32.653v14.164h11.332V32.653H24.458"/>
	<path style="&st1;" d="M41.455,32.653v14.164h11.332V32.653H41.455"/>
	<path style="&st0;" d="M13.497,60.577l-6.751,5.464l7.963,9.836l8.332-6.748"/>
	<path style="&st0;" d="M63.749,60.577l6.751,5.464l-7.966,9.836l-8.331-6.748"/>
	<path style="&st1;" d="M32.956,48.801v8.498h11.332v-8.498H32.956"/>
	<path style="&st0;" d="M60.636,14.024v8.227"/>
	<path style="&st1;" d="M42.871,0.5v1.983"/>
	<path style="&st0;" d="M32.956,72.786v4.768h11.332v-4.768"/>
	<path style="&st0;" d="M30.123,0.5H47.12"/>
	<path style="&st1;" d="M8.287,64.795l7.963,9.833"/>
	<path style="&st0;" d="M47.12,0.5v11.663"/>
	<path style="&st0;" d="M30.123,0.5v11.663"/>
	<path style="&st0;" d="M0.5,14.024v25.711"/>
	<path style="&st0;" d="M0.5,14.024h16.11"/>
	<path style="&st1;" d="M30.123,2.483H47.12"/>
	<path style="&st0;" d="M0.5,39.735l12.997,20.841"/>
	<path style="&st0;" d="M58.653,18.274v1.983"/>
	<path style="&st0;" d="M18.593,18.274v1.983"/>
	<path style="&st1;" d="M34.373,0.5v1.983"/>
	<path style="&st0;" d="M16.61,14.024v8.227"/>
	<path style="&st0;" d="M76.746,39.735L63.749,60.577"/>
	<path style="&st0;" d="M76.746,14.024h-16.11"/>
	<path style="&st1;" d="M64.525,73.418l-1.541-1.249"/>
	<path style="&st1;" d="M10.279,67.254L8.738,68.5"/>
	<path style="&st1;" d="M66.967,67.254l1.541,1.246"/>
	<path style="&st1;" d="M12.718,73.418l1.541-1.249"/>
	<g ewd:pinNo="2">
		<text transform="matrix(1 0 0 1 45.457 41.9985)"><tspan x="0" y="0" style="&st3; &st2;">2</tspan></text>
	</g>
	<g ewd:pinNo="1">
		<text transform="matrix(1 0 0 1 28.46 41.9985)"><tspan x="0" y="0" style="&st3; &st2;">1</tspan></text>
	</g>
</g>
</svg>