﻿<?xml version="1.0"?>
<!-- Generator: Adobe Illustrator 10.0, SVG Export Plug-In . SVG Version: 3.0.0 Build 77)  -->
<!DOCTYPE svg PUBLIC "-//W3C//DTD SVG 1.0//EN" "http://www.w3.org/TR/2001/REC-SVG-20010904/DTD/svg10.dtd"[
	<!ENTITY ns_flows "http://ns.adobe.com/Flows/1.0/">
	<!ENTITY ns_svg "http://www.w3.org/2000/svg">
	<!ENTITY ns_xlink "http://www.w3.org/1999/xlink">
	<!ENTITY st0 "fill:none;stroke:#000000;stroke-linecap:round;stroke-linejoin:round;">
	<!ENTITY st1 "fill:none;stroke:#000000;stroke-width:0.6;stroke-linecap:round;stroke-linejoin:round;">
	<!ENTITY st2 "font-size:6px;">
	<!ENTITY st3 "font-family:'Arial';">
	<!ATTLIST svg
		ewd:ver CDATA #IMPLIED
		xmlns:ewd CDATA #FIXED "http://shcl.co.jp/ewd"
		xmlns:a CDATA #FIXED "http://ns.adobe.com/AdobeSVGViewerExtensions/3.0/">
	<!ATTLIST g
		ewd:pinNo CDATA #IMPLIED>
]>
<svg width="61.359" height="73.17" viewBox="0 0 61.359 73.17" style="overflow:visible;enable-background:new 0 0 61.359 73.17" xml:space="preserve" onload="call_execInitLoadProc_svg('connector')" ewd:ver="L2.1.2.8" xmlns="&ns_svg;" xmlns:ewd="http://shcl.co.jp/ewd" xmlns:a="http://ns.adobe.com/AdobeSVGViewerExtensions/3.0/" xmlns:xlink="&ns_xlink;">
<script type="text/javascript" xlink:href="../../../../../system/js/ewd/fig/svgfig.js"/>
<g id="レイヤー_1">
	<path style="&st1;" d="M17.395,38.262h9.64"/>
	<path style="&st1;" d="M6.981,35.611H4.754"/>
	<path style="&st1;" d="M3.899,39.894v-3.428"/>
	<path style="&st1;" d="M4.754,40.752h2.227"/>
	<path style="&st1;" d="M54.375,35.77h2.227"/>
	<path style="&st1;" d="M54.375,40.911h2.227"/>
	<path style="&st1;" d="M57.457,36.625v3.428"/>
	<path style="&st1;" d="M43.953,5.642v11.986"/>
	<path style="&st1;" d="M17.389,5.642v11.998"/>
	<path style="&st1;" d="M19.103,3.928h2.227"/>
	<path style="&st0;" d="M16.389,0.5h28.567"/>
	<path style="&st0;" d="M13.154,2.789L4.967,26.064"/>
	<path style="&st0;" d="M48.188,2.789l8.198,23.269"/>
	<path style="&st1;" d="M17.389,9.07h4.284"/>
	<path style="&st1;" d="M17.389,12.498h4.284"/>
	<path style="&st1;" d="M39.669,12.498h4.283"/>
	<path style="&st1;" d="M39.669,9.07h4.283"/>
	<path style="&st1;" d="M21.672,14.211h17.997"/>
	<path style="&st1;" d="M40.012,3.928h2.227"/>
	<path style="&st1;" d="M37.097,4.783H24.245"/>
	<path style="&st1;" d="M22.015,3.072h17.312"/>
	<path style="&st1;" d="M21.672,3.416v0.169"/>
	<path style="&st1;" d="M39.669,3.416v0.169"/>
	<path style="&st1;" d="M27.029,26.676v23.181"/>
	<path style="&st1;" d="M34.313,26.676v23.181"/>
	<path style="&st1;" d="M34.313,38.262h9.64"/>
	<path style="&st1;" d="M37.097,9.925H24.245"/>
	<path style="&st1;" d="M37.097,11.639H24.245"/>
	<path style="&st1;" d="M8.196,28.104c-0.175,2.345-0.281,4.327-0.358,6.677"/>
	<path style="&st1;" d="M53.162,48.415c0.175-2.343,0.282-4.325,0.358-6.674"/>
	<path style="&st1;" d="M17.389,17.639c-5.146,1.064-8.8,5.224-9.193,10.464"/>
	<path style="&st1;" d="M8.21,48.441c0.438,5.744,4.886,10.204,10.629,10.655"/>
	<path style="&st1;" d="M42.542,59.086c5.745-0.457,10.19-4.924,10.619-10.671"/>
	<path style="&st1;" d="M53.148,28.081c-0.397-5.237-4.051-9.392-9.195-10.454"/>
	<path style="&st0;" d="M4.233,29.503c-0.059,0.927-0.104,1.71-0.147,2.638"/>
	<path style="&st0;" d="M4.086,32.141c-3.336,1.79-4.589,5.945-2.799,9.28"/>
	<path style="&st0;" d="M1.287,41.421c0.667,1.245,1.555,2.132,2.8,2.799"/>
	<path style="&st0;" d="M57.264,44.384c3.339-1.787,4.597-5.941,2.811-9.28"/>
	<path style="&st0;" d="M60.075,35.104c-0.666-1.244-1.552-2.132-2.795-2.802"/>
	<path style="&st0;" d="M4.363,48.732c0.5,6.57,4.786,11.835,11.119,13.656"/>
	<path style="&st1;" d="M57.457,36.625c0-0.473-0.383-0.855-0.855-0.855"/>
	<path style="&st1;" d="M56.602,40.911c0.474,0,0.858-0.385,0.858-0.858"/>
	<path style="&st1;" d="M4.754,35.611c-0.472,0-0.855,0.383-0.855,0.855"/>
	<path style="&st1;" d="M3.899,39.894c0,0.472,0.383,0.855,0.855,0.855"/>
	<path style="&st1;" d="M7.836,41.58c0.079,2.415,0.188,4.452,0.372,6.861"/>
	<path style="&st1;" d="M53.519,34.939c-0.078-2.414-0.188-4.45-0.371-6.858"/>
	<path style="&st0;" d="M16.389,0.5c-1.485,0-2.74,0.889-3.233,2.29"/>
	<path style="&st0;" d="M48.188,2.789c-0.494-1.4-1.748-2.288-3.232-2.288"/>
	<path style="&st0;" d="M57.278,32.305c-0.043-0.928-0.086-1.71-0.145-2.637"/>
	<path style="&st1;" d="M24.245,4.783c-1.421,0-2.572,1.152-2.572,2.572"/>
	<path style="&st1;" d="M39.669,7.355c0-1.42-1.152-2.572-2.572-2.572"/>
	<path style="&st1;" d="M15.16,14.645c0-0.947-0.768-1.714-1.714-1.714"/>
	<path style="&st1;" d="M13.446,12.931c-0.947,0-1.714,0.768-1.714,1.714"/>
	<path style="&st1;" d="M11.732,14.645c0,0.946,0.767,1.713,1.714,1.713"/>
	<path style="&st1;" d="M13.446,16.358c0.946,0,1.714-0.767,1.714-1.713"/>
	<path style="&st1;" d="M49.61,14.645c0-0.947-0.768-1.714-1.714-1.714"/>
	<path style="&st1;" d="M47.896,12.931c-0.946,0-1.714,0.768-1.714,1.714"/>
	<path style="&st1;" d="M46.182,14.645c0,0.946,0.768,1.713,1.714,1.713"/>
	<path style="&st1;" d="M47.896,16.358c0.946,0,1.714-0.767,1.714-1.713"/>
	<path style="&st0;" d="M45.904,62.37c6.319-1.831,10.591-7.089,11.089-13.649"/>
	<path style="&st0;" d="M4.086,44.223c0.015,0.307,0.028,0.565,0.044,0.873"/>
	<path style="&st0;" d="M57.134,29.667c-0.089-1.295-0.313-2.379-0.744-3.604"/>
	<path style="&st0;" d="M4.967,26.067c-0.411,1.167-0.63,2.2-0.731,3.433"/>
	<path style="&st0;" d="M56.992,48.721c0.093-1.216,0.159-2.244,0.226-3.462"/>
	<path style="&st1;" d="M19.103,3.928c-0.947,0-1.714,0.767-1.714,1.713"/>
	<path style="&st1;" d="M43.953,5.642c0-0.946-0.767-1.713-1.714-1.713"/>
	<path style="&st1;" d="M22.015,3.072c-0.189,0-0.343,0.153-0.343,0.343"/>
	<path style="&st1;" d="M39.669,3.416c0-0.19-0.153-0.343-0.343-0.343"/>
	<path style="&st1;" d="M39.669,3.585c0,0.189,0.153,0.343,0.343,0.343"/>
	<path style="&st1;" d="M21.33,3.928c0.189,0,0.343-0.154,0.343-0.343"/>
	<path style="&st0;" d="M4.128,45.095c0.068,1.28,0.138,2.359,0.235,3.637"/>
	<path style="&st1;" d="M6.981,35.611c0.464,0,0.843-0.366,0.858-0.83"/>
	<path style="&st1;" d="M7.836,41.58c-0.015-0.462-0.393-0.828-0.855-0.828"/>
	<path style="&st1;" d="M53.519,34.939c0.016,0.462,0.393,0.828,0.856,0.828"/>
	<path style="&st1;" d="M54.375,40.911c-0.464,0-0.842,0.367-0.855,0.83"/>
	<path style="&st0;" d="M57.219,45.259c0.017-0.308,0.03-0.567,0.045-0.875"/>
	<path style="&st0;" d="M15.482,69.242c0,1.894,1.535,3.428,3.428,3.428"/>
	<path style="&st0;" d="M18.91,72.67c0.001,0,0.002,0,0.003,0"/>
	<path style="&st0;" d="M42.479,72.656c1.892-0.002,3.425-1.536,3.425-3.428"/>
	<path style="&st1;" d="M23.95,67.52c0.947,0,1.714-0.767,1.714-1.714"/>
	<path style="&st1;" d="M35.732,65.803c0,0.947,0.767,1.714,1.714,1.714"/>
	<path style="&st1;" d="M18.839,59.098c8.321,0.559,15.382,0.555,23.703-0.011"/>
	<path style="&st1;" d="M19.069,55.676c8.159,0.547,15.082,0.544,23.241-0.012"/>
	<path style="&st1;" d="M42.27,55.667c4.042-0.322,7.168-3.464,7.47-7.507"/>
	<path style="&st1;" d="M49.729,28.341c-0.279-3.686-2.851-6.609-6.471-7.356"/>
	<path style="&st1;" d="M50.162,38.262c-0.04-3.492-0.169-6.439-0.434-9.92"/>
	<path style="&st1;" d="M49.743,48.16c0.26-3.474,0.385-6.415,0.422-9.898"/>
	<path style="&st1;" d="M11.627,48.18c0.308,4.043,3.439,7.182,7.481,7.5"/>
	<path style="&st1;" d="M11.193,38.262c0.041,3.491,0.169,6.437,0.434,9.918"/>
	<path style="&st1;" d="M18.083,20.996c-3.622,0.75-6.194,3.677-6.469,7.366"/>
	<path style="&st1;" d="M11.613,28.361c-0.26,3.475-0.385,6.416-0.422,9.901"/>
	<path style="&st1;" d="M28.743,26.676c-0.947,0-1.714,0.768-1.714,1.714"/>
	<path style="&st1;" d="M34.313,28.39c0-0.946-0.768-1.714-1.714-1.714"/>
	<path style="&st1;" d="M27.029,48.143c0,0.947,0.767,1.714,1.714,1.714"/>
	<path style="&st1;" d="M32.599,49.857c0.946,0,1.714-0.767,1.714-1.714"/>
	<path style="&st1;" d="M21.672,7.355c0,1.421,1.151,2.573,2.572,2.573"/>
	<path style="&st1;" d="M37.097,9.925c1.419,0,2.569-1.15,2.569-2.569"/>
	<path style="&st1;" d="M24.245,11.639c-1.421,0-2.572,1.152-2.572,2.572"/>
	<path style="&st1;" d="M39.669,14.211c0-1.42-1.152-2.572-2.572-2.572"/>
	<path style="&st1;" d="M43.259,20.984c-8.831-0.741-16.346-0.738-25.176,0.011"/>
	<path style="&st1;" d="M43.953,17.628c-9.316-0.808-17.248-0.804-26.563,0.012"/>
	<path style="&st1;" d="M35.168,14.211v-1.714h-8.997v1.714"/>
	<path style="&st0;" d="M15.482,62.387v6.855"/>
	<path style="&st0;" d="M45.904,62.37v6.858"/>
	<path style="&st0;" d="M18.913,72.67l23.566-0.014"/>
	<path style="&st1;" d="M22.236,67.52v5.142"/>
	<path style="&st1;" d="M39.16,67.517v5.142"/>
	<path style="&st1;" d="M22.236,67.52h1.714"/>
	<path style="&st1;" d="M37.446,67.517h1.714"/>
	<path style="&st1;" d="M25.664,65.806v-1.714"/>
	<path style="&st1;" d="M35.732,64.089v1.714"/>
	<path style="&st1;" d="M25.664,64.092l10.068-0.003"/>
	<path style="&st1;" d="M27.377,69.234v-3.428l6.64-0.003v3.431"/>
	<path style="&st1;" d="M22.236,69.234H39.16"/>
	<path style="&st1;" d="M29.091,69.234v1.714h3.212v-1.714"/>
	<path style="&st1;" d="M43.953,26.676h-9.64"/>
	<path style="&st1;" d="M27.029,26.676h-9.641v23.181h9.641"/>
	<path style="&st1;" d="M34.313,49.857h9.64V26.676"/>
	<path style="&st1;" d="M28.743,26.676h3.855"/>
	<path style="&st1;" d="M28.743,49.857h3.855"/>
	<path style="&st1;" d="M16.1,21.682l29.139-0.011"/>
	<path style="&st1;" d="M14.718,53.968l31.94-0.014"/>
	<path style="&st1;" d="M21.672,15.755V7.355"/>
	<path style="&st1;" d="M39.669,7.355v8.399"/>
	<path style="&st1;" d="M21.672,7.355h17.997"/>
	<path style="&st1;" d="M23.386,15.755h14.569"/>
	<g ewd:pinNo="1">
		<text transform="matrix(1 0 0 1 20.5151 34.5073)"><tspan x="0" y="0" style="&st3; &st2;">1</tspan></text>
	</g>
	<g ewd:pinNo="2">
		<text transform="matrix(1 0 0 1 37.4419 34.5073)"><tspan x="0" y="0" style="&st3; &st2;">2</tspan></text>
	</g>
	<g ewd:pinNo="3">
		<text transform="matrix(1 0 0 1 20.5151 46.2773)"><tspan x="0" y="0" style="&st3; &st2;">3</tspan></text>
	</g>
	<g ewd:pinNo="4">
		<text transform="matrix(1 0 0 1 37.4419 46.269)"><tspan x="0" y="0" style="&st3; &st2;">4</tspan></text>
	</g>
</g>
</svg>