﻿<?xml version="1.0" encoding="utf-8"?>
<!DOCTYPE svg PUBLIC "-//W3C//DTD SVG 1.0//EN" "http://www.w3.org/TR/2001/REC-SVG-20010904/DTD/svg10.dtd"[
	<!ENTITY ns_flows "http://ns.adobe.com/Flows/1.0/">
	<!ENTITY ns_svg "http://www.w3.org/2000/svg">
	<!ENTITY ns_xlink "http://www.w3.org/1999/xlink">
	<!ENTITY st0 "font-size:7px;font-family:'MS-PGothic';adobe-font-script:japanese;">
	<!ENTITY st1 "font-size:6px;font-family:'ArialMT';">
	<!-- White fill  -->
	<!ENTITY st2 "fill:#FFFFFF;stroke:#000000; stroke-width:1.41;stroke-linecap:round;stroke-linejoin:round;">
	<!-- Yellow fill  -->
	<!ENTITY st3 "fill:#FFFFCC;stroke:#FFFFCC; stroke-width:0.1;stroke-linecap:round;stroke-linejoin:round;">
	<!-- Gray fill  -->
	<!ENTITY st4 "fill:#CCCCCC;stroke:#CCCCCC; stroke-width:0.1;stroke-linecap:round;stroke-linejoin:round;">
	<!-- Light-blue fill -->
	<!ENTITY st5 "fill:#CCECF4;stroke:#000000; stroke-width:1.133;stroke-linecap:round;stroke-linejoin:round;">
	<!ENTITY st6 "fill:none;stroke-linecap:butt; stroke-linejoin:round;">
	<!ENTITY st7 "fill:none;stroke:#000000;stroke-linecap:round;stroke-linejoin:round;">
	<!ENTITY st8 "enable-background:new    ;">
	<!-- Black fill -->
	<!ENTITY st9 "fill:#000000;stroke:#000000; stroke-linecap:round;stroke-linejoin:round;">
	<!-- SRS note   -->
	<!ENTITY st10 "font-size:9px;font-family:'ArialMT';">
	<!ENTITY st11 "font-size:9px;font-family:'Svg Symbol';">
	<!ENTITY st12 "font-size:6px;font-family:'Svg Symbol';">
	<!ENTITY st13 "fill:none;stroke:#ff0000;stroke-linecap:round;stroke-linejoin:round;">
	<!-- Yellow fill  -->
	<!ENTITY st14 "fill:#FFFF00;stroke:#FFFF00; stroke-width:0.1;stroke-linecap:round;stroke-linejoin:round;">
	<!ENTITY st15 "font-size:6px;font-family:'MS-PGothic';adobe-font-script:japanese;">
	<!ENTITY st16 "1.00 0.00 0.00 1.00">
	<!ENTITY st17 "0.00 -1.00 1.00 0.00">
	<!ENTITY st18 "font-size:6px;font-family:'Arial';">
	<!ENTITY st19 "font-size:9px;font-family:'Arial';">
	<!ENTITY st20 "font-size:6px;font-family:'MS-PGothic','MS PGothic';adobe-font-script:japanese;">
	<!ENTITY st21 "font-size:7px;font-family:'MS-PGothic','MS PGothic';adobe-font-script:japanese;">
	<!ATTLIST svg
		xmlns:ewd CDATA #FIXED "http://shcl.co.jp/ewd"
		xmlns:a CDATA #FIXED "http://ns.adobe.com/AdobeSVGViewerExtensions/3.0/"
		ewd:ver CDATA #IMPLIED
	>
	<!ATTLIST a
		ewd:lineID CDATA #IMPLIED
		ewd:groupID CDATA #IMPLIED
		ewd:figtype CDATA #IMPLIED
		ewd:code CDATA #IMPLIED
		ewd:figID CDATA #IMPLIED
		ewd:pinNo CDATA #IMPLIED
		ewd:comment CDATA #IMPLIED >
	<!ATTLIST g
		ewd:lineID CDATA #IMPLIED
		ewd:groupID CDATA #IMPLIED
		ewd:figtype CDATA #IMPLIED
		ewd:code CDATA #IMPLIED
		ewd:figID CDATA #IMPLIED
		ewd:pinNo CDATA #IMPLIED
		ewd:comment CDATA #IMPLIED >
	<!ATTLIST text
		ewd:textID CDATA #IMPLIED >
	<!ATTLIST title
		ewd:textID CDATA #IMPLIED >
]>
<!-- Generator: Shintec Hozumi YS   -->
<svg onload="call_execInitLoadProc_svg('system')" style="overflow:visible;  enable-background:new 0 0 5176.343 710.000" viewBox="0 0 5176.343 710.000" height="710.000" width="5176.343" xml:space="preserve" ewd:ver="L2.1.2.8" xmlns="&ns_svg;" xmlns:a="http://ns.adobe.com/AdobeSVGViewerExtensions/3.0/" xmlns:ewd="http://shcl.co.jp/ewd" xmlns:xlink="&ns_xlink;">
<path d=" M 5004.54,  263.29  L 5011.90,  259.05 " style="stroke-width: 0.85 ;&st7; " /><path d=" M 5009.90,  255.58  L 5002.54,  259.83 " style="stroke-width: 0.85 ;&st7; " /><path d=" M 5039.66,  290.74  L 5039.66,  307.73 " style="stroke-width: 1.42 ;&st7; " /><path d=" M 5055.53,  263.29  L 5062.89,  259.05 " style="stroke-width: 0.85 ;&st7; " /><path d=" M 5060.89,  255.58  L 5053.53,  259.83 " style="stroke-width: 0.85 ;&st7; " /><path d=" M 5052.41,  265.24  L 5043.91,  265.24 " style="stroke-width: 0.85 ;&st7; " /><path d=" M 5103.40,  265.24  L 5094.90,  265.24 " style="stroke-width: 0.85 ;&st7; " /><path d=" M 5111.88,  255.58  L 5104.52,  259.83 " style="stroke-width: 0.85 ;&st7; " /><path d=" M 5106.52,  263.29  L 5113.88,  259.05 " style="stroke-width: 0.85 ;&st7; " /><path d=" M 5090.65,  290.74  L 5090.65,  307.73 " style="stroke-width: 1.42 ;&st7; " /><path d=" M 5091.22,  302.44  L 5099.15,  307.73 " style="stroke-width: 0.85 ;&st7; " /><path d=" M 5099.15,  290.74  L 5090.65,  296.40 " style="stroke-width: 0.85 ;&st7; " /><path d=" M 5040.22,  302.44  L 5048.16,  307.73 " style="stroke-width: 0.85 ;&st7; " /><path d=" M 5048.16,  290.74  L 5039.66,  296.40 " style="stroke-width: 0.85 ;&st7; " /><path d=" M 5150.14,  290.74  L 5141.64,  296.40 " style="stroke-width: 0.85 ;&st7; " /><path d=" M 5142.21,  302.44  L 5150.14,  307.73 " style="stroke-width: 0.85 ;&st7; " /><path d=" M 5154.39,  265.24  L 5145.89,  265.24 " style="stroke-width: 0.85 ;&st7; " /><path d=" M 5162.87,  255.58  L 5155.51,  259.83 " style="stroke-width: 0.85 ;&st7; " /><path d=" M 5157.52,  263.29  L 5164.88,  259.05 " style="stroke-width: 0.85 ;&st7; " /><path d=" M 5141.64,  290.74  L 5141.64,  307.73 " style="stroke-width: 1.42 ;&st7; " /><path d=" M 5150.14,  265.24  L 5144.47,  256.74  L 5155.80,  256.74  L 5150.14,  265.24 " style="stroke-width: 0.28 ;&st9;" /><path d=" M 5099.15,  248.24  L 5099.15,  239.75  L 5096.31,  238.33  L 5101.98,  235.50  L 5096.31,  232.66  L 5101.98,  229.83  L 5096.31,  227.00  L 5101.98,  224.16  L 5099.15,  222.75  L 5099.15,  205.75 " style="stroke-width: 0.85 ;&st7; " /><path d=" M 5099.15,  265.24  L 5093.48,  256.74  L 5104.81,  256.74  L 5099.15,  265.24 " style="stroke-width: 0.28 ;&st9;" /><path d=" M 5111.88,  255.58  L 5109.55,  258.62  L 5108.08,  256.08  L 5111.88,  255.58  L 5110.60,  256.32  L 5109.61,  257.60  L 5108.99,  256.53  L 5110.60,  256.32  L 5109.96,  256.69  L 5109.64,  257.09  L 5109.45,  256.75  L 5109.96,  256.69 " style="stroke-width: 0.85 ;&st7; " /><path d=" M 5113.88,  259.05  L 5111.55,  262.09  L 5110.08,  259.55  L 5113.88,  259.05  L 5112.60,  259.79  L 5111.62,  261.07  L 5111.00,  260.00  L 5112.60,  259.79  L 5111.96,  260.16  L 5111.65,  260.56  L 5111.45,  260.22  L 5111.96,  260.16 " style="stroke-width: 0.85 ;&st7; " /><path d=" M 5099.15,  290.74  L 5099.15,  248.24 " style="stroke-width: 0.85 ;&st7; " /><path d=" M 5090.65,  299.24  L 5073.65,  299.24  L 5073.65,  333.23 " style="stroke-width: 0.85 ;&st7; " /><path d=" M 5097.95,  204.75  L 5097.68,  205.22  L 5097.59,  205.75  L 5097.68,  206.28  L 5097.95,  206.75  L 5098.37,  207.10  L 5098.88,  207.29  L 5099.41,  207.29  L 5099.92,  207.10  L 5100.34,  206.75  L 5100.61,  206.28  L 5100.70,  205.75  L 5100.61,  205.22  L 5100.34,  204.75  L 5099.92,  204.40  L 5099.41,  204.22  L 5098.88,  204.22  L 5098.37,  204.40  L 5097.95,  204.75  L 5098.35,  205.46  L 5098.35,  206.04  L 5098.72,  206.49  L 5099.29,  206.59  L 5099.80,  206.30  L 5100.00,  205.75  L 5099.80,  205.20  L 5099.29,  204.92  L 5098.72,  205.01  L 5099.15,  205.75 " style="stroke-width: 0.85 ;&st7; " /><path d=" M 5099.15,  307.73  L 5099.15,  316.23 " style="stroke-width: 0.85 ;&st7; " /><path d=" M 5090.65,  316.23  L 5107.64,  316.23 " style="stroke-width: 0.85 ;&st7; " /><path d=" M 5094.90,  319.07  L 5103.40,  319.07 " style="stroke-width: 0.85 ;&st7; " /><path d=" M 5096.31,  321.90  L 5101.98,  321.90 " style="stroke-width: 0.85 ;&st7; " /><path d=" M 5097.73,  324.73  L 5100.56,  324.73 " style="stroke-width: 0.85 ;&st7; " /><path d=" M 5048.15,  248.24  L 5048.15,  239.75  L 5045.32,  238.33  L 5050.99,  235.50  L 5045.32,  232.66  L 5050.99,  229.83  L 5045.32,  227.00  L 5050.99,  224.16  L 5048.15,  222.75  L 5048.15,  205.75 " style="stroke-width: 0.85 ;&st7; " /><path d=" M 5048.15,  265.24  L 5042.49,  256.74  L 5053.82,  256.74  L 5048.15,  265.24 " style="stroke-width: 0.28 ;&st9;" /><path d=" M 5060.89,  255.58  L 5058.55,  258.62  L 5057.09,  256.08  L 5060.89,  255.58  L 5059.60,  256.32  L 5058.62,  257.60  L 5058.00,  256.53  L 5059.60,  256.32  L 5058.96,  256.69  L 5058.65,  257.09  L 5058.46,  256.75  L 5058.96,  256.69 " style="stroke-width: 0.85 ;&st7; " /><path d=" M 5062.89,  259.05  L 5060.56,  262.09  L 5059.09,  259.55  L 5062.89,  259.05  L 5061.61,  259.79  L 5060.62,  261.07  L 5060.00,  260.00  L 5061.61,  259.79  L 5060.97,  260.16  L 5060.66,  260.56  L 5060.46,  260.22  L 5060.97,  260.16 " style="stroke-width: 0.85 ;&st7; " /><path d=" M 5048.15,  290.74  L 5048.15,  248.24 " style="stroke-width: 0.85 ;&st7; " /><path d=" M 5039.66,  299.24  L 5022.66,  299.24  L 5022.66,  333.23 " style="stroke-width: 0.85 ;&st7; " /><path d=" M 5048.15,  307.73  L 5048.15,  316.23 " style="stroke-width: 0.85 ;&st7; " /><path d=" M 5039.66,  316.23  L 5056.65,  316.23 " style="stroke-width: 0.85 ;&st7; " /><path d=" M 5043.91,  319.07  L 5052.40,  319.07 " style="stroke-width: 0.85 ;&st7; " /><path d=" M 5045.32,  321.90  L 5050.99,  321.90 " style="stroke-width: 0.85 ;&st7; " /><path d=" M 5046.74,  324.73  L 5049.57,  324.73 " style="stroke-width: 0.85 ;&st7; " /><path d=" M 5150.14,  290.74  L 5150.14,  248.24 " style="stroke-width: 0.85 ;&st7; " /><path d=" M 5141.64,  299.24  L 5124.64,  299.24  L 5124.64,  333.23 " style="stroke-width: 0.85 ;&st7; " /><path d=" M 5164.87,  259.05  L 5162.54,  262.09  L 5161.07,  259.55  L 5164.87,  259.05  L 5163.59,  259.79  L 5162.61,  261.07  L 5161.99,  260.00  L 5163.59,  259.79  L 5162.95,  260.16  L 5162.64,  260.56  L 5162.44,  260.22  L 5162.95,  260.16 " style="stroke-width: 0.85 ;&st7; " /><path d=" M 5162.87,  255.58  L 5160.54,  258.62  L 5159.07,  256.08  L 5162.87,  255.58  L 5161.59,  256.32  L 5160.60,  257.60  L 5159.98,  256.53  L 5161.59,  256.32  L 5160.95,  256.69  L 5160.64,  257.09  L 5160.44,  256.75  L 5160.95,  256.69 " style="stroke-width: 0.85 ;&st7; " /><path d=" M 5150.14,  307.73  L 5150.14,  316.23 " style="stroke-width: 0.85 ;&st7; " /><path d=" M 5141.64,  316.23  L 5158.64,  316.23 " style="stroke-width: 0.85 ;&st7; " /><path d=" M 5145.89,  319.07  L 5154.39,  319.07 " style="stroke-width: 0.85 ;&st7; " /><path d=" M 5147.30,  321.90  L 5152.97,  321.90 " style="stroke-width: 0.85 ;&st7; " /><path d=" M 5148.72,  324.73  L 5151.55,  324.73 " style="stroke-width: 0.85 ;&st7; " /><path d=" M 5046.96,  204.75  L 5046.69,  205.22  L 5046.60,  205.75  L 5046.69,  206.28  L 5046.96,  206.75  L 5047.38,  207.10  L 5047.89,  207.29  L 5048.42,  207.29  L 5048.93,  207.10  L 5049.35,  206.75  L 5049.62,  206.28  L 5049.71,  205.75  L 5049.62,  205.22  L 5049.35,  204.75  L 5048.93,  204.40  L 5048.42,  204.22  L 5047.89,  204.22  L 5047.38,  204.40  L 5046.96,  204.75  L 5047.36,  205.46  L 5047.36,  206.04  L 5047.73,  206.49  L 5048.30,  206.59  L 5048.81,  206.30  L 5049.00,  205.75  L 5048.81,  205.20  L 5048.30,  204.92  L 5047.73,  205.01  L 5048.15,  205.75 " style="stroke-width: 0.85 ;&st7; " /><path d=" M 5011.90,  259.05  L 5009.57,  262.09  L 5008.10,  259.55  L 5011.90,  259.05  L 5010.62,  259.79  L 5009.63,  261.07  L 5009.01,  260.00  L 5010.62,  259.79  L 5009.98,  260.16  L 5009.66,  260.56  L 5009.47,  260.22  L 5009.98,  260.16 " style="stroke-width: 0.85 ;&st7; " /><path d=" M 5009.90,  255.58  L 5007.56,  258.62  L 5006.09,  256.08  L 5009.90,  255.58  L 5008.61,  256.32  L 5007.63,  257.60  L 5007.01,  256.53  L 5008.61,  256.32  L 5007.97,  256.69  L 5007.66,  257.09  L 5007.47,  256.75  L 5007.97,  256.69 " style="stroke-width: 0.85 ;&st7; " /><text ewd:textID="31" style="&st18;" transform="matrix(&st17;  5091.49  266.75 )">Slip</text><text style="&st18;" transform="matrix(&st17;  5040.49  267.99 )">ABS</text><text ewd:textID="9" style="&st18;" transform="matrix(&st17;  5142.48  270.25 )">Brake</text></svg>