﻿<?xml version="1.0" encoding="UTF-8"?>
<!DOCTYPE svg PUBLIC "-//W3C//DTD SVG 1.0//EN" "http://www.w3.org/TR/2001/REC-SVG-20010904/DTD/svg10.dtd"[
	<!ENTITY ns_flows "http://ns.adobe.com/Flows/1.0/">
	<!ENTITY ns_svg "http://www.w3.org/2000/svg">
	<!ENTITY ns_xlink "http://www.w3.org/1999/xlink">
	<!ENTITY st0 "font-size:7px;font-family:'MS-PGothic';adobe-font-script:japanese;">
	<!ENTITY st1 "font-size:6px;font-family:'ArialMT';">
	<!-- White fill  -->
	<!ENTITY st2 "fill:#FFFFFF;stroke:#000000; stroke-width:1.41;stroke-linecap:round;stroke-linejoin:round;">
	<!-- Yellow fill  -->
	<!ENTITY st3 "fill:#FFFFCC;stroke:#FFFFCC; stroke-width:0.1;stroke-linecap:round;stroke-linejoin:round;">
	<!-- Gray fill  -->
	<!ENTITY st4 "fill:#CCCCCC;stroke:#CCCCCC; stroke-width:0.1;stroke-linecap:round;stroke-linejoin:round;">
	<!-- Light-blue fill -->
	<!ENTITY st5 "fill:#CCECF4;stroke:#000000; stroke-width:1.133;stroke-linecap:round;stroke-linejoin:round;">
	<!ENTITY st6 "fill:none;stroke-linecap:butt; stroke-linejoin:round;">
	<!ENTITY st7 "fill:none;stroke:#000000;stroke-linecap:round;stroke-linejoin:round;">
	<!ENTITY st8 "enable-background:new    ;">
	<!-- Black fill -->
	<!ENTITY st9 "fill:#000000;stroke:#000000; stroke-linecap:round;stroke-linejoin:round;">
	<!-- SRS note   -->
	<!ENTITY st10 "font-size:9px;font-family:'ArialMT';">
	<!ENTITY st11 "font-size:9px;font-family:'Svg Symbol';">
	<!ENTITY st12 "font-size:6px;font-family:'Svg Symbol';">
	<!ENTITY st13 "fill:none;stroke:#ff0000;stroke-linecap:round;stroke-linejoin:round;">
	<!-- Yellow fill  -->
	<!ENTITY st14 "fill:#FFFF00;stroke:#FFFF00; stroke-width:0.1;stroke-linecap:round;stroke-linejoin:round;">
	<!ENTITY st15 "font-size:6px;font-family:'MS-PGothic';adobe-font-script:japanese;">
	<!ENTITY st16 "1.00 0.00 0.00 1.00">
	<!ENTITY st17 "0.00 -1.00 1.00 0.00">
	<!ENTITY st18 "font-size:6px;font-family:'Arial';">
	<!ENTITY st19 "font-size:9px;font-family:'Arial';">
	<!ENTITY st20 "font-size:6px;font-family:'MS-PGothic','MS PGothic';adobe-font-script:japanese;">
	<!ENTITY st21 "font-size:7px;font-family:'MS-PGothic','MS PGothic';adobe-font-script:japanese;">
	<!ATTLIST svg
		xmlns:ewd CDATA #FIXED "http://shcl.co.jp/ewd"
		xmlns:a CDATA #FIXED "http://ns.adobe.com/AdobeSVGViewerExtensions/3.0/"
		ewd:ver CDATA #IMPLIED
	>
	<!ATTLIST a
		ewd:lineID CDATA #IMPLIED
		ewd:groupID CDATA #IMPLIED
		ewd:figtype CDATA #IMPLIED
		ewd:code CDATA #IMPLIED
		ewd:figID CDATA #IMPLIED
		ewd:pinNo CDATA #IMPLIED
		ewd:comment CDATA #IMPLIED >
	<!ATTLIST g
		ewd:lineID CDATA #IMPLIED
		ewd:groupID CDATA #IMPLIED
		ewd:figtype CDATA #IMPLIED
		ewd:code CDATA #IMPLIED
		ewd:figID CDATA #IMPLIED
		ewd:pinNo CDATA #IMPLIED
		ewd:comment CDATA #IMPLIED >
	<!ATTLIST text
		ewd:textID CDATA #IMPLIED >
	<!ATTLIST title
		ewd:textID CDATA #IMPLIED >
]>
<!-- Generator: Shintec Hozumi YS   -->
<svg onload="call_execInitLoadProc_svg('system')" style="overflow:visible;  enable-background:new 0 0 996.478 710.000" viewBox="0 0 996.478 710.000" height="710.000" width="996.478" xml:space="preserve" ewd:ver="L2.1.2.8" xmlns="&ns_svg;" xmlns:a="http://ns.adobe.com/AdobeSVGViewerExtensions/3.0/" xmlns:ewd="http://shcl.co.jp/ewd" xmlns:xlink="&ns_xlink;">
	<script type="text/javascript" xlink:href="../../../../../system/js/ewd/fig/svgfig.js"/>
	<defs>
		<font horiz-adv-x="1229">
			<font-face font-family="Svg Symbol" units-per-em="2048" panose-1="5 5 1 2 1 7 6 2 5 7" ascent="2059" descent="450" alphabetic="0"/>
			<missing-glyph d="M 103,0 l 0,1280 1024,0 0,-1280 -1024,0 z m 32,32 l 960,0 0,1216 -960,0 0,-1216 z"/>
			<glyph unicode="&#xF057;" horiz-adv-x="1573" d="M 1517,0 l -567,0 24,279 q 141,59 207.5,168 66.5,109 66.5,306    0,272 -132.5,417.5 -132.5,145.5 -333.5,145.5 -194,0 -328,-147.5 -134,-147.5 -134,-401.5 0,-200 68.5,-319 68.5,-119     206.5,-169 l 25,-279 -564,0 0,279 35,0 q 3,-61 32,-83 45,-35 137,-35 l 270,0 0,70 q -210,61 -324.5,209 -114.5,148     -114.5,349 0,252 186.5,425 186.5,173 504.5,173 195,0 358.5,-73.5 163.5,-73.5 252,-214.5 88.5,-141 88.5,-310 0,-207     -121.5,-360.5 -121.5,-153.5 -317.5,-197.5 l -8,-70 275,0 q 92,0 128,28 36,28 42,90 l 38,0 0,-279 z"/>
		</font>
	</defs>
<g id="ewd_top">
	<a ewd:code="A49" ewd:figID="1" ewd:figtype="conn" style="cursor:pointer;">
		<path d=" M  611.90,  171.76  L  628.89,  171.76  L  628.89,  188.75  L  611.90,  188.75  L  611.90,  171.76 " style="&st5;"/>
		<title ewd:textID="15">Junction Connector</title>
	</a>
	<a ewd:code="A18" ewd:figID="2" ewd:figtype="conn" style="cursor:pointer;">
		<path d=" M  577.90,  562.69  L  577.90,  426.71  L  832.86,  426.71  L  832.86,  562.69  L  577.90,  562.69 " style="&st5;"/>
		<title ewd:textID="11">Front Windshield Wiper Motor Assembly</title>
	</a>
	<a ewd:code="A19,A60" ewd:figID="3" ewd:figtype="conn" style="cursor:pointer;">
		<path d=" M  709.63,  172.90  L  709.63,  172.90  L  709.63,  168.92  L  718.13,  168.92  L  718.13,  172.90  C  719.49   173.68   720.46   174.65   721.24   176.00  L  721.24,  176.00  C  723.59   180.07   722.20   185.27   718.13   187.61  L  718.13,  187.61  L  718.13,  191.59  L  709.63,  191.59  L  709.63,  187.61  C  708.28   186.83   707.30   185.86   706.52   184.50  L  706.52,  184.50  C  704.17   180.44   705.57   175.24   709.63   172.89 " style="&st5;"/>
		<title ewd:textID="10">Front Windshield Washer Motor and Pump Assembly</title>
	</a>
	<a ewd:code="G11-A,G12-B,G13-C,G14-D" ewd:figID="4" ewd:figtype="conn" style="cursor:pointer;">
		<path d=" M   50.99,   52.78  L   50.99,  435.21  L  339.94,  435.21  L  339.94,   52.78  L   50.99,   52.78 " style="&st5;"/>
		<title ewd:textID="20">Windshield Wiper Switch Assembly</title>
	</a>
	<a ewd:code="3" ewd:figID="5" ewd:figtype="jb" style="cursor:pointer;">
		<path d=" M  696.88,   35.78  L  696.88,  120.77  L  858.36,  120.77  L  858.36,   35.78  L  696.88,   35.78 " style="&st4;"/>
	</a>
	<a ewd:code="FUSE56" ewd:figID="6" ewd:figtype="fuse" style="cursor:pointer;">
		<path d=" M  828.61,   78.27  L  828.61,   35.78  L  803.12,   35.78  L  803.12,   78.27  L  828.61,   78.27 " style="&st7;"/>
	</a>
	<a ewd:code="FUSE49" ewd:figID="7" ewd:figtype="fuse" style="cursor:pointer;">
		<path d=" M  726.63,   78.27  L  726.63,   35.78  L  701.13,   35.78  L  701.13,   78.27  L  726.63,   78.27 " style="&st7;"/>
	</a>
	<a ewd:lineID="1" style="cursor:pointer;">
		<path d=" M  399.43,  681.67  L  399.43,  384.22  L  358.07,  384.22 " style="stroke:#000000;stroke-width: 5.10 ;&st6;"/>
		<path d=" M  399.43,  681.67  L  399.43,  384.22  L  358.07,  384.22 " style="stroke:#FFFFFF;stroke-width: 4.53 ;&st6;"/>
		<path d=" M  399.43,  681.67  L  399.43,  384.22  L  358.07,  384.22 " style="stroke:#000000;stroke-width: 1.13 ;&st6;"/>
	</a>
	<a ewd:lineID="2" style="cursor:pointer;">
		<path d=" M  433.43,  681.67  L  433.43,  367.22  L  382.44,  367.22  L  365.44,  384.22  L  358.07,  384.22 " style="stroke:#000000;stroke-width: 5.10 ;&st6;"/>
		<path d=" M  433.43,  681.67  L  433.43,  367.22  L  382.44,  367.22  L  365.44,  384.22  L  358.07,  384.22 " style="stroke:#FFFFFF;stroke-width: 4.53 ;&st6;"/>
		<path d=" M  433.43,  681.67  L  433.43,  367.22  L  382.44,  367.22  L  365.44,  384.22  L  358.07,  384.22 " style="stroke:#000000;stroke-width: 1.13 ;&st6;"/>
	</a>
	<a ewd:lineID="3" style="cursor:pointer;">
		<path d=" M  594.90,  369.49  L  594.90,  350.23  L  358.07,  350.23 " style="stroke:#99D9E8;stroke-width: 5.10 ;&st6;"/>
	</a>
	<a ewd:lineID="4" style="cursor:pointer;">
		<path d=" M  790.37,  120.77  L  790.37,  316.23  L  358.07,  316.23 " style="stroke:#000000;stroke-width: 5.10 ;&st6;"/>
	</a>
	<a ewd:lineID="5" style="cursor:pointer;">
		<path d=" M  671.39,  369.49  L  671.39,  282.24  L  358.07,  282.24 " style="stroke:#FFE600;stroke-width: 5.10 ;&st6;"/>
	</a>
	<a ewd:lineID="6" style="cursor:pointer;">
		<path d=" M  739.38,  369.21  L  739.38,  256.74  L  358.07,  256.74 " style="stroke:#000000;stroke-width: 5.10 ;&st6;"/>
		<path d=" M  739.38,  369.21  L  739.38,  256.74  L  358.07,  256.74 " style="stroke:#FFFFFF;stroke-width: 4.53 ;&st6;"/>
	</a>
	<a ewd:lineID="7" style="cursor:pointer;">
		<path d=" M  654.39,  114.53  L  654.39,   95.27  L  358.07,   95.27 " style="stroke:#999999;stroke-width: 5.10 ;&st6;"/>
	</a>
	<a ewd:lineID="8" style="cursor:pointer;">
		<path d=" M  594.90,  681.67  L  594.90,  639.18 " style="stroke:#000000;stroke-width: 5.10 ;&st6;"/>
		<path d=" M  594.90,  681.67  L  594.90,  639.18 " style="stroke:#FFFFFF;stroke-width: 4.53 ;&st6;"/>
		<path d=" M  594.90,  681.67  L  594.90,  639.18 " style="stroke:#000000;stroke-width: 1.13 ;&st6;"/>
	</a>
	<a ewd:lineID="9" style="cursor:pointer;">
		<path d=" M  594.90,  622.18  L  594.90,  580.82 " style="stroke:#000000;stroke-width: 5.10 ;&st6;"/>
		<path d=" M  594.90,  622.18  L  594.90,  580.82 " style="stroke:#FFFFFF;stroke-width: 4.53 ;&st6;"/>
		<path d=" M  594.90,  622.18  L  594.90,  580.82 " style="stroke:#000000;stroke-width: 1.13 ;&st6;"/>
	</a>
	<a ewd:lineID="10" style="cursor:pointer;">
		<path d=" M  594.90,  384.22  L  594.90,  408.58 " style="stroke:#FF0000;stroke-width: 5.10 ;&st6;"/>
	</a>
	<a ewd:lineID="11" style="cursor:pointer;">
		<path d=" M  603.40,  630.68  L  628.89,  630.68  L  628.89,  681.67 " style="stroke:#000000;stroke-width: 5.10 ;&st6;"/>
		<path d=" M  603.40,  630.68  L  628.89,  630.68  L  628.89,  681.67 " style="stroke:#FFFFFF;stroke-width: 4.53 ;&st6;"/>
		<path d=" M  603.40,  630.68  L  628.89,  630.68  L  628.89,  681.67 " style="stroke:#000000;stroke-width: 1.13 ;&st6;"/>
	</a>
	<a ewd:lineID="12" style="cursor:pointer;">
		<path d=" M  620.40,  188.75  L  620.40,  239.75  L  713.88,  239.75  L  713.88,  209.72 " style="stroke:#992903;stroke-width: 5.10 ;&st6;"/>
	</a>
	<a ewd:lineID="13" style="cursor:pointer;">
		<path d=" M  654.39,  129.26  L  654.39,  137.76  L  645.89,  146.26  L  620.40,  146.26  L  620.40,  171.76 " style="stroke:#992903;stroke-width: 5.10 ;&st6;"/>
	</a>
	<a ewd:lineID="14" style="cursor:pointer;">
		<path d=" M  654.39,  129.26  L  654.39,  222.75  L  705.38,  222.75  L  713.88,  214.25  L  713.88,  209.72 " style="stroke:#992903;stroke-width: 5.10 ;&st6;"/>
	</a>
	<a ewd:lineID="15" style="cursor:pointer;">
		<path d=" M  671.39,  384.22  L  671.39,  408.58 " style="stroke:#00A0C6;stroke-width: 5.10 ;&st6;"/>
	</a>
	<a ewd:lineID="16" style="cursor:pointer;">
		<path d=" M  713.88,  120.77  L  713.88,  150.79 " style="stroke:#00A0C6;stroke-width: 5.10 ;&st6;"/>
	</a>
	<a ewd:lineID="17" style="cursor:pointer;">
		<path d=" M  739.38,  384.22  L  739.38,  408.58 " style="stroke:#000000;stroke-width: 5.10 ;&st6;"/>
		<path d=" M  739.38,  384.22  L  739.38,  408.58 " style="stroke:#FFFFFF;stroke-width: 4.53 ;&st6;"/>
	</a>
	<a ewd:lineID="18" style="cursor:pointer;">
		<path d=" M  815.86,  120.77  L  815.86,  408.58 " style="stroke:#000000;stroke-width: 5.10 ;&st6;"/>
	</a>
	<path d=" M  288.95,  125.01  L  288.95,  133.51 " style="stroke-width: 1.42 ;&st7; "/>
	<path d=" M  263.46,  188.75  L  269.12,  180.26 " style="stroke-width: 0.85 ;&st7; "/>
	<path d=" M  280.45,  180.26  L  263.46,  180.26 " style="stroke-width: 1.42 ;&st7; "/>
	<path d=" M  246.46,  120.77  L  240.79,  112.27 " style="stroke-width: 0.85 ;&st7; "/>
	<path d=" M  234.75,  112.83  L  229.46,  120.77 " style="stroke-width: 0.85 ;&st7; "/>
	<path d=" M  237.96,  112.27  L  237.96,   95.27 " style="stroke-width: 0.85 ;&st7; "/>
	<path d=" M  246.46,  112.27  L  229.46,  112.27 " style="stroke-width: 1.42 ;&st7; "/>
	<path d=" M  254.96,  188.75  L  263.46,  188.75 " style="stroke-width: 0.85 ;&st7; "/>
	<path d=" M  203.97,  188.75  L  237.96,  188.75 " style="stroke-width: 0.85 ;&st7; "/>
	<path d=" M  818.70,  494.42  L  800.28,  486.20 " style="stroke-width: 1.42 ;&st7; "/>
	<path d=" M  675.64,  539.32  L  667.14,  539.32 " style="stroke-width: 1.42 ;&st7; "/>
	<path d=" M  671.39,  539.32  L  671.39,  426.71 " style="stroke-width: 0.85 ;&st7; "/>
	<path d=" M  229.46,  167.51  L  229.46,  176.01 " style="stroke-width: 0.85 ;&st7; "/>
	<path d=" M  671.39,  554.19  L  671.39,  543.57 " style="stroke-width: 0.85 ;&st7; "/>
	<path d=" M  620.40,  539.32  L  620.40,  443.71 " style="stroke-width: 0.85 ;&st7; "/>
	<path d=" M  620.40,  554.19  L  620.40,  543.57 " style="stroke-width: 0.85 ;&st7; "/>
	<path d=" M  675.64,  543.57  L  667.14,  543.57 " style="stroke-width: 1.42 ;&st7; "/>
	<path d=" M  815.86,  476.29  L  815.86,  426.71 " style="stroke-width: 0.85 ;&st7; "/>
	<path d=" M  293.20,  125.01  L  293.20,  133.51 " style="stroke-width: 1.42 ;&st7; "/>
	<path d=" M  713.88,   69.77  L  713.88,   78.27 " style="stroke-width: 0.85 ;&st7; "/>
	<path d=" M  624.65,  539.32  L  616.15,  539.32 " style="stroke-width: 1.42 ;&st7; "/>
	<path d=" M  624.65,  543.57  L  616.15,  543.57 " style="stroke-width: 1.42 ;&st7; "/>
	<path d=" M  606.23,  494.70  L  645.89,  494.70 " style="stroke-width: 0.85 ;&st7; "/>
	<path d=" M  662.89,  494.70  L  671.39,  494.70 " style="stroke-width: 0.85 ;&st7; "/>
	<path d=" M  716.01,  120.77  L  711.76,  120.77 " style="stroke-width: 1.42 ;&st7; "/>
	<path d=" M  815.86,   69.77  L  815.86,   78.27 " style="stroke-width: 0.85 ;&st7; "/>
	<path d=" M  817.99,  120.77  L  813.74,  120.77 " style="stroke-width: 1.42 ;&st7; "/>
	<path d=" M  817.99,  112.27  L  813.74,  112.27 " style="stroke-width: 1.42 ;&st7; "/>
	<path d=" M  792.49,  120.77  L  788.24,  120.77 " style="stroke-width: 1.42 ;&st7; "/>
	<path d=" M  792.49,  112.27  L  788.24,  112.27 " style="stroke-width: 1.42 ;&st7; "/>
	<path d=" M  716.01,  112.27  L  711.76,  112.27 " style="stroke-width: 1.42 ;&st7; "/>
	<path d=" M  310.20,  233.37  L  301.70,  233.37 " style="stroke-width: 1.42 ;&st7; "/>
	<path d=" M  310.20,  237.62  L  301.70,  237.62 " style="stroke-width: 1.42 ;&st7; "/>
	<path d=" M  730.88,  375.72  L  739.38,  375.72 " style="stroke-width: 1.42 ;&st7; "/>
	<path d=" M  645.89,  120.77  L  654.39,  120.77 " style="stroke-width: 1.42 ;&st7; "/>
	<path d=" M  718.13,  168.92  L  718.13,  172.89 " style="stroke-width: 1.42 ;&st7; "/>
	<path d=" M  709.63,  191.59  L  718.13,  191.59 " style="stroke-width: 1.42 ;&st7; "/>
	<path d=" M  709.63,  172.89  L  709.63,  168.92 " style="stroke-width: 1.42 ;&st7; "/>
	<path d=" M  709.63,  168.92  L  718.13,  168.92 " style="stroke-width: 1.42 ;&st7; "/>
	<path d=" M  709.63,  187.62  L  709.63,  191.59 " style="stroke-width: 1.42 ;&st7; "/>
	<path d=" M  718.13,  191.59  L  718.13,  187.62 " style="stroke-width: 1.42 ;&st7; "/>
	<path d=" M  594.90,  469.21  L  594.90,  469.21 " style="stroke-width: 0.85 ;&st7; "/>
	<path d=" M  594.90,  443.71  L  594.90,  452.21 " style="stroke-width: 0.85 ;&st7; "/>
	<path d=" M  662.89,  375.72  L  671.39,  375.72 " style="stroke-width: 1.42 ;&st7; "/>
	<path d=" M  586.40,  375.72  L  594.90,  375.72 " style="stroke-width: 1.42 ;&st7; "/>
	<path d=" M  815.86,   86.77  L  815.86,   95.27 " style="stroke-width: 0.85 ;&st7; "/>
	<path d=" M  815.86,   95.27  L  815.86,   95.27 " style="stroke-width: 0.85 ;&st7; "/>
	<path d=" M  807.37,   95.27  L  815.86,   95.27 " style="stroke-width: 0.85 ;&st7; "/>
	<path d=" M  603.40,  627.15  L  598.43,  622.18 " style="stroke-width: 1.42 ;&st7; "/>
	<path d=" M  586.40,  634.21  L  591.37,  639.18 " style="stroke-width: 1.42 ;&st7; "/>
	<path d=" M  598.43,  639.18  L  603.40,  634.21 " style="stroke-width: 1.42 ;&st7; "/>
	<path d=" M  591.37,  622.18  L  586.40,  627.15 " style="stroke-width: 1.42 ;&st7; "/>
	<path d=" M  235.84,  233.79  L  223.09,  211.71 " style="stroke-width: 0.85 ;&st7; "/>
	<path d=" M  161.47,  171.76  L  237.96,  171.76 " style="stroke-width: 0.85 ;&st7; "/>
	<path d=" M  229.46,  171.76  L  220.96,  177.42  L  220.96,  166.09  L  229.46,  171.76 " style="stroke-width: 0.28 ;&st9;"/>
	<path d=" M  202.77,  251.49  L  202.50,  251.96  L  202.41,  252.49  L  202.50,  253.03  L  202.77,  253.50  L  203.19,  253.84  L  203.69,  254.03  L  204.24,  254.03  L  204.74,  253.84  L  205.16,  253.50  L  205.43,  253.03  L  205.52,  252.49  L  205.43,  251.96  L  205.16,  251.49  L  204.74,  251.14  L  204.24,  250.96  L  203.69,  250.96  L  203.19,  251.14  L  202.77,  251.49  L  203.17,  252.20  L  203.17,  252.79  L  203.54,  253.23  L  204.11,  253.33  L  204.62,  253.04  L  204.82,  252.49  L  204.62,  251.95  L  204.11,  251.66  L  203.54,  251.76  L  203.97,  252.49 " style="stroke-width: 0.85 ;&st7; "/>
	<path d=" M  291.57,  191.59  L  288.95,  193.33  L  288.95,  201.17  L  286.34,  202.92 " style="stroke-width: 0.85 ;&st7; "/>
	<path d=" M  288.95,  197.25  L  297.45,  191.59  L  297.45,  202.92  L  288.95,  197.25 " style="stroke-width: 0.28 ;&st9;"/>
	<path d=" M  202.77,  315.23  L  202.50,  315.70  L  202.41,  316.23  L  202.50,  316.77  L  202.77,  317.24  L  203.19,  317.58  L  203.69,  317.77  L  204.24,  317.77  L  204.74,  317.58  L  205.16,  317.24  L  205.43,  316.77  L  205.52,  316.23  L  205.43,  315.70  L  205.16,  315.23  L  204.74,  314.88  L  204.24,  314.70  L  203.69,  314.70  L  203.19,  314.88  L  202.77,  315.23  L  203.17,  315.94  L  203.17,  316.52  L  203.54,  316.97  L  204.11,  317.07  L  204.62,  316.78  L  204.82,  316.23  L  204.62,  315.69  L  204.11,  315.40  L  203.54,  315.50  L  203.97,  316.23 " style="stroke-width: 0.85 ;&st7; "/>
	<path d=" M  339.94,  316.23  L  169.97,  316.23  L  169.97,  299.24  L  161.47,  299.24 " style="stroke-width: 0.85 ;&st7; "/>
	<path d=" M  713.88,  112.27  L  713.88,   78.27 " style="stroke-width: 0.85 ;&st7; "/>
	<path d=" M  263.46,  188.75  L  263.03,  188.02  L  263.60,  187.92  L  264.11,  188.21  L  264.31,  188.75  L  264.11,  189.30  L  263.60,  189.59  L  263.03,  189.49  L  262.66,  189.05  L  262.66,  188.46  L  262.26,  187.75  L  262.68,  187.41  L  263.18,  187.22  L  263.73,  187.22  L  264.23,  187.41  L  264.65,  187.75  L  264.92,  188.22  L  265.01,  188.75  L  264.92,  189.29  L  264.65,  189.76  L  264.23,  190.10  L  263.73,  190.29  L  263.18,  190.29  L  262.68,  190.10  L  262.26,  189.76  L  261.99,  189.29  L  261.90,  188.75  L  261.99,  188.22  L  262.26,  187.75 " style="stroke-width: 0.85 ;&st7; "/>
	<path d=" M  280.45,  129.26  L  280.03,  128.53  L  280.60,  128.43  L  281.10,  128.72  L  281.30,  129.26  L  281.10,  129.81  L  280.60,  130.10  L  280.03,  130.00  L  279.65,  129.56  L  279.65,  128.97  L  279.26,  128.26  L  279.67,  127.92  L  280.18,  127.73  L  280.72,  127.73  L  281.23,  127.92  L  281.65,  128.26  L  281.92,  128.73  L  282.01,  129.26  L  281.92,  129.80  L  281.65,  130.27  L  281.23,  130.61  L  280.72,  130.80  L  280.18,  130.80  L  279.67,  130.61  L  279.26,  130.27  L  278.99,  129.80  L  278.89,  129.26  L  278.99,  128.73  L  279.26,  128.26 " style="stroke-width: 0.85 ;&st7; "/>
	<path d=" M  305.95,  188.75  L  305.52,  188.02  L  306.10,  187.92  L  306.60,  188.21  L  306.80,  188.75  L  306.60,  189.30  L  306.10,  189.59  L  305.52,  189.49  L  305.15,  189.05  L  305.15,  188.46  L  304.76,  187.75  L  305.17,  187.41  L  305.68,  187.22  L  306.22,  187.22  L  306.73,  187.41  L  307.14,  187.75  L  307.41,  188.22  L  307.51,  188.75  L  307.41,  189.29  L  307.14,  189.76  L  306.73,  190.10  L  306.22,  190.29  L  305.68,  190.29  L  305.17,  190.10  L  304.76,  189.76  L  304.48,  189.29  L  304.39,  188.75  L  304.48,  188.22  L  304.76,  187.75 " style="stroke-width: 0.85 ;&st7; "/>
	<path d=" M  203.97,  120.77  L  203.54,  120.03  L  204.11,  119.93  L  204.62,  120.22  L  204.82,  120.77  L  204.62,  121.31  L  204.11,  121.60  L  203.54,  121.50  L  203.17,  121.06  L  203.17,  120.47  L  202.77,  119.76  L  203.19,  119.42  L  203.69,  119.23  L  204.24,  119.23  L  204.74,  119.42  L  205.16,  119.76  L  205.43,  120.23  L  205.52,  120.77  L  205.43,  121.30  L  205.16,  121.77  L  204.74,  122.11  L  204.24,  122.30  L  203.69,  122.30  L  203.19,  122.11  L  202.77,  121.77  L  202.50,  121.30  L  202.41,  120.77  L  202.50,  120.23  L  202.77,  119.76 " style="stroke-width: 0.85 ;&st7; "/>
	<path d=" M  203.97,  188.75  L  203.54,  188.02  L  204.11,  187.92  L  204.62,  188.21  L  204.82,  188.75  L  204.62,  189.30  L  204.11,  189.59  L  203.54,  189.49  L  203.17,  189.05  L  203.17,  188.46  L  202.77,  187.75  L  203.19,  187.41  L  203.69,  187.22  L  204.24,  187.22  L  204.74,  187.41  L  205.16,  187.75  L  205.43,  188.22  L  205.52,  188.75  L  205.43,  189.29  L  205.16,  189.76  L  204.74,  190.10  L  204.24,  190.29  L  203.69,  190.29  L  203.19,  190.10  L  202.77,  189.76  L  202.50,  189.29  L  202.41,  188.75  L  202.50,  188.22  L  202.77,  187.75 " style="stroke-width: 0.85 ;&st7; "/>
	<path d=" M   50.99,   52.78  L   50.99,  435.21  L  339.94,  435.21  L  339.94,   52.78  L   50.99,   52.78 " style="stroke-width: 1.42 ;&st7; "/>
	<path d=" M   93.48,  311.98  L   93.48,   78.27 " style="stroke-width: 0.85 ;&st7; "/>
	<path d=" M  110.48,  311.98  L  110.48,   78.27 " style="stroke-width: 0.85 ;&st7; "/>
	<path d=" M  127.48,  311.98  L  127.48,   78.27 " style="stroke-width: 0.85 ;&st7; "/>
	<path d=" M  144.48,  311.98  L  144.48,   78.27 " style="stroke-width: 0.85 ;&st7; "/>
	<path d=" M  161.47,  133.51  L   59.49,  133.51 " style="stroke-width: 0.85 ;&st7; "/>
	<path d=" M  161.47,  159.01  L   59.49,  159.01 " style="stroke-width: 0.85 ;&st7; "/>
	<path d=" M  161.47,  210.00  L   59.49,  210.00 " style="stroke-width: 0.85 ;&st7; "/>
	<path d=" M  161.47,  235.50  L   59.49,  235.50 " style="stroke-width: 0.85 ;&st7; "/>
	<path d=" M  161.47,  260.99  L   59.49,  260.99 " style="stroke-width: 0.85 ;&st7; "/>
	<path d=" M  161.47,  286.49  L   59.49,  286.49 " style="stroke-width: 0.85 ;&st7; "/>
	<path d=" M   59.49,   61.28  L   59.49,  311.98  L  161.47,  311.98  L  161.47,   61.28  L   59.49,   61.28 " style="stroke-width: 1.42 ;&st7; "/>
	<path d=" M  101.98,  246.83  L  101.98,  224.16 " style="stroke-width: 0.85 ;&st7; "/>
	<path d=" M  152.97,  297.82  L  152.97,  275.16 " style="stroke-width: 0.85 ;&st7; "/>
	<path d=" M  135.98,  297.82  L  135.98,  249.66 " style="stroke-width: 0.85 ;&st7; "/>
	<path d=" M  118.98,  246.83  L  118.98,  224.16 " style="stroke-width: 0.85 ;&st7; "/>
	<path d=" M  161.47,  184.50  L   59.49,  184.50 " style="stroke-width: 0.85 ;&st7; "/>
	<path d=" M  118.98,  195.84  L  118.98,  173.17 " style="stroke-width: 0.85 ;&st7; "/>
	<path d=" M  237.96,  171.76  L  246.46,  171.76  L  247.88,  168.92  L  250.71,  174.59  L  253.54,  168.92  L  256.37,  174.59  L  259.21,  168.92  L  262.04,  174.59  L  263.46,  171.76  L  271.95,  171.76 " style="stroke-width: 0.85 ;&st7; "/>
	<path d=" M  237.96,   95.27  L  246.46,   95.27  L  247.88,   92.44  L  250.71,   98.10  L  253.54,   92.44  L  256.37,   98.10  L  259.21,   92.44  L  262.04,   98.10  L  263.46,   95.27  L  271.95,   95.27 " style="stroke-width: 0.85 ;&st7; "/>
	<path d=" M  203.97,  120.77  L  229.46,  120.77 " style="stroke-width: 0.85 ;&st7; "/>
	<path d=" M  203.97,  316.23  L  203.97,   95.27 " style="stroke-width: 0.85 ;&st7; "/>
	<path d=" M  271.95,  171.76  L  280.45,  171.76  L  281.87,  168.92  L  284.70,  174.59  L  287.54,  168.92  L  290.37,  174.59  L  293.20,  168.92  L  296.03,  174.59  L  297.45,  171.76  L  305.95,  171.76 " style="stroke-width: 0.85 ;&st7; "/>
	<path d=" M  203.97,   95.27  L  212.46,   95.27  L  213.88,   92.44  L  216.71,   98.10  L  219.55,   92.44  L  222.38,   98.10  L  225.21,   92.44  L  228.05,   98.10  L  229.46,   95.27  L  237.96,   95.27 " style="stroke-width: 0.85 ;&st7; "/>
	<path d=" M  288.95,  129.26  L  271.95,  129.26 " style="stroke-width: 0.85 ;&st7; "/>
	<path d=" M  271.95,   95.27  L  339.94,   95.27 " style="stroke-width: 0.85 ;&st7; "/>
	<path d=" M  257.90,  273.50  L  239.38,  265.24 " style="stroke-width: 1.42 ;&st7; "/>
	<path d=" M  161.47,  197.25  L  254.96,  197.25  L  254.96,  205.75 " style="stroke-width: 0.85 ;&st7; "/>
	<path d=" M  305.95,  171.76  L  305.52,  171.02  L  306.10,  170.92  L  306.60,  171.21  L  306.80,  171.76  L  306.60,  172.30  L  306.10,  172.59  L  305.52,  172.49  L  305.15,  172.05  L  305.15,  171.47  L  304.76,  170.75  L  305.17,  170.41  L  305.68,  170.22  L  306.22,  170.22  L  306.73,  170.41  L  307.14,  170.75  L  307.41,  171.22  L  307.51,  171.76  L  307.41,  172.29  L  307.14,  172.76  L  306.73,  173.11  L  306.22,  173.29  L  305.68,  173.29  L  305.17,  173.11  L  304.76,  172.76  L  304.48,  172.29  L  304.39,  171.76  L  304.48,  171.22  L  304.76,  170.75 " style="stroke-width: 0.85 ;&st7; "/>
	<path d=" M  280.45,  188.75  L  305.95,  188.75 " style="stroke-width: 0.85 ;&st7; "/>
	<path d=" M  339.94,  384.22  L  314.45,  384.22 " style="stroke-width: 0.85 ;&st7; "/>
	<path d=" M  263.46,  188.75  L  263.46,  197.25  L  305.95,  197.25  L  305.95,  129.26  L  293.20,  129.26 " style="stroke-width: 0.85 ;&st7; "/>
	<path d=" M  271.95,  171.76  L  271.95,  159.01  L  269.12,  157.59  L  274.79,  154.76  L  269.12,  151.93  L  274.79,  149.09  L  269.12,  146.26  L  274.79,  143.43  L  271.95,  142.01  L  271.95,  129.26 " style="stroke-width: 0.85 ;&st7; "/>
	<path d=" M  246.46,  194.42  L  246.46,  263.82 " style="stroke-width: 0.85 ;&st7;stroke-dasharray:3, 1.5;"/>
	<path d=" M  234.75,  112.83  L  231.57,  114.97  L  234.01,  116.59  L  234.75,  112.83  L  233.93,  114.07  L  232.59,  114.96  L  233.61,  115.65  L  233.93,  114.07  L  233.52,  114.68  L  233.10,  114.96  L  233.42,  115.18  L  233.52,  114.68 " style="stroke-width: 0.85 ;&st7; "/>
	<path d=" M  280.45,  188.75  L  274.79,  180.26 " style="stroke-width: 0.85 ;&st7; "/>
	<path d=" M  280.45,  188.75  L  277.27,  186.62  L  279.71,  184.99  L  280.45,  188.75  L  279.63,  187.52  L  278.29,  186.62  L  279.32,  185.94  L  279.63,  187.52  L  279.22,  186.91  L  278.80,  186.62  L  279.12,  186.41  L  279.22,  186.91 " style="stroke-width: 0.85 ;&st7; "/>
	<path d=" M  101.98,  195.84  L  101.98,  147.68 " style="stroke-width: 0.85 ;&st7; "/>
	<path d=" M   76.49,   78.27  L   76.49,  311.98 " style="stroke-width: 0.85 ;&st7; "/>
	<path d=" M   84.99,  297.82  L   84.99,  249.66 " style="stroke-width: 0.85 ;&st7; "/>
	<path d=" M  807.36,   95.27  L  790.37,   95.27  L  790.37,  112.27 " style="stroke-width: 0.85 ;&st7; "/>
	<path d=" M  594.90,  554.19  L  594.48,  553.46  L  595.05,  553.36  L  595.55,  553.65  L  595.75,  554.19  L  595.55,  554.74  L  595.05,  555.03  L  594.48,  554.93  L  594.10,  554.48  L  594.10,  553.90  L  593.71,  553.19  L  594.12,  552.84  L  594.63,  552.66  L  595.17,  552.66  L  595.68,  552.84  L  596.09,  553.19  L  596.36,  553.66  L  596.46,  554.19  L  596.36,  554.73  L  596.09,  555.20  L  595.68,  555.54  L  595.17,  555.73  L  594.63,  555.73  L  594.12,  555.54  L  593.71,  555.20  L  593.44,  554.73  L  593.34,  554.19  L  593.44,  553.66  L  593.71,  553.19 " style="stroke-width: 0.85 ;&st7; "/>
	<path d=" M  620.40,  554.19  L  619.97,  553.46  L  620.54,  553.36  L  621.05,  553.65  L  621.25,  554.19  L  621.05,  554.74  L  620.54,  555.03  L  619.97,  554.93  L  619.60,  554.48  L  619.60,  553.90  L  619.20,  553.19  L  619.62,  552.84  L  620.12,  552.66  L  620.67,  552.66  L  621.18,  552.84  L  621.59,  553.19  L  621.86,  553.66  L  621.95,  554.19  L  621.86,  554.73  L  621.59,  555.20  L  621.18,  555.54  L  620.67,  555.73  L  620.12,  555.73  L  619.62,  555.54  L  619.20,  555.20  L  618.93,  554.73  L  618.84,  554.19  L  618.93,  553.66  L  619.20,  553.19 " style="stroke-width: 0.85 ;&st7; "/>
	<path d=" M  594.90,  443.71  L  594.48,  442.97  L  595.05,  442.88  L  595.55,  443.16  L  595.75,  443.71  L  595.55,  444.26  L  595.05,  444.55  L  594.48,  444.45  L  594.10,  444.00  L  594.10,  443.42  L  593.71,  442.71  L  594.12,  442.36  L  594.63,  442.18  L  595.17,  442.18  L  595.68,  442.36  L  596.09,  442.71  L  596.36,  443.18  L  596.46,  443.71  L  596.36,  444.24  L  596.09,  444.71  L  595.68,  445.06  L  595.17,  445.25  L  594.63,  445.25  L  594.12,  445.06  L  593.71,  444.71  L  593.44,  444.24  L  593.34,  443.71  L  593.44,  443.18  L  593.71,  442.71 " style="stroke-width: 0.85 ;&st7; "/>
	<path d=" M  671.39,  494.70  L  670.96,  493.97  L  671.53,  493.87  L  672.04,  494.16  L  672.24,  494.70  L  672.04,  495.25  L  671.53,  495.54  L  670.96,  495.44  L  670.59,  494.99  L  670.59,  494.41  L  670.19,  493.70  L  670.61,  493.35  L  671.12,  493.17  L  671.66,  493.17  L  672.17,  493.35  L  672.58,  493.70  L  672.85,  494.17  L  672.95,  494.70  L  672.85,  495.24  L  672.58,  495.71  L  672.17,  496.05  L  671.66,  496.24  L  671.12,  496.24  L  670.61,  496.05  L  670.19,  495.71  L  669.92,  495.24  L  669.83,  494.70  L  669.92,  494.17  L  670.19,  493.70 " style="stroke-width: 0.85 ;&st7; "/>
	<path d=" M  577.90,  562.69  L  577.90,  426.71  L  832.86,  426.71  L  832.86,  562.69  L  577.90,  562.69 " style="stroke-width: 1.42 ;&st7; "/>
	<path d=" M  590.65,  502.07  L  590.65,  506.03  L  599.15,  506.03  L  599.15,  502.07 " style="stroke-width: 1.42 ;&st7; "/>
	<path d=" M  590.65,  487.34  L  590.65,  483.37  L  599.15,  483.37  L  599.15,  487.34 " style="stroke-width: 1.42 ;&st7; "/>
	<path d=" M  602.27,  498.95  L  606.23,  498.95  L  606.23,  490.45  L  602.27,  490.45 " style="stroke-width: 1.42 ;&st7; "/>
	<path d=" M  739.38,  426.71  L  739.38,  486.20  L  797.45,  486.20 " style="stroke-width: 0.85 ;&st7; "/>
	<path d=" M  594.90,  506.03  L  594.90,  520.20 " style="stroke-width: 0.85 ;&st7; "/>
	<path d=" M  594.90,  562.69  L  594.90,  545.69 " style="stroke-width: 0.85 ;&st7; "/>
	<path d=" M  594.90,  554.19  L  815.86,  554.19  L  815.86,  496.12 " style="stroke-width: 0.85 ;&st7; "/>
	<path d=" M  594.90,  443.71  L  620.40,  443.71 " style="stroke-width: 0.85 ;&st7; "/>
	<path d=" M  671.39,  554.19  L  670.96,  553.46  L  671.53,  553.36  L  672.04,  553.65  L  672.24,  554.19  L  672.04,  554.74  L  671.53,  555.03  L  670.96,  554.93  L  670.59,  554.48  L  670.59,  553.90  L  670.19,  553.19  L  670.61,  552.84  L  671.12,  552.66  L  671.66,  552.66  L  672.17,  552.84  L  672.58,  553.19  L  672.85,  553.66  L  672.95,  554.19  L  672.85,  554.73  L  672.58,  555.20  L  672.17,  555.54  L  671.66,  555.73  L  671.12,  555.73  L  670.61,  555.54  L  670.19,  555.20  L  669.92,  554.73  L  669.83,  554.19  L  669.92,  553.66  L  670.19,  553.19 " style="stroke-width: 0.85 ;&st7; "/>
	<path d=" M  815.86,  107.37  L  813.03,  104.54  L  813.03,  108.79  L  815.86,  111.62  L  818.70,  108.79  L  818.70,  104.54  L  815.86,  107.37 " style="stroke-width: 0.28 ;&st9;"/>
	<path d=" M  593.48,  710.00  L  596.32,  710.00 " style="stroke-width: 0.85 ;&st7; "/>
	<path d=" M  592.07,  707.17  L  597.73,  707.17 " style="stroke-width: 0.85 ;&st7; "/>
	<path d=" M  590.65,  704.33  L  599.15,  704.33 " style="stroke-width: 0.85 ;&st7; "/>
	<path d=" M  586.40,  701.50  L  603.40,  701.50 " style="stroke-width: 0.85 ;&st7; "/>
	<path d=" M  594.90,  697.25  L  594.90,  701.50 " style="stroke-width: 0.85 ;&st7; "/>
	<path d=" M  790.37,  107.37  L  787.53,  104.54  L  787.53,  108.79  L  790.37,  111.62  L  793.20,  108.79  L  793.20,  104.54  L  790.37,  107.37 " style="stroke-width: 0.28 ;&st9;"/>
	<path d=" M  304.76,  162.26  L  304.48,  162.73  L  304.39,  163.26  L  304.48,  163.79  L  304.76,  164.26  L  305.17,  164.61  L  305.68,  164.79  L  306.22,  164.79  L  306.73,  164.61  L  307.14,  164.26  L  307.41,  163.79  L  307.51,  163.26  L  307.41,  162.73  L  307.14,  162.26  L  306.73,  161.91  L  306.22,  161.72  L  305.68,  161.72  L  305.17,  161.91  L  304.76,  162.26  L  305.15,  162.97  L  305.15,  163.55  L  305.52,  163.99  L  306.10,  164.09  L  306.60,  163.80  L  306.80,  163.26  L  306.60,  162.71  L  306.10,  162.42  L  305.52,  162.52  L  305.95,  163.26 " style="stroke-width: 0.85 ;&st7; "/>
	<path d=" M  270.76,  170.75  L  270.49,  171.22  L  270.40,  171.76  L  270.49,  172.29  L  270.76,  172.76  L  271.18,  173.11  L  271.68,  173.29  L  272.23,  173.29  L  272.73,  173.11  L  273.15,  172.76  L  273.42,  172.29  L  273.51,  171.76  L  273.42,  171.22  L  273.15,  170.75  L  272.73,  170.41  L  272.23,  170.22  L  271.68,  170.22  L  271.18,  170.41  L  270.76,  170.75  L  271.16,  171.47  L  271.16,  172.05  L  271.53,  172.49  L  272.10,  172.59  L  272.61,  172.30  L  272.80,  171.76  L  272.61,  171.21  L  272.10,  170.92  L  271.53,  171.02  L  271.95,  171.76 " style="stroke-width: 0.85 ;&st7; "/>
	<path d=" M  713.88,  107.37  L  711.05,  104.54  L  711.05,  108.79  L  713.88,  111.62  L  716.71,  108.79  L  716.71,  104.54  L  713.88,  107.37 " style="stroke-width: 0.28 ;&st9;"/>
	<path d=" M  828.61,   78.27  L  828.61,   35.78  L  803.12,   35.78  L  803.12,   78.27  L  828.61,   78.27 " style="stroke-width: 1.42 ;&st7; "/>
	<path d=" M  726.63,   78.27  L  726.63,   35.78  L  701.13,   35.78  L  701.13,   78.27  L  726.63,   78.27 " style="stroke-width: 1.42 ;&st7; "/>
	<path d=" M  110.48,  316.23  L  110.48,  422.46  L  161.47,  422.46  L  161.47,  316.23  L  110.48,  316.23 " style="stroke-width: 1.42 ;&st7; "/>
	<path d=" M  161.47,  273.74  L  178.47,  273.74  L  178.47,  350.23  L  339.94,  350.23 " style="stroke-width: 0.85 ;&st7; "/>
	<path d=" M  161.47,  146.26  L  229.46,  146.26  L  230.88,  143.43  L  233.71,  149.09  L  236.54,  143.43  L  239.38,  149.09  L  242.21,  143.43  L  245.04,  149.09  L  246.46,  146.26  L  254.96,  146.26 " style="stroke-width: 0.85 ;&st7; "/>
	<path d=" M  254.96,  146.26  L  254.96,  163.26  L  203.97,  163.26 " style="stroke-width: 0.85 ;&st7; "/>
	<path d=" M  236.77,   94.27  L  236.50,   94.74  L  236.40,   95.27  L  236.50,   95.80  L  236.77,   96.27  L  237.18,   96.62  L  237.69,   96.81  L  238.23,   96.81  L  238.74,   96.62  L  239.15,   96.27  L  239.42,   95.80  L  239.52,   95.27  L  239.42,   94.74  L  239.15,   94.27  L  238.74,   93.92  L  238.23,   93.73  L  237.69,   93.73  L  237.18,   93.92  L  236.77,   94.27  L  237.16,   94.98  L  237.16,   95.56  L  237.54,   96.01  L  238.11,   96.11  L  238.61,   95.82  L  238.81,   95.27  L  238.61,   94.72  L  238.11,   94.43  L  237.54,   94.53  L  237.96,   95.27 " style="stroke-width: 0.85 ;&st7; "/>
	<path d=" M  202.77,  162.26  L  202.50,  162.73  L  202.41,  163.26  L  202.50,  163.79  L  202.77,  164.26  L  203.19,  164.61  L  203.69,  164.79  L  204.24,  164.79  L  204.74,  164.61  L  205.16,  164.26  L  205.43,  163.79  L  205.52,  163.26  L  205.43,  162.73  L  205.16,  162.26  L  204.74,  161.91  L  204.24,  161.72  L  203.69,  161.72  L  203.19,  161.91  L  202.77,  162.26  L  203.17,  162.97  L  203.17,  163.55  L  203.54,  163.99  L  204.11,  164.09  L  204.62,  163.80  L  204.82,  163.26  L  204.62,  162.71  L  204.11,  162.42  L  203.54,  162.52  L  203.97,  163.26 " style="stroke-width: 0.85 ;&st7; "/>
	<path d=" M  236.54,  265.24  L  195.47,  265.24  L  195.47,  222.75  L  161.47,  222.75 " style="stroke-width: 0.85 ;&st7; "/>
	<path d=" M  203.97,  252.49  L  253.54,  252.49 " style="stroke-width: 0.85 ;&st7; "/>
	<path d=" M  305.95,  233.37  L  305.95,  205.75  L  254.96,  205.75  L  254.96,  239.75  L  288.95,  239.75  L  288.95,  252.49 " style="stroke-width: 0.85 ;&st7; "/>
	<path d=" M  305.95,  237.62  L  305.95,  273.74  L  256.37,  273.74 " style="stroke-width: 0.85 ;&st7; "/>
	<path d=" M  304.76,  255.74  L  304.48,  256.21  L  304.39,  256.74  L  304.48,  257.28  L  304.76,  257.75  L  305.17,  258.09  L  305.68,  258.28  L  306.22,  258.28  L  306.73,  258.09  L  307.14,  257.75  L  307.41,  257.28  L  307.51,  256.74  L  307.41,  256.21  L  307.14,  255.74  L  306.73,  255.39  L  306.22,  255.21  L  305.68,  255.21  L  305.17,  255.39  L  304.76,  255.74  L  305.15,  256.45  L  305.15,  257.03  L  305.52,  257.48  L  306.10,  257.58  L  306.60,  257.29  L  306.80,  256.74  L  306.60,  256.20  L  306.10,  255.91  L  305.52,  256.01  L  305.95,  256.74 " style="stroke-width: 0.85 ;&st7; "/>
	<path d=" M  305.95,  256.74  L  339.94,  256.74 " style="stroke-width: 0.85 ;&st7; "/>
	<path d=" M  253.76,  204.75  L  253.49,  205.22  L  253.40,  205.75  L  253.49,  206.28  L  253.76,  206.75  L  254.18,  207.10  L  254.69,  207.29  L  255.23,  207.29  L  255.74,  207.10  L  256.15,  206.75  L  256.42,  206.28  L  256.52,  205.75  L  256.42,  205.22  L  256.15,  204.75  L  255.74,  204.40  L  255.23,  204.22  L  254.69,  204.22  L  254.18,  204.40  L  253.76,  204.75  L  254.16,  205.46  L  254.16,  206.04  L  254.53,  206.49  L  255.10,  206.59  L  255.61,  206.30  L  255.81,  205.75  L  255.61,  205.20  L  255.10,  204.92  L  254.53,  205.01  L  254.96,  205.75 " style="stroke-width: 0.85 ;&st7; "/>
	<path d=" M  288.95,  252.49  L  280.45,  252.49  L  279.04,  255.33  L  276.20,  249.66  L  273.37,  255.33  L  270.54,  249.66  L  267.71,  255.33  L  264.87,  249.66  L  263.46,  252.49  L  256.37,  252.49 " style="stroke-width: 0.85 ;&st7; "/>
	<path d=" M  161.47,  248.24  L  186.97,  248.24  L  186.97,  282.24  L  339.94,  282.24 " style="stroke-width: 0.85 ;&st7; "/>
	<path d=" M  161.47,  384.22  L  314.45,  384.22  L  314.45,  163.26  L  305.95,  163.26 " style="stroke-width: 0.85 ;&st7; "/>
	<path d=" M  322.95,   95.27  L  322.95,  409.72  L  161.47,  409.72 " style="stroke-width: 0.85 ;&st7; "/>
	<path d=" M  321.75,   94.27  L  321.48,   94.74  L  321.39,   95.27  L  321.48,   95.80  L  321.75,   96.27  L  322.17,   96.62  L  322.67,   96.81  L  323.22,   96.81  L  323.72,   96.62  L  324.14,   96.27  L  324.41,   95.80  L  324.50,   95.27  L  324.41,   94.74  L  324.14,   94.27  L  323.72,   93.92  L  323.22,   93.73  L  322.67,   93.73  L  322.17,   93.92  L  321.75,   94.27  L  322.15,   94.98  L  322.15,   95.56  L  322.52,   96.01  L  323.09,   96.11  L  323.60,   95.82  L  323.80,   95.27  L  323.60,   94.72  L  323.09,   94.43  L  322.52,   94.53  L  322.95,   95.27 " style="stroke-width: 0.85 ;&st7; "/>
	<path d=" M  110.48,  371.47  L  161.47,  371.47 " style="stroke-width: 0.85 ;&st7; "/>
	<path d=" M  110.48,  396.97  L  161.47,  396.97 " style="stroke-width: 0.85 ;&st7; "/>
	<path d=" M  127.48,  341.73  L  127.48,  422.46 " style="stroke-width: 0.85 ;&st7; "/>
	<path d=" M  144.48,  341.73  L  144.48,  422.46 " style="stroke-width: 0.85 ;&st7; "/>
	<path d=" M  152.97,  408.30  L  152.97,  385.64 " style="stroke-width: 0.85 ;&st7; "/>
	<path d=" M  271.95,  171.76  L  271.95,  180.26 " style="stroke-width: 0.85 ;&st7; "/>
	<path d=" M  246.46,  120.77  L  254.96,  120.77  L  256.37,  117.93  L  259.21,  123.60  L  262.04,  117.93  L  264.87,  123.60  L  267.71,  117.93  L  270.54,  123.60  L  271.95,  120.77  L  280.45,  120.77 " style="stroke-width: 0.85 ;&st7; "/>
	<path d=" M  280.45,  120.77  L  280.45,  129.26 " style="stroke-width: 0.85 ;&st7; "/>
	<path d=" M  743.63,  370.06  L  739.38,  374.31  L  735.13,  370.06 " style="stroke-width: 1.42 ;&st7; "/>
	<path d=" M  735.13,  366.66  L  739.38,  370.91  L  743.63,  366.66 " style="stroke-width: 1.42 ;&st7; "/>
	<path d=" M  658.64,  115.10  L  654.39,  119.35  L  650.14,  115.10 " style="stroke-width: 1.42 ;&st7; "/>
	<path d=" M  650.14,  111.70  L  654.39,  115.95  L  658.64,  111.70 " style="stroke-width: 1.42 ;&st7; "/>
	<path d=" M  313.25,  383.22  L  312.98,  383.69  L  312.89,  384.22  L  312.98,  384.75  L  313.25,  385.22  L  313.67,  385.57  L  314.18,  385.76  L  314.72,  385.76  L  315.23,  385.57  L  315.64,  385.22  L  315.91,  384.75  L  316.01,  384.22  L  315.91,  383.69  L  315.64,  383.22  L  315.23,  382.87  L  314.72,  382.69  L  314.18,  382.69  L  313.67,  382.87  L  313.25,  383.22  L  313.65,  383.93  L  313.65,  384.51  L  314.02,  384.96  L  314.59,  385.06  L  315.10,  384.77  L  315.30,  384.22  L  315.10,  383.67  L  314.59,  383.39  L  314.02,  383.48  L  314.45,  384.22 " style="stroke-width: 0.85 ;&st7; "/>
	<path d=" M  594.90,  426.71  L  594.90,  443.71 " style="stroke-width: 0.85 ;&st7; "/>
	<path d=" M  594.90,  469.21  L  594.90,  483.37 " style="stroke-width: 0.85 ;&st7; "/>
	<path d=" M  675.64,  370.06  L  671.39,  374.31  L  667.14,  370.06 " style="stroke-width: 1.42 ;&st7; "/>
	<path d=" M  667.14,  366.66  L  671.39,  370.91  L  675.64,  366.66 " style="stroke-width: 1.42 ;&st7; "/>
	<path d=" M  590.65,  366.66  L  594.90,  370.91  L  599.15,  366.66 " style="stroke-width: 1.42 ;&st7; "/>
	<path d=" M  599.15,  370.06  L  594.90,  374.31  L  590.65,  370.06 " style="stroke-width: 1.42 ;&st7; "/>
	<path d=" M  398.02,  710.00  L  400.85,  710.00 " style="stroke-width: 0.85 ;&st7; "/>
	<path d=" M  396.60,  707.17  L  402.27,  707.17 " style="stroke-width: 0.85 ;&st7; "/>
	<path d=" M  395.18,  704.33  L  403.68,  704.33 " style="stroke-width: 0.85 ;&st7; "/>
	<path d=" M  390.93,  701.50  L  407.93,  701.50 " style="stroke-width: 0.85 ;&st7; "/>
	<path d=" M  399.43,  697.25  L  399.43,  701.50 " style="stroke-width: 0.85 ;&st7; "/>
	<path d=" M   59.49,   78.27  L  161.47,   78.27 " style="stroke-width: 0.85 ;&st7; "/>
	<path d=" M  110.48,  341.73  L  161.47,  341.73 " style="stroke-width: 0.85 ;&st7; "/>
	<path d=" M  815.86,  112.27  L  815.86,   95.27 " style="stroke-width: 0.85 ;&st7; "/>
	<path d=" M  814.67,   94.27  L  814.40,   94.74  L  814.31,   95.27  L  814.40,   95.80  L  814.67,   96.27  L  815.08,   96.62  L  815.59,   96.81  L  816.14,   96.81  L  816.64,   96.62  L  817.06,   96.27  L  817.33,   95.80  L  817.42,   95.27  L  817.33,   94.74  L  817.06,   94.27  L  816.64,   93.92  L  816.14,   93.73  L  815.59,   93.73  L  815.08,   93.92  L  814.67,   94.27  L  815.06,   94.98  L  815.06,   95.56  L  815.44,   96.01  L  816.01,   96.11  L  816.51,   95.82  L  816.71,   95.27  L  816.51,   94.72  L  816.01,   94.43  L  815.44,   94.53  L  815.86,   95.27 " style="stroke-width: 0.85 ;&st7; "/>
	<path d=" M  815.86,   86.77  L  815.86,   78.27 " style="stroke-width: 0.85 ;&st7; "/>
	<path d=" M  433.43,  697.25  L  433.43,  701.50 " style="stroke-width: 0.85 ;&st7; "/>
	<path d=" M  424.93,  701.50  L  441.93,  701.50 " style="stroke-width: 0.85 ;&st7; "/>
	<path d=" M  429.18,  704.33  L  437.68,  704.33 " style="stroke-width: 0.85 ;&st7; "/>
	<path d=" M  430.59,  707.17  L  436.26,  707.17 " style="stroke-width: 0.85 ;&st7; "/>
	<path d=" M  432.01,  710.00  L  434.84,  710.00 " style="stroke-width: 0.85 ;&st7; "/>
	<path d=" M  747.87,  413.12  L  803.12,  413.12 " style="stroke-width: 0.85 ;&st7;stroke-dasharray:3, 1.5;"/>
	<path d=" M  747.87,  422.18  L  803.12,  422.18 " style="stroke-width: 0.85 ;&st7;stroke-dasharray:3, 1.5;"/>
	<path d=" M  679.89,  413.12  L  726.63,  413.12 " style="stroke-width: 0.85 ;&st7;stroke-dasharray:3, 1.5;"/>
	<path d=" M  679.89,  422.18  L  726.63,  422.18 " style="stroke-width: 0.85 ;&st7;stroke-dasharray:3, 1.5;"/>
	<path d=" M  603.40,  422.18  L  658.64,  422.18 " style="stroke-width: 0.85 ;&st7;stroke-dasharray:3, 1.5;"/>
	<path d=" M  603.40,  413.12  L  658.64,  413.12 " style="stroke-width: 0.85 ;&st7;stroke-dasharray:3, 1.5;"/>
	<path d=" M  628.89,  697.25  L  628.89,  701.50 " style="stroke-width: 0.85 ;&st7; "/>
	<path d=" M  620.40,  701.50  L  637.39,  701.50 " style="stroke-width: 0.85 ;&st7; "/>
	<path d=" M  624.65,  704.33  L  633.14,  704.33 " style="stroke-width: 0.85 ;&st7; "/>
	<path d=" M  626.06,  707.17  L  631.73,  707.17 " style="stroke-width: 0.85 ;&st7; "/>
	<path d=" M  627.48,  710.00  L  630.31,  710.00 " style="stroke-width: 0.85 ;&st7; "/>
	<path d=" M  611.90,  171.76  L  628.89,  171.76  L  628.89,  188.75  L  611.90,  188.75  L  611.90,  171.76 " style="stroke-width: 1.42 ;&st7; "/>
	<path d=" M  620.40,  171.76  L  620.40,  188.75 " style="stroke-width: 0.85 ;&st7; "/>
	<path d=" M  344.48,  103.77  L  344.48,  243.99 " style="stroke-width: 0.85 ;&st7;stroke-dasharray:3, 1.5;"/>
	<path d=" M  353.54,  103.77  L  353.54,  243.99 " style="stroke-width: 0.85 ;&st7;stroke-dasharray:3, 1.5;"/>
	<path d=" M  353.54,  324.73  L  353.54,  337.48 " style="stroke-width: 0.85 ;&st7;stroke-dasharray:3, 1.5;"/>
	<path d=" M  353.54,  358.73  L  353.54,  371.47 " style="stroke-width: 0.85 ;&st7;stroke-dasharray:3, 1.5;"/>
	<path d=" M  344.48,  358.73  L  344.48,  371.47 " style="stroke-width: 0.85 ;&st7;stroke-dasharray:3, 1.5;"/>
	<path d=" M  344.48,  324.73  L  344.48,  337.48 " style="stroke-width: 0.85 ;&st7;stroke-dasharray:3, 1.5;"/>
	<path d=" M  353.54,  290.74  L  353.54,  303.48 " style="stroke-width: 0.85 ;&st7;stroke-dasharray:3, 1.5;"/>
	<path d=" M  344.48,  290.74  L  344.48,  303.48 " style="stroke-width: 0.85 ;&st7;stroke-dasharray:3, 1.5;"/>
	<path d=" M  353.54,  265.24  L  353.54,  269.49 " style="stroke-width: 0.85 ;&st7;stroke-dasharray:3, 1.5;"/>
	<path d=" M  344.48,  265.24  L  344.48,  269.49 " style="stroke-width: 0.85 ;&st7;stroke-dasharray:3, 1.5;"/>
	<path d=" M  229.46,  205.75  L  229.46,  214.25  L  232.29,  215.67  L  226.63,  218.50  L  232.29,  221.33  L  226.63,  224.16  L  232.29,  227.00  L  226.63,  229.83  L  229.46,  231.25  L  229.46,  239.75 " style="stroke-width: 0.85 ;&st7; "/>
	<path d=" M  223.09,  211.71  L  223.59,  215.51  L  226.13,  214.04  L  223.09,  211.71  L  223.83,  212.99  L  224.04,  214.59  L  225.11,  213.97  L  223.83,  212.99  L  224.20,  213.63  L  224.26,  214.14  L  224.60,  213.94  L  224.20,  213.63 " style="stroke-width: 0.85 ;&st7; "/>
	<path d=" M  229.46,  205.75  L  254.96,  205.75 " style="stroke-width: 0.85 ;&st7; "/>
	<path d=" M  229.46,  239.75  L  254.96,  239.75 " style="stroke-width: 0.85 ;&st7; "/>
	<path d=" M  253.76,  238.74  L  253.49,  239.21  L  253.40,  239.75  L  253.49,  240.28  L  253.76,  240.75  L  254.18,  241.09  L  254.69,  241.28  L  255.23,  241.28  L  255.74,  241.09  L  256.15,  240.75  L  256.42,  240.28  L  256.52,  239.75  L  256.42,  239.21  L  256.15,  238.74  L  255.74,  238.40  L  255.23,  238.21  L  254.69,  238.21  L  254.18,  238.40  L  253.76,  238.74  L  254.16,  239.45  L  254.16,  240.04  L  254.53,  240.48  L  255.10,  240.58  L  255.61,  240.29  L  255.81,  239.75  L  255.61,  239.20  L  255.10,  238.91  L  254.53,  239.01  L  254.96,  239.75 " style="stroke-width: 0.85 ;&st7; "/>
	<path d=" M  707.51,  116.52  C  707.51   118.86   709.41   120.77   711.76   120.77 " style="stroke-width: 1.42 ;&st7; "/>
	<path d=" M  713.88,   47.11  C  711.14    48.72   710.23    52.25   711.84    54.99 " style="stroke-width: 1.42 ;&st7; "/>
	<path d=" M  711.84,   54.99  C  712.36    55.87   713.00    56.51   713.88    57.03 " style="stroke-width: 1.42 ;&st7; "/>
	<path d=" M  154.39,  299.24  C  154.39   298.45   153.76   297.82   152.97   297.82 " style="stroke-width: 0.85 ;&st7; "/>
	<path d=" M  152.97,  297.82  C  152.19   297.82   151.56   298.45   151.56   299.24 " style="stroke-width: 0.85 ;&st7; "/>
	<path d=" M  151.56,  299.24  C  151.56   300.02   152.19   300.65   152.97   300.65 " style="stroke-width: 0.85 ;&st7; "/>
	<path d=" M  152.97,  300.65  C  153.76   300.65   154.39   300.02   154.39   299.24 " style="stroke-width: 0.85 ;&st7; "/>
	<path d=" M  137.39,  299.24  C  137.39   298.45   136.76   297.82   135.98   297.82 " style="stroke-width: 0.85 ;&st7; "/>
	<path d=" M  135.98,  297.82  C  135.20   297.82   134.56   298.45   134.56   299.24 " style="stroke-width: 0.85 ;&st7; "/>
	<path d=" M  134.56,  299.24  C  134.56   300.02   135.20   300.65   135.98   300.65 " style="stroke-width: 0.85 ;&st7; "/>
	<path d=" M  135.98,  300.65  C  136.76   300.65   137.39   300.02   137.39   299.24 " style="stroke-width: 0.85 ;&st7; "/>
	<path d=" M  154.39,  273.74  C  154.39   272.96   153.76   272.32   152.97   272.32 " style="stroke-width: 0.85 ;&st7; "/>
	<path d=" M  152.97,  272.32  C  152.19   272.32   151.56   272.96   151.56   273.74 " style="stroke-width: 0.85 ;&st7; "/>
	<path d=" M  151.56,  273.74  C  151.56   274.52   152.19   275.16   152.97   275.16 " style="stroke-width: 0.85 ;&st7; "/>
	<path d=" M  152.97,  275.16  C  153.76   275.16   154.39   274.52   154.39   273.74 " style="stroke-width: 0.85 ;&st7; "/>
	<path d=" M  137.39,  248.24  C  137.39   247.46   136.76   246.83   135.98   246.83 " style="stroke-width: 0.85 ;&st7; "/>
	<path d=" M  135.98,  246.83  C  135.20   246.83   134.56   247.46   134.56   248.24 " style="stroke-width: 0.85 ;&st7; "/>
	<path d=" M  134.56,  248.24  C  134.56   249.03   135.20   249.66   135.98   249.66 " style="stroke-width: 0.85 ;&st7; "/>
	<path d=" M  135.98,  249.66  C  136.76   249.66   137.39   249.03   137.39   248.24 " style="stroke-width: 0.85 ;&st7; "/>
	<path d=" M  120.40,  248.24  C  120.40   247.46   119.76   246.83   118.98   246.83 " style="stroke-width: 0.85 ;&st7; "/>
	<path d=" M  118.98,  246.83  C  118.20   246.83   117.56   247.46   117.56   248.24 " style="stroke-width: 0.85 ;&st7; "/>
	<path d=" M  117.56,  248.24  C  117.56   249.03   118.20   249.66   118.98   249.66 " style="stroke-width: 0.85 ;&st7; "/>
	<path d=" M  118.98,  249.66  C  119.76   249.66   120.40   249.03   120.40   248.24 " style="stroke-width: 0.85 ;&st7; "/>
	<path d=" M  103.40,  248.24  C  103.40   247.46   102.77   246.83   101.98   246.83 " style="stroke-width: 0.85 ;&st7; "/>
	<path d=" M  101.98,  246.83  C  101.20   246.83   100.57   247.46   100.57   248.24 " style="stroke-width: 0.85 ;&st7; "/>
	<path d=" M  100.57,  248.24  C  100.57   249.03   101.20   249.66   101.98   249.66 " style="stroke-width: 0.85 ;&st7; "/>
	<path d=" M  101.98,  249.66  C  102.77   249.66   103.40   249.03   103.40   248.24 " style="stroke-width: 0.85 ;&st7; "/>
	<path d=" M  103.40,  222.75  C  103.40   221.97   102.77   221.33   101.98   221.33 " style="stroke-width: 0.85 ;&st7; "/>
	<path d=" M  101.98,  221.33  C  101.20   221.33   100.57   221.97   100.57   222.75 " style="stroke-width: 0.85 ;&st7; "/>
	<path d=" M  100.57,  222.75  C  100.57   223.53   101.20   224.16   101.98   224.16 " style="stroke-width: 0.85 ;&st7; "/>
	<path d=" M  101.98,  224.16  C  102.77   224.16   103.40   223.53   103.40   222.75 " style="stroke-width: 0.85 ;&st7; "/>
	<path d=" M  120.40,  222.75  C  120.40   221.97   119.76   221.33   118.98   221.33 " style="stroke-width: 0.85 ;&st7; "/>
	<path d=" M  118.98,  221.33  C  118.20   221.33   117.56   221.97   117.56   222.75 " style="stroke-width: 0.85 ;&st7; "/>
	<path d=" M  117.56,  222.75  C  117.56   223.53   118.20   224.16   118.98   224.16 " style="stroke-width: 0.85 ;&st7; "/>
	<path d=" M  118.98,  224.16  C  119.76   224.16   120.40   223.53   120.40   222.75 " style="stroke-width: 0.85 ;&st7; "/>
	<path d=" M  120.40,  171.76  C  120.40   170.97   119.76   170.34   118.98   170.34 " style="stroke-width: 0.85 ;&st7; "/>
	<path d=" M  118.98,  170.34  C  118.20   170.34   117.56   170.97   117.56   171.76 " style="stroke-width: 0.85 ;&st7; "/>
	<path d=" M  117.56,  171.76  C  117.56   172.54   118.20   173.17   118.98   173.17 " style="stroke-width: 0.85 ;&st7; "/>
	<path d=" M  118.98,  173.17  C  119.76   173.17   120.40   172.54   120.40   171.76 " style="stroke-width: 0.85 ;&st7; "/>
	<path d=" M  120.40,  197.25  C  120.40   196.47   119.76   195.84   118.98   195.84 " style="stroke-width: 0.85 ;&st7; "/>
	<path d=" M  118.98,  195.84  C  118.20   195.84   117.56   196.47   117.56   197.25 " style="stroke-width: 0.85 ;&st7; "/>
	<path d=" M  117.56,  197.25  C  117.56   198.03   118.20   198.67   118.98   198.67 " style="stroke-width: 0.85 ;&st7; "/>
	<path d=" M  118.98,  198.67  C  119.76   198.67   120.40   198.03   120.40   197.25 " style="stroke-width: 0.85 ;&st7; "/>
	<path d=" M  239.38,  265.24  C  239.38   264.46   238.74   263.82   237.96   263.82 " style="stroke-width: 0.85 ;&st7; "/>
	<path d=" M  237.96,  263.82  C  237.18   263.82   236.54   264.46   236.54   265.24 " style="stroke-width: 0.85 ;&st7; "/>
	<path d=" M  236.54,  265.24  C  236.54   266.02   237.18   266.66   237.96   266.66 " style="stroke-width: 0.85 ;&st7; "/>
	<path d=" M  237.96,  266.66  C  238.74   266.66   239.38   266.02   239.38   265.24 " style="stroke-width: 0.85 ;&st7; "/>
	<path d=" M  256.37,  273.74  C  256.37   272.96   255.74   272.32   254.96   272.32 " style="stroke-width: 0.85 ;&st7; "/>
	<path d=" M  254.96,  272.32  C  254.18   272.32   253.54   272.96   253.54   273.74 " style="stroke-width: 0.85 ;&st7; "/>
	<path d=" M  253.54,  273.74  C  253.54   274.52   254.18   275.16   254.96   275.16 " style="stroke-width: 0.85 ;&st7; "/>
	<path d=" M  254.96,  275.16  C  255.74   275.16   256.37   274.52   256.37   273.74 " style="stroke-width: 0.85 ;&st7; "/>
	<path d=" M  243.98,  191.28  C  245.38   189.91   245.40   187.67   244.03   186.28 " style="stroke-width: 0.85 ;&st7; "/>
	<path d=" M  244.03,  186.28  C  242.66   184.88   240.42   184.86   239.02   186.22 " style="stroke-width: 0.85 ;&st7; "/>
	<path d=" M  239.02,  186.22  C  238.31   186.92   237.96   187.76   237.96   188.75 " style="stroke-width: 0.85 ;&st7; "/>
	<path d=" M  248.94,  191.28  C  250.33   189.91   250.36   187.67   248.99   186.28 " style="stroke-width: 0.85 ;&st7; "/>
	<path d=" M  248.99,  186.28  C  247.62   184.88   245.38   184.86   243.98   186.22 " style="stroke-width: 0.85 ;&st7; "/>
	<path d=" M  243.98,  186.22  C  242.58   187.59   242.56   189.84   243.93   191.23 " style="stroke-width: 0.85 ;&st7; "/>
	<path d=" M  243.93,  191.23  C  243.95   191.25   243.96   191.27   243.98   191.28 " style="stroke-width: 0.85 ;&st7; "/>
	<path d=" M  254.96,  188.75  C  254.96   186.80   253.37   185.21   251.42   185.21 " style="stroke-width: 0.85 ;&st7; "/>
	<path d=" M  251.42,  185.21  C  249.46   185.21   247.88   186.80   247.88   188.75 " style="stroke-width: 0.85 ;&st7; "/>
	<path d=" M  247.88,  188.75  C  247.88   189.74   248.23   190.59   248.94   191.28 " style="stroke-width: 0.85 ;&st7; "/>
	<path d=" M  103.40,  146.26  C  103.40   145.48   102.77   144.84   101.98   144.84 " style="stroke-width: 0.85 ;&st7; "/>
	<path d=" M  101.98,  144.84  C  101.20   144.84   100.57   145.48   100.57   146.26 " style="stroke-width: 0.85 ;&st7; "/>
	<path d=" M  100.57,  146.26  C  100.57   147.04   101.20   147.68   101.98   147.68 " style="stroke-width: 0.85 ;&st7; "/>
	<path d=" M  101.98,  147.68  C  102.77   147.68   103.40   147.04   103.40   146.26 " style="stroke-width: 0.85 ;&st7; "/>
	<path d=" M  103.40,  197.25  C  103.40   196.47   102.77   195.84   101.98   195.84 " style="stroke-width: 0.85 ;&st7; "/>
	<path d=" M  101.98,  195.84  C  101.20   195.84   100.57   196.47   100.57   197.25 " style="stroke-width: 0.85 ;&st7; "/>
	<path d=" M  100.57,  197.25  C  100.57   198.03   101.20   198.67   101.98   198.67 " style="stroke-width: 0.85 ;&st7; "/>
	<path d=" M  101.98,  198.67  C  102.77   198.67   103.40   198.03   103.40   197.25 " style="stroke-width: 0.85 ;&st7; "/>
	<path d=" M   86.40,  299.24  C   86.40   298.45    85.77   297.82    84.99   297.82 " style="stroke-width: 0.85 ;&st7; "/>
	<path d=" M   84.99,  297.82  C   84.20   297.82    83.57   298.45    83.57   299.24 " style="stroke-width: 0.85 ;&st7; "/>
	<path d=" M   83.57,  299.24  C   83.57   300.02    84.20   300.65    84.99   300.65 " style="stroke-width: 0.85 ;&st7; "/>
	<path d=" M   84.99,  300.65  C   85.77   300.65    86.40   300.02    86.40   299.24 " style="stroke-width: 0.85 ;&st7; "/>
	<path d=" M   86.40,  248.24  C   86.40   247.46    85.77   246.83    84.99   246.83 " style="stroke-width: 0.85 ;&st7; "/>
	<path d=" M   84.99,  246.83  C   84.20   246.83    83.57   247.46    83.57   248.24 " style="stroke-width: 0.85 ;&st7; "/>
	<path d=" M   83.57,  248.24  C   83.57   249.03    84.20   249.66    84.99   249.66 " style="stroke-width: 0.85 ;&st7; "/>
	<path d=" M   84.99,  249.66  C   85.77   249.66    86.40   249.03    86.40   248.24 " style="stroke-width: 0.85 ;&st7; "/>
	<path d=" M  711.76,  112.27  C  709.41   112.27   707.51   114.17   707.51   116.52 " style="stroke-width: 1.42 ;&st7; "/>
	<path d=" M  586.40,  494.70  C  586.40   499.40   590.21   503.20   594.90   503.20 " style="stroke-width: 1.42 ;&st7; "/>
	<path d=" M  594.90,  503.20  C  599.59   503.20   603.40   499.40   603.40   494.70 " style="stroke-width: 1.42 ;&st7; "/>
	<path d=" M  603.40,  494.70  C  603.40   490.01   599.59   486.20   594.90   486.20 " style="stroke-width: 1.42 ;&st7; "/>
	<path d=" M  594.90,  486.20  C  590.21   486.20   586.40   490.01   586.40   494.70 " style="stroke-width: 1.42 ;&st7; "/>
	<path d=" M  817.28,  494.70  C  817.28   493.92   816.65   493.29   815.86   493.29 " style="stroke-width: 0.85 ;&st7; "/>
	<path d=" M  815.86,  493.29  C  815.08   493.29   814.45   493.92   814.45   494.70 " style="stroke-width: 0.85 ;&st7; "/>
	<path d=" M  814.45,  494.70  C  814.45   495.48   815.08   496.12   815.86   496.12 " style="stroke-width: 0.85 ;&st7; "/>
	<path d=" M  815.86,  496.12  C  816.65   496.12   817.28   495.48   817.28   494.70 " style="stroke-width: 0.85 ;&st7; "/>
	<path d=" M  817.28,  477.71  C  817.28   476.92   816.65   476.29   815.86   476.29 " style="stroke-width: 0.85 ;&st7; "/>
	<path d=" M  815.86,  476.29  C  815.08   476.29   814.45   476.92   814.45   477.71 " style="stroke-width: 0.85 ;&st7; "/>
	<path d=" M  814.45,  477.71  C  814.45   478.49   815.08   479.12   815.86   479.12 " style="stroke-width: 0.85 ;&st7; "/>
	<path d=" M  815.86,  479.12  C  816.65   479.12   817.28   478.49   817.28   477.71 " style="stroke-width: 0.85 ;&st7; "/>
	<path d=" M  800.28,  486.20  C  800.28   485.42   799.65   484.79   798.87   484.79 " style="stroke-width: 0.85 ;&st7; "/>
	<path d=" M  798.87,  484.79  C  798.08   484.79   797.45   485.42   797.45   486.20 " style="stroke-width: 0.85 ;&st7; "/>
	<path d=" M  797.45,  486.20  C  797.45   486.99   798.08   487.62   798.87   487.62 " style="stroke-width: 0.85 ;&st7; "/>
	<path d=" M  798.87,  487.62  C  799.65   487.62   800.28   486.99   800.28   486.20 " style="stroke-width: 0.85 ;&st7; "/>
	<path d=" M  807.37,  489.32  C  810.00   486.80   810.17   482.66   807.74   479.94 " style="stroke-width: 0.85 ;&st7; "/>
	<path d=" M  804.11,  480.52  C  802.64   483.86   804.08   487.74   807.37   489.32 " style="stroke-width: 0.85 ;&st7; "/>
	<path d=" M  807.74,  479.94  C  806.88   479.04   805.46   479.02   804.57   479.88 " style="stroke-width: 0.85 ;&st7; "/>
	<path d=" M  804.57,  479.88  C  804.37   480.07   804.23   480.27   804.11   480.52 " style="stroke-width: 0.85 ;&st7; "/>
	<path d=" M  807.10,  483.16  C  807.10   482.77   806.78   482.46   806.39   482.46 " style="stroke-width: 0.85 ;&st7; "/>
	<path d=" M  806.39,  482.46  C  806.00   482.46   805.68   482.77   805.68   483.16 " style="stroke-width: 0.85 ;&st7; "/>
	<path d=" M  805.68,  483.16  C  805.68   483.56   806.00   483.87   806.39   483.87 " style="stroke-width: 0.85 ;&st7; "/>
	<path d=" M  806.39,  483.87  C  806.78   483.87   807.10   483.56   807.10   483.16 " style="stroke-width: 0.85 ;&st7; "/>
	<path d=" M  596.32,  544.28  C  596.32   543.50   595.68   542.86   594.90   542.86 " style="stroke-width: 0.85 ;&st7; "/>
	<path d=" M  594.90,  542.86  C  594.12   542.86   593.48   543.50   593.48   544.28 " style="stroke-width: 0.85 ;&st7; "/>
	<path d=" M  593.48,  544.28  C  593.48   545.06   594.12   545.69   594.90   545.69 " style="stroke-width: 0.85 ;&st7; "/>
	<path d=" M  594.90,  545.69  C  595.68   545.69   596.32   545.06   596.32   544.28 " style="stroke-width: 0.85 ;&st7; "/>
	<path d=" M  587.40,  546.73  C  595.03   545.01   599.82   537.43   598.10   529.80 " style="stroke-width: 0.85 ;&st7; "/>
	<path d=" M  598.10,  529.80  C  596.88   524.42   593.02   520.48   587.67   519.16 " style="stroke-width: 0.85 ;&st7; "/>
	<path d=" M  587.40,  546.73  C  595.07   541.12   596.74   530.35   591.13   522.69 " style="stroke-width: 0.85 ;&st7; "/>
	<path d=" M  591.13,  522.69  C  590.10   521.28   589.06   520.22   587.67   519.16 " style="stroke-width: 0.85 ;&st7; "/>
	<path d=" M  596.36,  521.68  C  596.36   520.90   595.73   520.27   594.95   520.27 " style="stroke-width: 0.85 ;&st7; "/>
	<path d=" M  594.95,  520.27  C  594.16   520.27   593.53   520.90   593.53   521.68 " style="stroke-width: 0.85 ;&st7; "/>
	<path d=" M  593.53,  521.68  C  593.53   522.47   594.16   523.10   594.95   523.10 " style="stroke-width: 0.85 ;&st7; "/>
	<path d=" M  594.95,  523.10  C  595.73   523.10   596.36   522.47   596.36   521.68 " style="stroke-width: 0.85 ;&st7; "/>
	<path d=" M  651.91,  497.23  C  653.31   495.86   653.33   493.62   651.96   492.22 " style="stroke-width: 0.85 ;&st7; "/>
	<path d=" M  651.96,  492.22  C  650.59   490.83   648.35   490.80   646.95   492.17 " style="stroke-width: 0.85 ;&st7; "/>
	<path d=" M  646.95,  492.17  C  646.25   492.87   645.89   493.71   645.89   494.70 " style="stroke-width: 0.85 ;&st7; "/>
	<path d=" M  656.87,  497.23  C  658.27   495.86   658.29   493.62   656.92   492.22 " style="stroke-width: 0.85 ;&st7; "/>
	<path d=" M  656.92,  492.22  C  655.55   490.83   653.31   490.80   651.91   492.17 " style="stroke-width: 0.85 ;&st7; "/>
	<path d=" M  651.91,  492.17  C  650.51   493.54   650.49   495.78   651.86   497.18 " style="stroke-width: 0.85 ;&st7; "/>
	<path d=" M  651.86,  497.18  C  651.88   497.20   651.89   497.21   651.91   497.23 " style="stroke-width: 0.85 ;&st7; "/>
	<path d=" M  662.89,  494.70  C  662.89   492.75   661.30   491.16   659.35   491.16 " style="stroke-width: 0.85 ;&st7; "/>
	<path d=" M  659.35,  491.16  C  657.39   491.16   655.81   492.75   655.81   494.70 " style="stroke-width: 0.85 ;&st7; "/>
	<path d=" M  655.81,  494.70  C  655.81   495.69   656.16   496.54   656.87   497.23 " style="stroke-width: 0.85 ;&st7; "/>
	<path d=" M  256.37,  252.49  C  256.37   251.71   255.74   251.08   254.96   251.08 " style="stroke-width: 0.85 ;&st7; "/>
	<path d=" M  254.96,  251.08  C  254.18   251.08   253.54   251.71   253.54   252.49 " style="stroke-width: 0.85 ;&st7; "/>
	<path d=" M  253.54,  252.49  C  253.54   253.28   254.18   253.91   254.96   253.91 " style="stroke-width: 0.85 ;&st7; "/>
	<path d=" M  254.96,  253.91  C  255.74   253.91   256.37   253.28   256.37   252.49 " style="stroke-width: 0.85 ;&st7; "/>
	<path d=" M  822.24,  116.52  C  822.24   114.17   820.34   112.27   817.99   112.27 " style="stroke-width: 1.42 ;&st7; "/>
	<path d=" M  817.99,  120.77  C  820.34   120.77   822.24   118.86   822.24   116.52 " style="stroke-width: 1.42 ;&st7; "/>
	<path d=" M  809.49,  116.52  C  809.49   118.86   811.39   120.77   813.74   120.77 " style="stroke-width: 1.42 ;&st7; "/>
	<path d=" M  813.74,  112.27  C  811.39   112.27   809.49   114.17   809.49   116.52 " style="stroke-width: 1.42 ;&st7; "/>
	<path d=" M  713.88,   66.94  C  716.62    65.33   717.53    61.80   715.92    59.06 " style="stroke-width: 1.42 ;&st7; "/>
	<path d=" M  715.92,   59.06  C  715.40    58.18   714.76    57.55   713.88    57.03 " style="stroke-width: 1.42 ;&st7; "/>
	<path d=" M  796.74,  116.52  C  796.74   114.17   794.84   112.27   792.49   112.27 " style="stroke-width: 1.42 ;&st7; "/>
	<path d=" M  792.49,  120.77  C  794.84   120.77   796.74   118.86   796.74   116.52 " style="stroke-width: 1.42 ;&st7; "/>
	<path d=" M  783.99,  116.52  C  783.99   118.86   785.90   120.77   788.24   120.77 " style="stroke-width: 1.42 ;&st7; "/>
	<path d=" M  788.24,  112.27  C  785.90   112.27   783.99   114.17   783.99   116.52 " style="stroke-width: 1.42 ;&st7; "/>
	<path d=" M  715.30,   45.69  C  715.30    44.91   714.66    44.28   713.88    44.28 " style="stroke-width: 0.85 ;&st7; "/>
	<path d=" M  713.88,   44.28  C  713.10    44.28   712.46    44.91   712.46    45.69 " style="stroke-width: 0.85 ;&st7; "/>
	<path d=" M  712.46,   45.69  C  712.46    46.48   713.10    47.11   713.88    47.11 " style="stroke-width: 0.85 ;&st7; "/>
	<path d=" M  713.88,   47.11  C  714.66    47.11   715.30    46.48   715.30    45.69 " style="stroke-width: 0.85 ;&st7; "/>
	<path d=" M  715.30,   68.36  C  715.30    67.57   714.66    66.94   713.88    66.94 " style="stroke-width: 0.85 ;&st7; "/>
	<path d=" M  713.88,   66.94  C  713.10    66.94   712.46    67.57   712.46    68.36 " style="stroke-width: 0.85 ;&st7; "/>
	<path d=" M  712.46,   68.36  C  712.46    69.14   713.10    69.77   713.88    69.77 " style="stroke-width: 0.85 ;&st7; "/>
	<path d=" M  713.88,   69.77  C  714.66    69.77   715.30    69.14   715.30    68.36 " style="stroke-width: 0.85 ;&st7; "/>
	<path d=" M  716.01,  120.77  C  718.35   120.77   720.25   118.86   720.25   116.52 " style="stroke-width: 1.42 ;&st7; "/>
	<path d=" M  817.28,   45.69  C  817.28    44.91   816.65    44.28   815.86    44.28 " style="stroke-width: 0.85 ;&st7; "/>
	<path d=" M  815.86,   44.28  C  815.08    44.28   814.45    44.91   814.45    45.69 " style="stroke-width: 0.85 ;&st7; "/>
	<path d=" M  814.45,   45.69  C  814.45    46.48   815.08    47.11   815.86    47.11 " style="stroke-width: 0.85 ;&st7; "/>
	<path d=" M  815.86,   47.11  C  816.65    47.11   817.28    46.48   817.28    45.69 " style="stroke-width: 0.85 ;&st7; "/>
	<path d=" M  815.86,   66.94  C  818.60    65.33   819.51    61.80   817.90    59.06 " style="stroke-width: 1.42 ;&st7; "/>
	<path d=" M  817.90,   59.06  C  817.38    58.18   816.75    57.55   815.86    57.03 " style="stroke-width: 1.42 ;&st7; "/>
	<path d=" M  815.86,   47.11  C  813.13    48.72   812.21    52.25   813.83    54.99 " style="stroke-width: 1.42 ;&st7; "/>
	<path d=" M  813.83,   54.99  C  814.35    55.87   814.98    56.51   815.86    57.03 " style="stroke-width: 1.42 ;&st7; "/>
	<path d=" M  817.28,   68.36  C  817.28    67.57   816.65    66.94   815.86    66.94 " style="stroke-width: 0.85 ;&st7; "/>
	<path d=" M  815.86,   66.94  C  815.08    66.94   814.45    67.57   814.45    68.36 " style="stroke-width: 0.85 ;&st7; "/>
	<path d=" M  814.45,   68.36  C  814.45    69.14   815.08    69.77   815.86    69.77 " style="stroke-width: 0.85 ;&st7; "/>
	<path d=" M  815.86,   69.77  C  816.65    69.77   817.28    69.14   817.28    68.36 " style="stroke-width: 0.85 ;&st7; "/>
	<path d=" M  720.25,  116.52  C  720.25   114.17   718.35   112.27   716.01   112.27 " style="stroke-width: 1.42 ;&st7; "/>
	<path d=" M  705.38,  180.26  C  705.38   184.95   709.19   188.75   713.88   188.75 " style="stroke-width: 1.42 ;&st7; "/>
	<path d=" M  713.88,  188.75  C  718.57   188.75   722.38   184.95   722.38   180.26 " style="stroke-width: 1.42 ;&st7; "/>
	<path d=" M  154.39,  409.72  C  154.39   408.93   153.76   408.30   152.97   408.30 " style="stroke-width: 0.85 ;&st7; "/>
	<path d=" M  152.97,  408.30  C  152.19   408.30   151.56   408.93   151.56   409.72 " style="stroke-width: 0.85 ;&st7; "/>
	<path d=" M  151.56,  409.72  C  151.56   410.50   152.19   411.13   152.97   411.13 " style="stroke-width: 0.85 ;&st7; "/>
	<path d=" M  152.97,  411.13  C  153.76   411.13   154.39   410.50   154.39   409.72 " style="stroke-width: 0.85 ;&st7; "/>
	<path d=" M  154.39,  384.22  C  154.39   383.44   153.76   382.80   152.97   382.80 " style="stroke-width: 0.85 ;&st7; "/>
	<path d=" M  152.97,  382.80  C  152.19   382.80   151.56   383.44   151.56   384.22 " style="stroke-width: 0.85 ;&st7; "/>
	<path d=" M  151.56,  384.22  C  151.56   385.00   152.19   385.64   152.97   385.64 " style="stroke-width: 0.85 ;&st7; "/>
	<path d=" M  152.97,  385.64  C  153.76   385.64   154.39   385.00   154.39   384.22 " style="stroke-width: 0.85 ;&st7; "/>
	<path d=" M  722.38,  180.26  C  722.38   175.56   718.57   171.76   713.88   171.76 " style="stroke-width: 1.42 ;&st7; "/>
	<path d=" M  713.88,  171.76  C  709.19   171.76   705.38   175.56   705.38   180.26 " style="stroke-width: 1.42 ;&st7; "/>
	<path d=" M  592.37,  458.23  C  593.74   459.63   595.98   459.65   597.38   458.28 " style="stroke-width: 0.85 ;&st7; "/>
	<path d=" M  597.38,  458.28  C  598.78   456.91   598.80   454.67   597.43   453.27 " style="stroke-width: 0.85 ;&st7; "/>
	<path d=" M  597.43,  453.27  C  596.74   452.56   595.89   452.21   594.90   452.21 " style="stroke-width: 0.85 ;&st7; "/>
	<path d=" M  592.37,  463.19  C  593.74   464.58   595.98   464.61   597.38   463.24 " style="stroke-width: 0.85 ;&st7; "/>
	<path d=" M  597.38,  463.24  C  598.78   461.87   598.80   459.63   597.43   458.23 " style="stroke-width: 0.85 ;&st7; "/>
	<path d=" M  597.43,  458.23  C  596.06   456.83   593.82   456.81   592.42   458.18 " style="stroke-width: 0.85 ;&st7; "/>
	<path d=" M  592.42,  458.18  C  592.40   458.20   592.39   458.21   592.37   458.23 " style="stroke-width: 0.85 ;&st7; "/>
	<path d=" M  594.90,  469.21  C  596.86   469.21   598.44   467.62   598.44   465.67 " style="stroke-width: 0.85 ;&st7; "/>
	<path d=" M  598.44,  465.67  C  598.44   463.71   596.86   462.12   594.90   462.12 " style="stroke-width: 0.85 ;&st7; "/>
	<path d=" M  594.90,  462.12  C  593.91   462.12   593.06   462.48   592.37   463.19 " style="stroke-width: 0.85 ;&st7; "/>
	<path d=" M  349.01,  256.74  C  349.01   254.24   346.98   252.21   344.48   252.21 " style="stroke-width: 1.42 ;&st7; "/>
	<path d=" M  344.48,  252.21  C  341.97   252.21   339.94   254.24   339.94   256.74 " style="stroke-width: 1.42 ;&st7; "/>
	<path d=" M  339.94,  256.74  C  339.94   259.25   341.97   261.27   344.48   261.27 " style="stroke-width: 1.42 ;&st7; "/>
	<path d=" M  344.48,  261.27  C  346.98   261.27   349.01   259.25   349.01   256.74 " style="stroke-width: 1.42 ;&st7; "/>
	<path d=" M  358.07,  256.74  C  358.07   254.24   356.04   252.21   353.54   252.21 " style="stroke-width: 1.42 ;&st7; "/>
	<path d=" M  353.54,  252.21  C  351.04   252.21   349.01   254.24   349.01   256.74 " style="stroke-width: 1.42 ;&st7; "/>
	<path d=" M  349.01,  256.74  C  349.01   259.25   351.04   261.27   353.54   261.27 " style="stroke-width: 1.42 ;&st7; "/>
	<path d=" M  353.54,  261.27  C  356.04   261.27   358.07   259.25   358.07   256.74 " style="stroke-width: 1.42 ;&st7; "/>
	<path d=" M  349.01,  282.24  C  349.01   279.73   346.98   277.71   344.48   277.71 " style="stroke-width: 1.42 ;&st7; "/>
	<path d=" M  344.48,  277.71  C  341.97   277.71   339.94   279.73   339.94   282.24 " style="stroke-width: 1.42 ;&st7; "/>
	<path d=" M  339.94,  282.24  C  339.94   284.74   341.97   286.77   344.48   286.77 " style="stroke-width: 1.42 ;&st7; "/>
	<path d=" M  344.48,  286.77  C  346.98   286.77   349.01   284.74   349.01   282.24 " style="stroke-width: 1.42 ;&st7; "/>
	<path d=" M  358.07,  282.24  C  358.07   279.73   356.04   277.71   353.54   277.71 " style="stroke-width: 1.42 ;&st7; "/>
	<path d=" M  353.54,  277.71  C  351.04   277.71   349.01   279.73   349.01   282.24 " style="stroke-width: 1.42 ;&st7; "/>
	<path d=" M  349.01,  282.24  C  349.01   284.74   351.04   286.77   353.54   286.77 " style="stroke-width: 1.42 ;&st7; "/>
	<path d=" M  353.54,  286.77  C  356.04   286.77   358.07   284.74   358.07   282.24 " style="stroke-width: 1.42 ;&st7; "/>
	<path d=" M  349.01,   95.27  C  349.01    92.77   346.98    90.74   344.48    90.74 " style="stroke-width: 1.42 ;&st7; "/>
	<path d=" M  344.48,   90.74  C  341.97    90.74   339.94    92.77   339.94    95.27 " style="stroke-width: 1.42 ;&st7; "/>
	<path d=" M  339.94,   95.27  C  339.94    97.77   341.97    99.80   344.48    99.80 " style="stroke-width: 1.42 ;&st7; "/>
	<path d=" M  344.48,   99.80  C  346.98    99.80   349.01    97.77   349.01    95.27 " style="stroke-width: 1.42 ;&st7; "/>
	<path d=" M  358.07,   95.27  C  358.07    92.77   356.04    90.74   353.54    90.74 " style="stroke-width: 1.42 ;&st7; "/>
	<path d=" M  353.54,   90.74  C  351.04    90.74   349.01    92.77   349.01    95.27 " style="stroke-width: 1.42 ;&st7; "/>
	<path d=" M  349.01,   95.27  C  349.01    97.77   351.04    99.80   353.54    99.80 " style="stroke-width: 1.42 ;&st7; "/>
	<path d=" M  353.54,   99.80  C  356.04    99.80   358.07    97.77   358.07    95.27 " style="stroke-width: 1.42 ;&st7; "/>
	<path d=" M  349.01,  316.23  C  349.01   313.73   346.98   311.70   344.48   311.70 " style="stroke-width: 1.42 ;&st7; "/>
	<path d=" M  344.48,  311.70  C  341.97   311.70   339.94   313.73   339.94   316.23 " style="stroke-width: 1.42 ;&st7; "/>
	<path d=" M  339.94,  316.23  C  339.94   318.74   341.97   320.77   344.48   320.77 " style="stroke-width: 1.42 ;&st7; "/>
	<path d=" M  344.48,  320.77  C  346.98   320.77   349.01   318.74   349.01   316.23 " style="stroke-width: 1.42 ;&st7; "/>
	<path d=" M  358.07,  316.23  C  358.07   313.73   356.04   311.70   353.54   311.70 " style="stroke-width: 1.42 ;&st7; "/>
	<path d=" M  353.54,  311.70  C  351.04   311.70   349.01   313.73   349.01   316.23 " style="stroke-width: 1.42 ;&st7; "/>
	<path d=" M  349.01,  316.23  C  349.01   318.74   351.04   320.77   353.54   320.77 " style="stroke-width: 1.42 ;&st7; "/>
	<path d=" M  353.54,  320.77  C  356.04   320.77   358.07   318.74   358.07   316.23 " style="stroke-width: 1.42 ;&st7; "/>
	<path d=" M  349.01,  350.23  C  349.01   347.72   346.98   345.69   344.48   345.69 " style="stroke-width: 1.42 ;&st7; "/>
	<path d=" M  344.48,  345.69  C  341.97   345.69   339.94   347.72   339.94   350.23 " style="stroke-width: 1.42 ;&st7; "/>
	<path d=" M  339.94,  350.23  C  339.94   352.73   341.97   354.76   344.48   354.76 " style="stroke-width: 1.42 ;&st7; "/>
	<path d=" M  344.48,  354.76  C  346.98   354.76   349.01   352.73   349.01   350.23 " style="stroke-width: 1.42 ;&st7; "/>
	<path d=" M  358.07,  350.23  C  358.07   347.72   356.04   345.69   353.54   345.69 " style="stroke-width: 1.42 ;&st7; "/>
	<path d=" M  353.54,  345.69  C  351.04   345.69   349.01   347.72   349.01   350.23 " style="stroke-width: 1.42 ;&st7; "/>
	<path d=" M  349.01,  350.23  C  349.01   352.73   351.04   354.76   353.54   354.76 " style="stroke-width: 1.42 ;&st7; "/>
	<path d=" M  353.54,  354.76  C  356.04   354.76   358.07   352.73   358.07   350.23 " style="stroke-width: 1.42 ;&st7; "/>
	<path d=" M  349.01,  384.22  C  349.01   381.72   346.98   379.69   344.48   379.69 " style="stroke-width: 1.42 ;&st7; "/>
	<path d=" M  344.48,  379.69  C  341.97   379.69   339.94   381.72   339.94   384.22 " style="stroke-width: 1.42 ;&st7; "/>
	<path d=" M  339.94,  384.22  C  339.94   386.72   341.97   388.75   344.48   388.75 " style="stroke-width: 1.42 ;&st7; "/>
	<path d=" M  344.48,  388.75  C  346.98   388.75   349.01   386.72   349.01   384.22 " style="stroke-width: 1.42 ;&st7; "/>
	<path d=" M  358.07,  384.22  C  358.07   381.72   356.04   379.69   353.54   379.69 " style="stroke-width: 1.42 ;&st7; "/>
	<path d=" M  353.54,  379.69  C  351.04   379.69   349.01   381.72   349.01   384.22 " style="stroke-width: 1.42 ;&st7; "/>
	<path d=" M  349.01,  384.22  C  349.01   386.72   351.04   388.75   353.54   388.75 " style="stroke-width: 1.42 ;&st7; "/>
	<path d=" M  353.54,  388.75  C  356.04   388.75   358.07   386.72   358.07   384.22 " style="stroke-width: 1.42 ;&st7; "/>
	<path d=" M  820.40,  422.18  C  820.40   419.68   818.37   417.65   815.86   417.65 " style="stroke-width: 1.42 ;&st7; "/>
	<path d=" M  815.86,  417.65  C  813.36   417.65   811.33   419.68   811.33   422.18 " style="stroke-width: 1.42 ;&st7; "/>
	<path d=" M  811.33,  422.18  C  811.33   424.68   813.36   426.71   815.86   426.71 " style="stroke-width: 1.42 ;&st7; "/>
	<path d=" M  815.86,  426.71  C  818.37   426.71   820.40   424.68   820.40   422.18 " style="stroke-width: 1.42 ;&st7; "/>
	<path d=" M  820.40,  413.12  C  820.40   410.61   818.37   408.58   815.86   408.58 " style="stroke-width: 1.42 ;&st7; "/>
	<path d=" M  815.86,  408.58  C  813.36   408.58   811.33   410.61   811.33   413.12 " style="stroke-width: 1.42 ;&st7; "/>
	<path d=" M  811.33,  413.12  C  811.33   415.62   813.36   417.65   815.86   417.65 " style="stroke-width: 1.42 ;&st7; "/>
	<path d=" M  815.86,  417.65  C  818.37   417.65   820.40   415.62   820.40   413.12 " style="stroke-width: 1.42 ;&st7; "/>
	<path d=" M  743.91,  422.18  C  743.91   419.68   741.88   417.65   739.38   417.65 " style="stroke-width: 1.42 ;&st7; "/>
	<path d=" M  739.38,  417.65  C  736.87   417.65   734.84   419.68   734.84   422.18 " style="stroke-width: 1.42 ;&st7; "/>
	<path d=" M  734.84,  422.18  C  734.84   424.68   736.87   426.71   739.38   426.71 " style="stroke-width: 1.42 ;&st7; "/>
	<path d=" M  739.38,  426.71  C  741.88   426.71   743.91   424.68   743.91   422.18 " style="stroke-width: 1.42 ;&st7; "/>
	<path d=" M  743.91,  413.12  C  743.91   410.61   741.88   408.58   739.38   408.58 " style="stroke-width: 1.42 ;&st7; "/>
	<path d=" M  739.38,  408.58  C  736.87   408.58   734.84   410.61   734.84   413.12 " style="stroke-width: 1.42 ;&st7; "/>
	<path d=" M  734.84,  413.12  C  734.84   415.62   736.87   417.65   739.38   417.65 " style="stroke-width: 1.42 ;&st7; "/>
	<path d=" M  739.38,  417.65  C  741.88   417.65   743.91   415.62   743.91   413.12 " style="stroke-width: 1.42 ;&st7; "/>
	<path d=" M  675.92,  422.18  C  675.92   419.68   673.89   417.65   671.39   417.65 " style="stroke-width: 1.42 ;&st7; "/>
	<path d=" M  671.39,  417.65  C  668.88   417.65   666.86   419.68   666.86   422.18 " style="stroke-width: 1.42 ;&st7; "/>
	<path d=" M  666.86,  422.18  C  666.86   424.68   668.88   426.71   671.39   426.71 " style="stroke-width: 1.42 ;&st7; "/>
	<path d=" M  671.39,  426.71  C  673.89   426.71   675.92   424.68   675.92   422.18 " style="stroke-width: 1.42 ;&st7; "/>
	<path d=" M  675.92,  413.12  C  675.92   410.61   673.89   408.58   671.39   408.58 " style="stroke-width: 1.42 ;&st7; "/>
	<path d=" M  671.39,  408.58  C  668.88   408.58   666.86   410.61   666.86   413.12 " style="stroke-width: 1.42 ;&st7; "/>
	<path d=" M  666.86,  413.12  C  666.86   415.62   668.88   417.65   671.39   417.65 " style="stroke-width: 1.42 ;&st7; "/>
	<path d=" M  671.39,  417.65  C  673.89   417.65   675.92   415.62   675.92   413.12 " style="stroke-width: 1.42 ;&st7; "/>
	<path d=" M  599.43,  422.18  C  599.43   419.68   597.40   417.65   594.90   417.65 " style="stroke-width: 1.42 ;&st7; "/>
	<path d=" M  594.90,  417.65  C  592.40   417.65   590.37   419.68   590.37   422.18 " style="stroke-width: 1.42 ;&st7; "/>
	<path d=" M  590.37,  422.18  C  590.37   424.68   592.40   426.71   594.90   426.71 " style="stroke-width: 1.42 ;&st7; "/>
	<path d=" M  594.90,  426.71  C  597.40   426.71   599.43   424.68   599.43   422.18 " style="stroke-width: 1.42 ;&st7; "/>
	<path d=" M  599.43,  413.12  C  599.43   410.61   597.40   408.58   594.90   408.58 " style="stroke-width: 1.42 ;&st7; "/>
	<path d=" M  594.90,  408.58  C  592.40   408.58   590.37   410.61   590.37   413.12 " style="stroke-width: 1.42 ;&st7; "/>
	<path d=" M  590.37,  413.12  C  590.37   415.62   592.40   417.65   594.90   417.65 " style="stroke-width: 1.42 ;&st7; "/>
	<path d=" M  594.90,  417.65  C  597.40   417.65   599.43   415.62   599.43   413.12 " style="stroke-width: 1.42 ;&st7; "/>
	<path d=" M  599.43,  576.29  C  599.43   573.79   597.40   571.76   594.90   571.76 " style="stroke-width: 1.42 ;&st7; "/>
	<path d=" M  594.90,  571.76  C  592.40   571.76   590.37   573.79   590.37   576.29 " style="stroke-width: 1.42 ;&st7; "/>
	<path d=" M  590.37,  576.29  C  590.37   578.79   592.40   580.82   594.90   580.82 " style="stroke-width: 1.42 ;&st7; "/>
	<path d=" M  594.90,  580.82  C  597.40   580.82   599.43   578.79   599.43   576.29 " style="stroke-width: 1.42 ;&st7; "/>
	<path d=" M  599.43,  567.22  C  599.43   564.72   597.40   562.69   594.90   562.69 " style="stroke-width: 1.42 ;&st7; "/>
	<path d=" M  594.90,  562.69  C  592.40   562.69   590.37   564.72   590.37   567.22 " style="stroke-width: 1.42 ;&st7; "/>
	<path d=" M  590.37,  567.22  C  590.37   569.73   592.40   571.76   594.90   571.76 " style="stroke-width: 1.42 ;&st7; "/>
	<path d=" M  594.90,  571.76  C  597.40   571.76   599.43   569.73   599.43   567.22 " style="stroke-width: 1.42 ;&st7; "/>
	<path d=" M  718.41,  164.39  C  718.41   161.89   716.38   159.86   713.88   159.86 " style="stroke-width: 1.42 ;&st7; "/>
	<path d=" M  713.88,  159.86  C  711.38   159.86   709.35   161.89   709.35   164.39 " style="stroke-width: 1.42 ;&st7; "/>
	<path d=" M  709.35,  164.39  C  709.35   166.89   711.38   168.92   713.88   168.92 " style="stroke-width: 1.42 ;&st7; "/>
	<path d=" M  713.88,  168.92  C  716.38   168.92   718.41   166.89   718.41   164.39 " style="stroke-width: 1.42 ;&st7; "/>
	<path d=" M  718.41,  155.33  C  718.41   152.82   716.38   150.79   713.88   150.79 " style="stroke-width: 1.42 ;&st7; "/>
	<path d=" M  713.88,  150.79  C  711.38   150.79   709.35   152.82   709.35   155.33 " style="stroke-width: 1.42 ;&st7; "/>
	<path d=" M  709.35,  155.33  C  709.35   157.83   711.38   159.86   713.88   159.86 " style="stroke-width: 1.42 ;&st7; "/>
	<path d=" M  713.88,  159.86  C  716.38   159.86   718.41   157.83   718.41   155.33 " style="stroke-width: 1.42 ;&st7; "/>
	<path d=" M  718.41,  205.18  C  718.41   202.68   716.38   200.65   713.88   200.65 " style="stroke-width: 1.42 ;&st7; "/>
	<path d=" M  713.88,  200.65  C  711.38   200.65   709.35   202.68   709.35   205.18 " style="stroke-width: 1.42 ;&st7; "/>
	<path d=" M  709.35,  205.18  C  709.35   207.69   711.38   209.72   713.88   209.72 " style="stroke-width: 1.42 ;&st7; "/>
	<path d=" M  713.88,  209.72  C  716.38   209.72   718.41   207.69   718.41   205.18 " style="stroke-width: 1.42 ;&st7; "/>
	<path d=" M  718.41,  196.12  C  718.41   193.62   716.38   191.59   713.88   191.59 " style="stroke-width: 1.42 ;&st7; "/>
	<path d=" M  713.88,  191.59  C  711.38   191.59   709.35   193.62   709.35   196.12 " style="stroke-width: 1.42 ;&st7; "/>
	<path d=" M  709.35,  196.12  C  709.35   198.62   711.38   200.65   713.88   200.65 " style="stroke-width: 1.42 ;&st7; "/>
	<path d=" M  713.88,  200.65  C  716.38   200.65   718.41   198.62   718.41   196.12 " style="stroke-width: 1.42 ;&st7; "/>
	<text style="&st18;" transform="matrix(&st16;  821.84  424.15 )">(RHD)</text>
	<text style="&st18;" transform="matrix(&st16;  813.53  424.15 )">A</text>
	<text style="&st18;" transform="matrix(&st16;  804.99  424.15 )">2</text>
	<text style="&st18;" transform="matrix(&st16;  821.84  415.09 )">(LHD)</text>
	<text style="&st18;" transform="matrix(&st16;  813.53  415.09 )">A</text>
	<text style="&st18;" transform="matrix(&st16;  804.99  415.09 )">2</text>
	<text style="&st18;" transform="matrix(&st16;  737.05  424.15 )">A</text>
	<text style="&st18;" transform="matrix(&st16;  728.5  424.15 )">3</text>
	<text style="&st18;" transform="matrix(&st16;  737.05  415.09 )">A</text>
	<text style="&st18;" transform="matrix(&st16;  729.28  415.09 )">1</text>
	<text style="&st18;" transform="matrix(&st16;  669.06  424.15 )">A</text>
	<text style="&st18;" transform="matrix(&st16;  661.29  424.15 )">1</text>
	<text style="&st18;" transform="matrix(&st16;  669.06  415.09 )">A</text>
	<text style="&st18;" transform="matrix(&st16;  660.51  415.09 )">5</text>
	<text style="&st18;" transform="matrix(&st16;  592.57  424.15 )">A</text>
	<text style="&st18;" transform="matrix(&st16;  584.02  424.15 )">4</text>
	<text style="&st18;" transform="matrix(&st16;  592.57  415.09 )">A</text>
	<text style="&st18;" transform="matrix(&st16;  584.02  415.09 )">3</text>
	<text style="&st18;" transform="matrix(&st16;  600.87  578.26 )">(RHD)</text>
	<text style="&st18;" transform="matrix(&st16;  592.57  578.26 )">A</text>
	<text style="&st18;" transform="matrix(&st16;  584.02  578.26 )">5</text>
	<text style="&st18;" transform="matrix(&st16;  600.87  569.19 )">(LHD)</text>
	<text style="&st18;" transform="matrix(&st16;  592.57  569.19 )">A</text>
	<text style="&st18;" transform="matrix(&st16;  584.02  569.19 )">4</text>
	<text style="&st18;" transform="matrix(&st17;  602.54  665.43 )">(LHD)</text>
	<text style="&st18;" transform="matrix(&st17;  636.53  665.92 )">(RHD)</text>
	<text style="&st18;" transform="matrix(&st17;  625.2  663.88 )">W-B</text>
	<text style="&st18;" transform="matrix(&st16;  719.85  166.36 )">(*1 *3,*5 *4)</text>
	<text style="&st18;" transform="matrix(&st16;  711.55  166.36 )">B</text>
	<text style="&st18;" transform="matrix(&st16;  703.78  166.36 )">1</text>
	<text style="&st18;" transform="matrix(&st16;  719.85  157.3 )">(*2 *3,*6 *4)</text>
	<text style="&st18;" transform="matrix(&st16;  711.55  157.3 )">A</text>
	<text style="&st18;" transform="matrix(&st16;  703.78  157.3 )">1</text>
	<text style="&st18;" transform="matrix(&st16;  719.85  207.15 )">(*1 *3,*5 *4)</text>
	<text style="&st18;" transform="matrix(&st16;  711.55  207.15 )">B</text>
	<text style="&st18;" transform="matrix(&st16;  703.0  207.15 )">2</text>
	<text style="&st18;" transform="matrix(&st16;  719.85  198.09 )">(*2 *3,*6 *4)</text>
	<text style="&st18;" transform="matrix(&st16;  711.55  198.09 )">A</text>
	<text style="&st18;" transform="matrix(&st16;  703.0  198.09 )">2</text>
	<text ewd:textID="10" style="&st18;" transform="matrix(&st17;  690.35  204.31 )">Front Windshield <tspan dy="6" x="0">Washer Motor </tspan><tspan dy="6" x="0">and Pump Assembly</tspan></text>
	<text style="&st18;" transform="matrix(&st17;  683.25  204.31 )">A19(A),A60(B)</text>
	<text style="&st18;" transform="matrix(&st17;  601.1  191.28 )">A49</text>
	<text style="&st18;" transform="matrix(&st16;  613.61  168.07 )">5</text>
	<text style="&st18;" transform="matrix(&st16;  613.61  196.95 )">4</text>
	<text style="&st18;" transform="matrix(&st17;  662.03  187.83 )">(*2 *3,*4)</text>
	<text style="&st18;" transform="matrix(&st17;  628.03  225.06 )">(*1 *3)</text>
	<text style="&st18;" transform="matrix(&st17;  616.7  219.05 )">BR</text>
	<text style="&st18;" transform="matrix(&st16;  632.59  142.56 )">BR</text>
	<text style="&st18;" transform="matrix(&st16;  626.58  153.9 )">(*1 *3)</text>
	<text ewd:textID="2" style="&st18;" transform="matrix(&st16;  881.33  80.24 )">* 2 :w/o Headlight Cleaner</text>
	<text ewd:textID="1" style="&st18;" transform="matrix(&st16;  881.33  71.74 )">* 1 :w/ Headlight Cleaner</text>
	<text ewd:textID="15" style="&st18;" transform="matrix(&st17;  608.2  191.28 )">Junction Connector</text>
	<text ewd:textID="4" style="&st18;" transform="matrix(&st16;  881.33  97.24 )">* 4 :From Dec. 2014 Production</text>
	<text ewd:textID="3" style="&st18;" transform="matrix(&st16;  881.33  88.74 )">* 3 :Before Dec. 2014 Production</text>
	<text ewd:textID="6" style="&st18;" transform="matrix(&st16;  881.33  114.24 )">* 6 :Halogen Type Headlight</text>
	<text ewd:textID="5" style="&st18;" transform="matrix(&st16;  881.33  105.74 )">* 5 :LED Type Headlight</text>
	<text style="&st18;" transform="matrix(&st17;  262.59  228.93 )">(*7)</text>
	<text style="&st18;" transform="matrix(&st16;  231.78  213.39 )">(*8)</text>
	<text style="&st18;" transform="matrix(&st16;  231.78  247.38 )">(*8)</text>
	<text ewd:textID="8" style="&st18;" transform="matrix(&st16;  881.33  131.23 )">* 8 :w/ Intermittent Volume Switch</text>
	<text ewd:textID="7" style="&st18;" transform="matrix(&st16;  881.33  122.73 )">* 7 :w/o Intermittent Volume Switch</text>
	<text style="&st18;" transform="matrix(&st16;  709.43  118.49 )">3C</text>
	<text style="&st18;" transform="matrix(&st16;  701.19  118.49 )">5</text>
	<text style="&st18;" transform="matrix(&st16;  731.19  56.17 )">15A <tspan dy="6" x="0">WASHER</tspan></text>
	<text style="&st18;" transform="matrix(&st17;  69.96  150.18 )">B1</text>
	<text style="&st18;" transform="matrix(&st16;  803.17  118.49 )">3</text>
	<text style="&st18;" transform="matrix(&st16;  707.81  32.08 )">(IG)</text>
	<text style="&st18;" transform="matrix(&st16;  811.41  118.49 )">3C</text>
	<text ewd:textID="16" style="&st18;" transform="matrix(&st17;  137.95  112.39 )">Low</text>
	<text style="&st18;" transform="matrix(&st16;  777.68  118.49 )">9</text>
	<text style="&st18;" transform="matrix(&st16;  786.06  118.49 )">3A</text>
	<text ewd:textID="21" style="&st18;" transform="matrix(&st16;  218.64  88.74 )">Wiper Relay</text>
	<text ewd:textID="17" style="&st18;" transform="matrix(&st17;  86.96  112.29 )">Mist</text>
	<text ewd:textID="18" style="&st18;" transform="matrix(&st17;  103.95  110.63 )">Off</text>
	<text ewd:textID="14" style="&st18;" transform="matrix(&st17;  120.95  123.66 )">Intermittent</text>
	<text style="&st18;" transform="matrix(&st16;  592.0  496.67 )">M</text>
	<text style="&st18;" transform="matrix(&st16;  661.35  434.91 )">+1</text>
	<text style="&st18;" transform="matrix(&st16;  584.08  434.91 )">+2</text>
	<text style="&st18;" transform="matrix(&st16;  587.41  559.0 )">E</text>
	<text style="&st18;" transform="matrix(&st16;  727.85  434.91 )">+S</text>
	<text style="&st18;" transform="matrix(&st16;  808.37  434.91 )">B</text>
	<text style="&st18;" transform="matrix(&st16;  833.17  56.17 )">25A <tspan dy="6" x="0">WIPER</tspan></text>
	<text ewd:textID="13" style="&st18;" transform="matrix(&st17;  154.95  113.06 )">High</text>
	<text style="&st18;" transform="matrix(&st16;  809.79  32.08 )">(IG)</text>
	<text style="&st18;" transform="matrix(&st17;  786.67  165.59 )">B</text>
	<text style="&st18;" transform="matrix(&st17;  812.17  165.59 )">B</text>
	<text style="&st18;" transform="matrix(&st16;  368.71  91.57 )">GR</text>
	<text style="&st18;" transform="matrix(&st16;  371.15  253.05 )">W</text>
	<text style="&st18;" transform="matrix(&st16;  372.17  278.54 )">Y</text>
	<text style="&st18;" transform="matrix(&st16;  369.84  346.53 )">SB</text>
	<text style="&st18;" transform="matrix(&st16;  372.17  312.54 )">B</text>
	<text style="&st18;" transform="matrix(&st17;  591.21  604.39 )">W-B</text>
	<text style="&st18;" transform="matrix(&st17;  591.2  403.69 )">R</text>
	<text style="&st18;" transform="matrix(&st17;  667.69  403.2 )">L</text>
	<text style="&st18;" transform="matrix(&st17;  812.17  403.55 )">B</text>
	<text style="&st18;" transform="matrix(&st17;  735.68  404.57 )">W</text>
	<text style="&st18;" transform="matrix(&st16;  325.72  380.53 )">EW</text>
	<text style="&st18;" transform="matrix(&st16;  326.15  91.58 )">WF</text>
	<text style="&st18;" transform="matrix(&st16;  328.41  253.05 )">+S</text>
	<text style="&st18;" transform="matrix(&st16;  329.89  278.55 )">+1</text>
	<text style="&st18;" transform="matrix(&st16;  328.41  312.54 )">+B</text>
	<text style="&st18;" transform="matrix(&st16;  329.12  346.54 )">+2</text>
	<text style="&st18;" transform="matrix(&st17;  69.96  204.42 )">INT1</text>
	<text style="&st18;" transform="matrix(&st17;  69.96  179.32 )">INT2</text>
	<text style="&st18;" transform="matrix(&st17;  69.96  227.09 )">+S</text>
	<text style="&st18;" transform="matrix(&st17;  69.96  251.85 )">+1</text>
	<text style="&st18;" transform="matrix(&st17;  69.96  277.73 )">+2</text>
	<text style="&st18;" transform="matrix(&st17;  69.96  303.58 )">+B</text>
	<text style="&st18;" transform="matrix(&st16;  675.66  570.3 )">A18(A)</text>
	<text ewd:textID="12" style="&st18;" transform="matrix(&st16;  80.25  71.74 )">Front Wiper Switch</text>
	<text style="&st18;" transform="matrix(&st17;  120.95  389.91 )">EW</text>
	<text ewd:textID="19" style="&st18;" transform="matrix(&st17;  154.94  361.33 )">On</text>
	<text ewd:textID="18" style="&st18;" transform="matrix(&st17;  137.95  361.33 )">Off</text>
	<text style="&st18;" transform="matrix(&st17;  120.95  415.19 )">WF</text>
	<text ewd:textID="9" style="&st18;" transform="matrix(&st16;  123.72  325.88 )">Front <tspan dy="6" x="0">Washer </tspan><tspan dy="6" x="0">Switch</tspan></text>
	<text style="&st18;" transform="matrix(&st16;  48.47  41.97 )">G11(A),G12(B),G13(C),G14(D)</text>
	<text style="&st18;" transform="matrix(&st16;  724.56  381.94 )">9</text>
	<text style="&st18;" transform="matrix(&st16;  653.39  381.94 )">10</text>
	<text style="&st18;" transform="matrix(&st16;  636.4  126.98 )">12</text>
	<text ewd:textID="11" style="&st18;" transform="matrix(&st16;  675.66  577.41 )">Front Windshield Wiper Motor Assembly</text>
	<text ewd:textID="20" style="&st18;" transform="matrix(&st16;  48.47  49.08 )">Windshield Wiper Switch Assembly</text>
	<text style="&st18;" transform="matrix(&st16;  710.98  182.22 )">M</text>
	<text style="&st18;" transform="matrix(&st17;  710.18  135.21 )">L</text>
	<text style="&st18;" transform="matrix(&st17;  650.7  176.56 )">BR</text>
	<text style="&st18;" transform="matrix(&st16;  580.09  381.94 )">5</text>
	<text style="&st18;" transform="matrix(&st17;  395.74  425.92 )">W-B</text>
	<text style="&st18;" transform="matrix(&st17;  591.21  663.88 )">W-B</text>
	<text style="&st18;" transform="matrix(&st16;  707.09  86.47 )">2</text>
	<text style="&st18;" transform="matrix(&st16;  809.07  86.47 )">2</text>
	<text style="&st18;" transform="matrix(&st16;  487.69  91.57 )">GR</text>
	<text style="&st18;" transform="matrix(&st16;  538.68  91.57 )">GR</text>
	<text style="&st18;" transform="matrix(&st16;  489.56  253.05 )">W</text>
	<text style="&st18;" transform="matrix(&st16;  540.55  253.05 )">W</text>
	<text style="&st18;" transform="matrix(&st16;  541.58  278.54 )">Y</text>
	<text style="&st18;" transform="matrix(&st16;  490.59  278.54 )">Y</text>
	<text style="&st18;" transform="matrix(&st16;  490.59  312.54 )">B</text>
	<text style="&st18;" transform="matrix(&st16;  541.58  312.54 )">B</text>
	<text style="&st18;" transform="matrix(&st16;  539.25  346.53 )">SB</text>
	<text style="&st18;" transform="matrix(&st16;  488.26  346.53 )">SB</text>
	<text style="&st18;" transform="matrix(&st16;  342.0  258.71 )">C</text>
	<text style="&st18;" transform="matrix(&st16;  342.5  250.21 )">4</text>
	<text style="&st18;" transform="matrix(&st16;  351.07  258.71 )">D</text>
	<text style="&st18;" transform="matrix(&st16;  351.95  250.21 )">1</text>
	<text style="&st18;" transform="matrix(&st16;  342.0  284.21 )">C</text>
	<text style="&st18;" transform="matrix(&st16;  342.5  275.71 )">2</text>
	<text style="&st18;" transform="matrix(&st16;  351.07  284.21 )">D</text>
	<text style="&st18;" transform="matrix(&st16;  351.56  275.71 )">3</text>
	<text style="&st18;" transform="matrix(&st16;  342.14  97.24 )">A</text>
	<text style="&st18;" transform="matrix(&st16;  342.89  88.74 )">1</text>
	<text style="&st18;" transform="matrix(&st16;  351.21  97.24 )">B</text>
	<text style="&st18;" transform="matrix(&st16;  351.56  88.74 )">3</text>
	<text style="&st18;" transform="matrix(&st16;  342.0  318.2 )">C</text>
	<text style="&st18;" transform="matrix(&st16;  342.5  309.7 )">3</text>
	<text style="&st18;" transform="matrix(&st16;  351.07  318.2 )">D</text>
	<text style="&st18;" transform="matrix(&st16;  351.56  309.7 )">2</text>
	<text style="&st18;" transform="matrix(&st16;  342.0  352.2 )">C</text>
	<text style="&st18;" transform="matrix(&st16;  342.89  343.7 )">1</text>
	<text style="&st18;" transform="matrix(&st16;  351.07  352.2 )">D</text>
	<text style="&st18;" transform="matrix(&st16;  351.56  343.7 )">4</text>
	<text style="&st18;" transform="matrix(&st16;  342.14  386.19 )">A</text>
	<text style="&st18;" transform="matrix(&st16;  342.5  377.69 )">2</text>
	<text style="&st18;" transform="matrix(&st17;  346.45  410.64 )">(RHD)</text>
	<text style="&st18;" transform="matrix(&st16;  351.21  386.19 )">B</text>
	<text style="&st18;" transform="matrix(&st16;  351.56  377.69 )">2</text>
	<text style="&st18;" transform="matrix(&st17;  355.51  409.65 )">(LHD)</text>
	<text style="&st18;" transform="matrix(&st17;  407.07  437.36 )">(LHD *3,*4)</text>
	<text style="&st18;" transform="matrix(&st17;  429.73  425.92 )">W-B</text>
	<text style="&st18;" transform="matrix(&st17;  441.07  432.98 )">(RHD *3)</text>
	<a ewd:code="AG1" ewd:figID="8" ewd:figtype="w2w" ewd:pinNo="9" style="cursor:pointer;">
		<path d=" M  747.88,  375.72  L  730.88,  375.72  L  730.88,  384.22  L  747.88,  384.22  L  747.88,  375.72 " style="&st2;"/>
		<text style="&st8;" transform="matrix(&st16;  732.35  382.47 )"><tspan style="&st18;" x="0" y="0">AG1</tspan></text>
	</a>
	<a ewd:code="AG1" ewd:figID="9" ewd:figtype="w2w" ewd:pinNo="10" style="cursor:pointer;">
		<path d=" M  679.89,  375.72  L  662.89,  375.72  L  662.89,  384.22  L  679.89,  384.22  L  679.89,  375.72 " style="&st2;"/>
		<text style="&st8;" transform="matrix(&st16;  664.36  382.47 )"><tspan style="&st18;" x="0" y="0">AG1</tspan></text>
	</a>
	<a ewd:code="AG2" ewd:figID="10" ewd:figtype="w2w" ewd:pinNo="12" style="cursor:pointer;">
		<path d=" M  662.89,  120.77  L  645.89,  120.77  L  645.89,  129.26  L  662.89,  129.26  L  662.89,  120.77 " style="&st2;"/>
		<text style="&st8;" transform="matrix(&st16;  646.95  127.51 )"><tspan style="&st18;" x="0" y="0">AG2</tspan></text>
	</a>
	<a ewd:code="AG1" ewd:figID="11" ewd:figtype="w2w" ewd:pinNo="5" style="cursor:pointer;">
		<path d=" M  603.40,  375.72  L  586.40,  375.72  L  586.40,  384.22  L  603.40,  384.22  L  603.40,  375.72 " style="&st2;"/>
		<text style="&st8;" transform="matrix(&st16;  587.87  382.47 )"><tspan style="&st18;" x="0" y="0">AG1</tspan></text>
	</a>
	<a ewd:code="G3" ewd:figID="12" ewd:figtype="gp" style="cursor:pointer;">
		<path d=" M  422.80,  681.67  L  444.05,  681.67  L  433.43,  697.25  L  422.80,  681.67 " style="&st2;"/>
		<text style="&st8;" transform="matrix(&st16;  428.45  689.83 )"><tspan style="&st18;" x="0" y="0">G3</tspan></text>
	</a>
	<a ewd:code="A3" ewd:figID="13" ewd:figtype="gp" style="cursor:pointer;">
		<path d=" M  618.27,  681.67  L  639.52,  681.67  L  628.89,  697.25  L  618.27,  681.67 " style="&st2;"/>
		<text style="&st8;" transform="matrix(&st16;  624.36  689.83 )"><tspan style="&st18;" x="0" y="0">A3</tspan></text>
	</a>
	<a ewd:code="A5" ewd:figID="14" ewd:figtype="gp" style="cursor:pointer;">
		<path d=" M  584.28,  681.67  L  605.52,  681.67  L  594.90,  697.25  L  584.28,  681.67 " style="&st2;"/>
		<text style="&st8;" transform="matrix(&st16;  590.36  689.83 )"><tspan style="&st18;" x="0" y="0">A5</tspan></text>
	</a>
	<a ewd:code="G4" ewd:figID="15" ewd:figtype="gp" style="cursor:pointer;">
		<path d=" M  388.81,  681.67  L  410.06,  681.67  L  399.43,  697.25  L  388.81,  681.67 " style="&st2;"/>
		<text style="&st8;" transform="matrix(&st16;  394.45  689.83 )"><tspan style="&st18;" x="0" y="0">G4</tspan></text>
	</a>
	<a ewd:code="4825" ewd:figID="16" ewd:figtype="sp" style="cursor:pointer;">
		<path d=" M  590.65,  622.18  L  599.15,  622.18  L  603.40,  626.43  L  603.40,  634.93  L  599.15,  639.18  L  590.65,  639.18  L  586.40,  634.93  L  586.40,  626.43  L  590.65,  622.18 " style="&st2;"/>
	</a>
</g>
</svg>