﻿<?xml version="1.0" encoding="utf-8"?>
<!DOCTYPE svg PUBLIC "-//W3C//DTD SVG 1.0//EN" "http://www.w3.org/TR/2001/REC-SVG-20010904/DTD/svg10.dtd"[
	<!ENTITY ns_flows "http://ns.adobe.com/Flows/1.0/">
	<!ENTITY ns_svg "http://www.w3.org/2000/svg">
	<!ENTITY ns_xlink "http://www.w3.org/1999/xlink">
	<!ENTITY st0 "font-size:7px;font-family:'MS-PGothic';adobe-font-script:japanese;">
	<!ENTITY st1 "font-size:6px;font-family:'ArialMT';">
	<!-- White fill  -->
	<!ENTITY st2 "fill:#FFFFFF;stroke:#000000; stroke-width:1.41;stroke-linecap:round;stroke-linejoin:round;">
	<!-- Yellow fill  -->
	<!ENTITY st3 "fill:#FFFFCC;stroke:#FFFFCC; stroke-width:0.1;stroke-linecap:round;stroke-linejoin:round;">
	<!-- Gray fill  -->
	<!ENTITY st4 "fill:#CCCCCC;stroke:#CCCCCC; stroke-width:0.1;stroke-linecap:round;stroke-linejoin:round;">
	<!-- Light-blue fill -->
	<!ENTITY st5 "fill:#CCECF4;stroke:#000000; stroke-width:1.133;stroke-linecap:round;stroke-linejoin:round;">
	<!ENTITY st6 "fill:none;stroke-linecap:butt; stroke-linejoin:round;">
	<!ENTITY st7 "fill:none;stroke:#000000;stroke-linecap:round;stroke-linejoin:round;">
	<!ENTITY st8 "enable-background:new    ;">
	<!-- Black fill -->
	<!ENTITY st9 "fill:#000000;stroke:#000000; stroke-linecap:round;stroke-linejoin:round;">
	<!-- SRS note   -->
	<!ENTITY st10 "font-size:9px;font-family:'ArialMT';">
	<!ENTITY st11 "font-size:9px;font-family:'Svg Symbol';">
	<!ENTITY st12 "font-size:6px;font-family:'Svg Symbol';">
	<!ENTITY st13 "fill:none;stroke:#ff0000;stroke-linecap:round;stroke-linejoin:round;">
	<!-- Yellow fill  -->
	<!ENTITY st14 "fill:#FFFF00;stroke:#FFFF00; stroke-width:0.1;stroke-linecap:round;stroke-linejoin:round;">
	<!ENTITY st15 "font-size:6px;font-family:'MS-PGothic';adobe-font-script:japanese;">
	<!ENTITY st16 "1.00 0.00 0.00 1.00">
	<!ENTITY st17 "0.00 -1.00 1.00 0.00">
	<!ENTITY st18 "font-size:6px;font-family:'Arial';">
	<!ENTITY st19 "font-size:9px;font-family:'Arial';">
	<!ENTITY st20 "font-size:6px;font-family:'MS-PGothic','MS PGothic';adobe-font-script:japanese;">
	<!ENTITY st21 "font-size:7px;font-family:'MS-PGothic','MS PGothic';adobe-font-script:japanese;">
	<!ATTLIST svg
		xmlns:ewd CDATA #FIXED "http://shcl.co.jp/ewd"
		xmlns:a CDATA #FIXED "http://ns.adobe.com/AdobeSVGViewerExtensions/3.0/"
		ewd:ver CDATA #IMPLIED
	>
	<!ATTLIST a
		ewd:lineID CDATA #IMPLIED
		ewd:groupID CDATA #IMPLIED
		ewd:figtype CDATA #IMPLIED
		ewd:code CDATA #IMPLIED
		ewd:figID CDATA #IMPLIED
		ewd:pinNo CDATA #IMPLIED
		ewd:comment CDATA #IMPLIED >
	<!ATTLIST g
		ewd:lineID CDATA #IMPLIED
		ewd:groupID CDATA #IMPLIED
		ewd:figtype CDATA #IMPLIED
		ewd:code CDATA #IMPLIED
		ewd:figID CDATA #IMPLIED
		ewd:pinNo CDATA #IMPLIED
		ewd:comment CDATA #IMPLIED >
	<!ATTLIST text
		ewd:textID CDATA #IMPLIED >
	<!ATTLIST title
		ewd:textID CDATA #IMPLIED >
]>
<!-- Generator: Shintec Hozumi YS   -->
<svg onload="call_execInitLoadProc_svg('system')" style="overflow:visible;  enable-background:new 0 0 1496.275 710.000" viewBox="0 0 1496.275 710.000" height="710.000" width="1496.275" xml:space="preserve" ewd:ver="L2.1.2.8" xmlns="&ns_svg;" xmlns:a="http://ns.adobe.com/AdobeSVGViewerExtensions/3.0/" xmlns:ewd="http://shcl.co.jp/ewd" xmlns:xlink="&ns_xlink;">
<path d=" M  220.96,  207.17  L  215.30,  184.50 " style="stroke-width: 1.42 ;&st7; " /><path d=" M  220.96,  214.25  L  220.96,  210.00 " style="stroke-width: 0.85 ;&st7; " /><path d=" M  220.96,  184.50  L  220.96,  180.26 " style="stroke-width: 0.85 ;&st7; " /><path d=" M  246.46,  180.26  L  246.46,  188.75 " style="stroke-width: 0.85 ;&st7; " /><path d=" M  246.46,  205.75  L  246.46,  214.25 " style="stroke-width: 0.85 ;&st7; " /><path d=" M  220.96,  265.24  L  220.96,  273.74 " style="stroke-width: 0.85 ;&st7; " /><path d=" M  393.06,  656.18  L  388.81,  656.18 " style="stroke-width: 1.42 ;&st7; " /><path d=" M  393.06,  664.67  L  388.81,  664.67 " style="stroke-width: 1.42 ;&st7; " /><path d=" M  393.06,  443.71  L  388.81,  443.71 " style="stroke-width: 1.42 ;&st7; " /><path d=" M  393.06,  452.21  L  388.81,  452.21 " style="stroke-width: 1.42 ;&st7; " /><path d=" M  246.46,   69.77  L  246.46,   95.27 " style="stroke-width: 0.85 ;&st7; " /><path d=" M  248.58,   95.27  L  244.33,   95.27 " style="stroke-width: 1.42 ;&st7; " /><path d=" M  248.58,  103.77  L  244.33,  103.77 " style="stroke-width: 1.42 ;&st7; " /><path d=" M  135.98,  265.24  L  135.98,  273.74 " style="stroke-width: 0.85 ;&st7; " /><path d=" M  135.98,  377.14  L  130.31,  354.48 " style="stroke-width: 1.42 ;&st7; " /><path d=" M  135.98,  384.22  L  135.98,  379.97 " style="stroke-width: 0.85 ;&st7; " /><path d=" M  135.98,  354.48  L  135.98,  350.23 " style="stroke-width: 0.85 ;&st7; " /><path d=" M  161.47,  350.23  L  161.47,  358.73 " style="stroke-width: 0.85 ;&st7; " /><path d=" M  161.47,  375.72  L  161.47,  384.22 " style="stroke-width: 0.85 ;&st7; " /><path d=" M  172.10,  452.21  L  167.85,  452.21 " style="stroke-width: 1.42 ;&st7; " /><path d=" M  172.10,  443.71  L  167.85,  443.71 " style="stroke-width: 1.42 ;&st7; " /><path d=" M  138.10,  452.21  L  133.85,  452.21 " style="stroke-width: 1.42 ;&st7; " /><path d=" M  138.10,  443.71  L  133.85,  443.71 " style="stroke-width: 1.42 ;&st7; " /><path d=" M  248.58,  137.76  L  244.33,  137.76 " style="stroke-width: 1.42 ;&st7; " /><path d=" M  248.58,  146.26  L  244.33,  146.26 " style="stroke-width: 1.42 ;&st7; " /><path d=" M  274.08,  443.71  L  269.83,  443.71 " style="stroke-width: 1.42 ;&st7; " /><path d=" M  274.08,  452.21  L  269.83,  452.21 " style="stroke-width: 1.42 ;&st7; " /><path d=" M  263.46,  503.20  L  271.95,  503.20 " style="stroke-width: 1.42 ;&st7; " /><path d=" M  280.45,  562.69  L  271.95,  562.69 " style="stroke-width: 1.42 ;&st7; " /><path d=" M  254.96,  180.26  L  212.46,  180.26  L  212.46,  214.25  L  254.96,  214.25  L  254.96,  180.26 " style="stroke-width: 1.42 ;&st7; " /><path d=" M  246.46,  214.25  L  246.46,  231.25  L  271.95,  231.25 " style="stroke-width: 0.85 ;&st7; " /><path d=" M  246.46,  180.26  L  246.46,  146.26 " style="stroke-width: 0.85 ;&st7; " /><path d=" M  220.96,  180.26  L  220.96,  163.26  L  246.46,  163.26 " style="stroke-width: 0.85 ;&st7; " /><path d=" M  246.46,  163.26  L  271.95,  163.26  L  271.95,  188.75  L  274.79,  190.17  L  269.12,  193.00  L  274.79,  195.84  L  269.12,  198.67  L  274.79,  201.50  L  269.12,  204.33  L  271.95,  205.75  L  271.95,  299.24  L  314.45,  299.24  L  314.45,  265.24 " style="stroke-width: 0.85 ;&st7; " /><path d=" M  245.27,  162.26  L  244.99,  162.73  L  244.90,  163.26  L  244.99,  163.79  L  245.27,  164.26  L  245.68,  164.61  L  246.19,  164.79  L  246.73,  164.79  L  247.24,  164.61  L  247.65,  164.26  L  247.92,  163.79  L  248.02,  163.26  L  247.92,  162.73  L  247.65,  162.26  L  247.24,  161.91  L  246.73,  161.72  L  246.19,  161.72  L  245.68,  161.91  L  245.27,  162.26  L  245.66,  162.97  L  245.66,  163.55  L  246.03,  163.99  L  246.61,  164.09  L  247.11,  163.80  L  247.31,  163.26  L  247.11,  162.71  L  246.61,  162.42  L  246.03,  162.52  L  246.46,  163.26 " style="stroke-width: 0.85 ;&st7; " /><path d=" M  270.76,  230.24  L  270.49,  230.71  L  270.40,  231.25  L  270.49,  231.78  L  270.76,  232.25  L  271.18,  232.60  L  271.68,  232.78  L  272.23,  232.78  L  272.73,  232.60  L  273.15,  232.25  L  273.42,  231.78  L  273.51,  231.25  L  273.42,  230.71  L  273.15,  230.24  L  272.73,  229.90  L  272.23,  229.71  L  271.68,  229.71  L  271.18,  229.90  L  270.76,  230.24  L  271.16,  230.96  L  271.16,  231.54  L  271.53,  231.98  L  272.10,  232.08  L  272.61,  231.79  L  272.80,  231.25  L  272.61,  230.70  L  272.10,  230.41  L  271.53,  230.51  L  271.95,  231.25 " style="stroke-width: 0.85 ;&st7; " /><path d=" M  220.96,  214.25  L  220.96,  231.25 " style="stroke-width: 0.85 ;&st7; " /><path d=" M  220.96,  231.25  L  220.96,  239.75 " style="stroke-width: 0.85 ;&st7; " /><path d=" M  208.22,  231.25  L  208.22,  273.74  L  233.71,  273.74  L  233.71,  231.25  L  208.22,  231.25 " style="stroke-width: 1.42 ;&st7; " /><path d=" M  297.45,  222.75  L  297.45,  265.24  L  909.35,  265.24  L  909.35,  222.75  L  297.45,  222.75 " style="stroke-width: 1.42 ;&st7; " /><path d=" M  219.77,  162.26  L  219.50,  162.73  L  219.40,  163.26  L  219.50,  163.79  L  219.77,  164.26  L  220.18,  164.61  L  220.69,  164.79  L  221.23,  164.79  L  221.74,  164.61  L  222.16,  164.26  L  222.43,  163.79  L  222.52,  163.26  L  222.43,  162.73  L  222.16,  162.26  L  221.74,  161.91  L  221.23,  161.72  L  220.69,  161.72  L  220.18,  161.91  L  219.77,  162.26  L  220.16,  162.97  L  220.16,  163.55  L  220.54,  163.99  L  221.11,  164.09  L  221.61,  163.80  L  221.81,  163.26  L  221.61,  162.71  L  221.11,  162.42  L  220.54,  162.52  L  220.96,  163.26 " style="stroke-width: 0.85 ;&st7; " /><path d=" M  390.93,  697.25  L  390.93,  701.50 " style="stroke-width: 0.85 ;&st7; " /><path d=" M  382.44,  701.50  L  399.43,  701.50 " style="stroke-width: 0.85 ;&st7; " /><path d=" M  386.69,  704.33  L  395.18,  704.33 " style="stroke-width: 0.85 ;&st7; " /><path d=" M  388.10,  707.17  L  393.77,  707.17 " style="stroke-width: 0.85 ;&st7; " /><path d=" M  389.52,  710.00  L  392.35,  710.00 " style="stroke-width: 0.85 ;&st7; " /><path d=" M  390.93,  669.57  L  393.77,  672.40  L  393.77,  668.15  L  390.93,  665.32  L  388.10,  668.15  L  388.10,  672.40  L  390.93,  669.57 " style="stroke-width: 0.28 ;&st9;" /><path d=" M  390.93,  664.67  L  390.93,  681.67 " style="stroke-width: 0.85 ;&st7; " /><path d=" M  390.93,  438.82  L  388.10,  435.98  L  388.10,  440.23  L  390.93,  443.07  L  393.77,  440.23  L  393.77,  435.98  L  390.93,  438.82 " style="stroke-width: 0.28 ;&st9;" /><path d=" M  390.93,  443.71  L  390.93,  265.24 " style="stroke-width: 0.85 ;&st7; " /><path d=" M  246.46,   90.37  L  243.63,   87.54  L  243.63,   91.79  L  246.46,   94.62  L  249.29,   91.79  L  249.29,   87.54  L  246.46,   90.37 " style="stroke-width: 0.28 ;&st9;" /><path d=" M  233.71,   35.78  L  233.71,   78.27  L  259.21,   78.27  L  259.21,   35.78  L  233.71,   35.78 " style="stroke-width: 1.42 ;&st7; " /><path d=" M  135.98,  231.25  L  135.98,  239.75 " style="stroke-width: 0.85 ;&st7; " /><path d=" M  123.23,  231.25  L  123.23,  273.74  L  148.73,  273.74  L  148.73,  231.25  L  123.23,  231.25 " style="stroke-width: 1.42 ;&st7; " /><path d=" M  161.47,  384.22  L  161.47,  409.72  L  220.96,  409.72  L  220.96,  273.74 " style="stroke-width: 0.85 ;&st7; " /><path d=" M  348.44,  265.24  L  348.44,  316.23  L  186.97,  316.23  L  186.97,  333.23 " style="stroke-width: 0.85 ;&st7; " /><path d=" M  169.97,  350.23  L  127.48,  350.23  L  127.48,  384.22  L  169.97,  384.22  L  169.97,  350.23 " style="stroke-width: 1.42 ;&st7; " /><path d=" M  135.98,  273.74  L  135.98,  350.23 " style="stroke-width: 0.85 ;&st7; " /><path d=" M  135.98,  384.22  L  135.98,  443.71 " style="stroke-width: 0.85 ;&st7; " /><path d=" M  169.97,  438.82  L  167.14,  435.98  L  167.14,  440.23  L  169.97,  443.07  L  172.80,  440.23  L  172.80,  435.98  L  169.97,  438.82 " style="stroke-width: 0.28 ;&st9;" /><path d=" M  135.98,  438.82  L  133.14,  435.98  L  133.14,  440.23  L  135.98,  443.07  L  138.81,  440.23  L  138.81,  435.98  L  135.98,  438.82 " style="stroke-width: 0.28 ;&st9;" /><path d=" M  134.78,  425.71  L  134.51,  426.18  L  134.42,  426.71  L  134.51,  427.25  L  134.78,  427.72  L  135.20,  428.06  L  135.71,  428.25  L  136.25,  428.25  L  136.76,  428.06  L  137.17,  427.72  L  137.44,  427.25  L  137.54,  426.71  L  137.44,  426.18  L  137.17,  425.71  L  136.76,  425.37  L  136.25,  425.18  L  135.71,  425.18  L  135.20,  425.37  L  134.78,  425.71  L  135.18,  426.42  L  135.18,  427.01  L  135.55,  427.45  L  136.12,  427.55  L  136.63,  427.26  L  136.83,  426.71  L  136.63,  426.17  L  136.12,  425.88  L  135.55,  425.98  L  135.98,  426.71 " style="stroke-width: 0.85 ;&st7; " /><path d=" M  135.98,  426.71  L  169.97,  426.71  L  169.97,  443.71 " style="stroke-width: 0.85 ;&st7; " /><path d=" M  246.46,  151.16  L  249.29,  153.99  L  249.29,  149.74  L  246.46,  146.91  L  243.63,  149.74  L  243.63,  153.99  L  246.46,  151.16 " style="stroke-width: 0.28 ;&st9;" /><path d=" M  220.96,  163.26  L  135.98,  163.26  L  135.98,  231.25 " style="stroke-width: 0.85 ;&st7; " /><path d=" M  186.97,  333.23  L  186.97,  358.73  L  189.80,  360.14  L  184.14,  362.97  L  189.80,  365.81  L  184.14,  368.64  L  189.80,  371.47  L  184.14,  374.31  L  186.97,  375.72  L  186.97,  409.72 " style="stroke-width: 0.85 ;&st7; " /><path d=" M  185.78,  332.23  L  185.50,  332.70  L  185.41,  333.23  L  185.50,  333.76  L  185.78,  334.23  L  186.19,  334.58  L  186.70,  334.77  L  187.24,  334.77  L  187.75,  334.58  L  188.16,  334.23  L  188.43,  333.76  L  188.53,  333.23  L  188.43,  332.70  L  188.16,  332.23  L  187.75,  331.88  L  187.24,  331.69  L  186.70,  331.69  L  186.19,  331.88  L  185.78,  332.23  L  186.17,  332.94  L  186.17,  333.52  L  186.54,  333.97  L  187.12,  334.07  L  187.62,  333.78  L  187.82,  333.23  L  187.62,  332.68  L  187.12,  332.39  L  186.54,  332.49  L  186.97,  333.23 " style="stroke-width: 0.85 ;&st7; " /><path d=" M  185.78,  408.71  L  185.50,  409.18  L  185.41,  409.72  L  185.50,  410.25  L  185.78,  410.72  L  186.19,  411.07  L  186.70,  411.25  L  187.24,  411.25  L  187.75,  411.07  L  188.16,  410.72  L  188.43,  410.25  L  188.53,  409.72  L  188.43,  409.18  L  188.16,  408.71  L  187.75,  408.37  L  187.24,  408.18  L  186.70,  408.18  L  186.19,  408.37  L  185.78,  408.71  L  186.17,  409.43  L  186.17,  410.01  L  186.54,  410.45  L  187.12,  410.55  L  187.62,  410.26  L  187.82,  409.72  L  187.62,  409.17  L  187.12,  408.88  L  186.54,  408.98  L  186.97,  409.72 " style="stroke-width: 0.85 ;&st7; " /><path d=" M  186.97,  333.23  L  271.95,  333.23  L  271.95,  443.71 " style="stroke-width: 0.85 ;&st7; " /><path d=" M  161.47,  350.23  L  161.47,  333.23  L  186.97,  333.23 " style="stroke-width: 0.85 ;&st7; " /><path d=" M  271.95,  438.82  L  269.12,  435.98  L  269.12,  440.23  L  271.95,  443.07  L  274.79,  440.23  L  274.79,  435.98  L  271.95,  438.82 " style="stroke-width: 0.28 ;&st9;" /><path d=" M  267.71,  494.14  L  271.95,  498.39  L  276.20,  494.14 " style="stroke-width: 1.42 ;&st7; " /><path d=" M  276.20,  497.54  L  271.95,  501.78  L  267.71,  497.54 " style="stroke-width: 1.42 ;&st7; " /><path d=" M  276.20,  571.76  L  271.95,  567.51  L  267.71,  571.76 " style="stroke-width: 1.42 ;&st7; " /><path d=" M  276.20,  568.36  L  271.95,  564.11  L  267.71,  568.36 " style="stroke-width: 1.42 ;&st7; " /><path d=" M  222.38,  208.58  C  222.38   207.80   221.75   207.17   220.96   207.17 " style="stroke-width: 0.85 ;&st7; " /><path d=" M  220.96,  207.17  C  220.18   207.17   219.55   207.80   219.55   208.58 " style="stroke-width: 0.85 ;&st7; " /><path d=" M  219.55,  208.58  C  219.55   209.37   220.18   210.00   220.96   210.00 " style="stroke-width: 0.85 ;&st7; " /><path d=" M  220.96,  210.00  C  221.75   210.00   222.38   209.37   222.38   208.58 " style="stroke-width: 0.85 ;&st7; " /><path d=" M  222.38,  185.92  C  222.38   185.14   221.75   184.50   220.96   184.50 " style="stroke-width: 0.85 ;&st7; " /><path d=" M  220.96,  184.50  C  220.18   184.50   219.55   185.14   219.55   185.92 " style="stroke-width: 0.85 ;&st7; " /><path d=" M  219.55,  185.92  C  219.55   186.70   220.18   187.34   220.96   187.34 " style="stroke-width: 0.85 ;&st7; " /><path d=" M  220.96,  187.34  C  221.75   187.34   222.38   186.70   222.38   185.92 " style="stroke-width: 0.85 ;&st7; " /><path d=" M  243.93,  194.77  C  245.30   196.17   247.54   196.19   248.94   194.82 " style="stroke-width: 0.85 ;&st7; " /><path d=" M  248.94,  194.82  C  250.33   193.46   250.36   191.21   248.99   189.82 " style="stroke-width: 0.85 ;&st7; " /><path d=" M  248.99,  189.82  C  248.30   189.11   247.45   188.75   246.46   188.75 " style="stroke-width: 0.85 ;&st7; " /><path d=" M  243.93,  199.73  C  245.30   201.13   247.54   201.15   248.94   199.78 " style="stroke-width: 0.85 ;&st7; " /><path d=" M  248.94,  199.78  C  250.33   198.41   250.36   196.17   248.99   194.77 " style="stroke-width: 0.85 ;&st7; " /><path d=" M  248.99,  194.77  C  247.62   193.38   245.38   193.35   243.98   194.72 " style="stroke-width: 0.85 ;&st7; " /><path d=" M  243.98,  194.72  C  243.96   194.74   243.95   194.76   243.93   194.77 " style="stroke-width: 0.85 ;&st7; " /><path d=" M  246.46,  205.75  C  248.41   205.75   250.00   204.17   250.00   202.21 " style="stroke-width: 0.85 ;&st7; " /><path d=" M  250.00,  202.21  C  250.00   200.25   248.41   198.67   246.46   198.67 " style="stroke-width: 0.85 ;&st7; " /><path d=" M  246.46,  198.67  C  245.47   198.67   244.62   199.02   243.93   199.73 " style="stroke-width: 0.85 ;&st7; " /><path d=" M  220.96,  242.58  C  218.23   244.19   217.31   247.72   218.93   250.46 " style="stroke-width: 1.42 ;&st7; " /><path d=" M  218.93,  250.46  C  219.45   251.34   220.08   251.97   220.96   252.49 " style="stroke-width: 1.42 ;&st7; " /><path d=" M  220.96,  262.41  C  223.70   260.80   224.61   257.27   223.00   254.53 " style="stroke-width: 1.42 ;&st7; " /><path d=" M  223.00,  254.53  C  222.48   253.65   221.85   253.01   220.96   252.49 " style="stroke-width: 1.42 ;&st7; " /><path d=" M  222.38,  241.16  C  222.38   240.38   221.75   239.75   220.96   239.75 " style="stroke-width: 0.85 ;&st7; " /><path d=" M  220.96,  239.75  C  220.18   239.75   219.55   240.38   219.55   241.16 " style="stroke-width: 0.85 ;&st7; " /><path d=" M  219.55,  241.16  C  219.55   241.94   220.18   242.58   220.96   242.58 " style="stroke-width: 0.85 ;&st7; " /><path d=" M  220.96,  242.58  C  221.75   242.58   222.38   241.94   222.38   241.16 " style="stroke-width: 0.85 ;&st7; " /><path d=" M  222.38,  263.82  C  222.38   263.04   221.75   262.41   220.96   262.41 " style="stroke-width: 0.85 ;&st7; " /><path d=" M  220.96,  262.41  C  220.18   262.41   219.55   263.04   219.55   263.82 " style="stroke-width: 0.85 ;&st7; " /><path d=" M  219.55,  263.82  C  219.55   264.61   220.18   265.24   220.96   265.24 " style="stroke-width: 0.85 ;&st7; " /><path d=" M  220.96,  265.24  C  221.75   265.24   222.38   264.61   222.38   263.82 " style="stroke-width: 0.85 ;&st7; " /><path d=" M  388.81,  656.18  C  386.46   656.18   384.56   658.08   384.56   660.42 " style="stroke-width: 1.42 ;&st7; " /><path d=" M  384.56,  660.42  C  384.56   662.77   386.46   664.67   388.81   664.67 " style="stroke-width: 1.42 ;&st7; " /><path d=" M  393.06,  664.67  C  395.41   664.67   397.31   662.77   397.31   660.42 " style="stroke-width: 1.42 ;&st7; " /><path d=" M  397.31,  660.42  C  397.31   658.08   395.41   656.18   393.06   656.18 " style="stroke-width: 1.42 ;&st7; " /><path d=" M  388.81,  443.71  C  386.46   443.71   384.56   445.61   384.56   447.96 " style="stroke-width: 1.42 ;&st7; " /><path d=" M  384.56,  447.96  C  384.56   450.31   386.46   452.21   388.81   452.21 " style="stroke-width: 1.42 ;&st7; " /><path d=" M  393.06,  452.21  C  395.41   452.21   397.31   450.31   397.31   447.96 " style="stroke-width: 1.42 ;&st7; " /><path d=" M  397.31,  447.96  C  397.31   445.61   395.41   443.71   393.06   443.71 " style="stroke-width: 1.42 ;&st7; " /><path d=" M  244.33,   95.27  C  241.99    95.27   240.08    97.17   240.08    99.52 " style="stroke-width: 1.42 ;&st7; " /><path d=" M  240.08,   99.52  C  240.08   101.87   241.99   103.77   244.33   103.77 " style="stroke-width: 1.42 ;&st7; " /><path d=" M  248.58,  103.77  C  250.93   103.77   252.83   101.87   252.83    99.52 " style="stroke-width: 1.42 ;&st7; " /><path d=" M  252.83,   99.52  C  252.83    97.17   250.93    95.27   248.58    95.27 " style="stroke-width: 1.42 ;&st7; " /><path d=" M  247.88,   68.36  C  247.88    67.57   247.24    66.94   246.46    66.94 " style="stroke-width: 0.85 ;&st7; " /><path d=" M  246.46,   66.94  C  245.68    66.94   245.04    67.57   245.04    68.36 " style="stroke-width: 0.85 ;&st7; " /><path d=" M  245.04,   68.36  C  245.04    69.14   245.68    69.77   246.46    69.77 " style="stroke-width: 0.85 ;&st7; " /><path d=" M  246.46,   69.77  C  247.24    69.77   247.88    69.14   247.88    68.36 " style="stroke-width: 0.85 ;&st7; " /><path d=" M  247.88,   45.69  C  247.88    44.91   247.24    44.28   246.46    44.28 " style="stroke-width: 0.85 ;&st7; " /><path d=" M  246.46,   44.28  C  245.68    44.28   245.04    44.91   245.04    45.69 " style="stroke-width: 0.85 ;&st7; " /><path d=" M  245.04,   45.69  C  245.04    46.48   245.68    47.11   246.46    47.11 " style="stroke-width: 0.85 ;&st7; " /><path d=" M  246.46,   47.11  C  247.24    47.11   247.88    46.48   247.88    45.69 " style="stroke-width: 0.85 ;&st7; " /><path d=" M  246.46,   66.94  C  247.31    64.02   246.65    61.13   244.62    58.87 " style="stroke-width: 1.42 ;&st7; " /><path d=" M  246.46,   66.94  C  248.63    63.92   248.63    60.05   246.46    57.03 " style="stroke-width: 1.42 ;&st7; " /><path d=" M  246.46,   66.94  C  250.18    64.17   250.99    58.96   248.30    55.19 " style="stroke-width: 1.42 ;&st7; " /><path d=" M  246.46,   47.11  C  242.74    49.88   241.92    55.10   244.62    58.87 " style="stroke-width: 1.42 ;&st7; " /><path d=" M  246.46,   47.11  C  244.29    50.13   244.29    54.00   246.46    57.03 " style="stroke-width: 1.42 ;&st7; " /><path d=" M  246.46,   47.11  C  245.61    50.03   246.27    52.92   248.30    55.18 " style="stroke-width: 1.42 ;&st7; " /><path d=" M  135.98,  242.58  C  133.24   244.19   132.33   247.72   133.94   250.46 " style="stroke-width: 1.42 ;&st7; " /><path d=" M  133.94,  250.46  C  134.46   251.34   135.10   251.97   135.98   252.49 " style="stroke-width: 1.42 ;&st7; " /><path d=" M  135.98,  262.41  C  138.72   260.80   139.63   257.27   138.01   254.53 " style="stroke-width: 1.42 ;&st7; " /><path d=" M  138.01,  254.53  C  137.49   253.65   136.86   253.01   135.98   252.49 " style="stroke-width: 1.42 ;&st7; " /><path d=" M  137.39,  241.16  C  137.39   240.38   136.76   239.75   135.98   239.75 " style="stroke-width: 0.85 ;&st7; " /><path d=" M  135.98,  239.75  C  135.20   239.75   134.56   240.38   134.56   241.16 " style="stroke-width: 0.85 ;&st7; " /><path d=" M  134.56,  241.16  C  134.56   241.94   135.20   242.58   135.98   242.58 " style="stroke-width: 0.85 ;&st7; " /><path d=" M  135.98,  242.58  C  136.76   242.58   137.39   241.94   137.39   241.16 " style="stroke-width: 0.85 ;&st7; " /><path d=" M  137.39,  263.82  C  137.39   263.04   136.76   262.41   135.98   262.41 " style="stroke-width: 0.85 ;&st7; " /><path d=" M  135.98,  262.41  C  135.20   262.41   134.56   263.04   134.56   263.82 " style="stroke-width: 0.85 ;&st7; " /><path d=" M  134.56,  263.82  C  134.56   264.61   135.20   265.24   135.98   265.24 " style="stroke-width: 0.85 ;&st7; " /><path d=" M  135.98,  265.24  C  136.76   265.24   137.39   264.61   137.39   263.82 " style="stroke-width: 0.85 ;&st7; " /><path d=" M  137.39,  378.56  C  137.39   377.77   136.76   377.14   135.98   377.14 " style="stroke-width: 0.85 ;&st7; " /><path d=" M  135.98,  377.14  C  135.20   377.14   134.56   377.77   134.56   378.56 " style="stroke-width: 0.85 ;&st7; " /><path d=" M  134.56,  378.56  C  134.56   379.34   135.20   379.97   135.98   379.97 " style="stroke-width: 0.85 ;&st7; " /><path d=" M  135.98,  379.97  C  136.76   379.97   137.39   379.34   137.39   378.56 " style="stroke-width: 0.85 ;&st7; " /><path d=" M  137.39,  355.89  C  137.39   355.11   136.76   354.48   135.98   354.48 " style="stroke-width: 0.85 ;&st7; " /><path d=" M  135.98,  354.48  C  135.20   354.48   134.56   355.11   134.56   355.89 " style="stroke-width: 0.85 ;&st7; " /><path d=" M  134.56,  355.89  C  134.56   356.67   135.20   357.31   135.98   357.31 " style="stroke-width: 0.85 ;&st7; " /><path d=" M  135.98,  357.31  C  136.76   357.31   137.39   356.67   137.39   355.89 " style="stroke-width: 0.85 ;&st7; " /><path d=" M  158.94,  364.75  C  160.31   366.14   162.55   366.17   163.95   364.80 " style="stroke-width: 0.85 ;&st7; " /><path d=" M  163.95,  364.80  C  165.35   363.43   165.37   361.18   164.00   359.79 " style="stroke-width: 0.85 ;&st7; " /><path d=" M  164.00,  359.79  C  163.31   359.08   162.46   358.72   161.47   358.72 " style="stroke-width: 0.85 ;&st7; " /><path d=" M  158.94,  369.70  C  160.31   371.10   162.55   371.12   163.95   369.75 " style="stroke-width: 0.85 ;&st7; " /><path d=" M  163.95,  369.75  C  165.35   368.38   165.37   366.14   164.00   364.75 " style="stroke-width: 0.85 ;&st7; " /><path d=" M  164.00,  364.75  C  162.63   363.35   160.39   363.33   158.99   364.69 " style="stroke-width: 0.85 ;&st7; " /><path d=" M  158.99,  364.69  C  158.98   364.71   158.96   364.73   158.94   364.75 " style="stroke-width: 0.85 ;&st7; " /><path d=" M  161.47,  375.72  C  163.43   375.72   165.01   374.14   165.01   372.18 " style="stroke-width: 0.85 ;&st7; " /><path d=" M  165.01,  372.18  C  165.01   370.23   163.43   368.64   161.47   368.64 " style="stroke-width: 0.85 ;&st7; " /><path d=" M  161.47,  368.64  C  160.48   368.64   159.64   369.00   158.94   369.70 " style="stroke-width: 0.85 ;&st7; " /><path d=" M  176.35,  447.96  C  176.35   445.61   174.44   443.71   172.10   443.71 " style="stroke-width: 1.42 ;&st7; " /><path d=" M  172.10,  452.21  C  174.44   452.21   176.35   450.31   176.35   447.96 " style="stroke-width: 1.42 ;&st7; " /><path d=" M  163.60,  447.96  C  163.60   450.31   165.50   452.21   167.85   452.21 " style="stroke-width: 1.42 ;&st7; " /><path d=" M  167.85,  443.71  C  165.50   443.71   163.60   445.61   163.60   447.96 " style="stroke-width: 1.42 ;&st7; " /><path d=" M  138.10,  452.21  C  140.45   452.21   142.35   450.31   142.35   447.96 " style="stroke-width: 1.42 ;&st7; " /><path d=" M  129.60,  447.96  C  129.60   450.31   131.51   452.21   133.85   452.21 " style="stroke-width: 1.42 ;&st7; " /><path d=" M  133.85,  443.71  C  131.51   443.71   129.60   445.61   129.60   447.96 " style="stroke-width: 1.42 ;&st7; " /><path d=" M  142.35,  447.96  C  142.35   445.61   140.45   443.71   138.10   443.71 " style="stroke-width: 1.42 ;&st7; " /><path d=" M  244.33,  137.76  C  241.99   137.76   240.08   139.66   240.08   142.01 " style="stroke-width: 1.42 ;&st7; " /><path d=" M  240.08,  142.01  C  240.08   144.36   241.99   146.26   244.33   146.26 " style="stroke-width: 1.42 ;&st7; " /><path d=" M  248.58,  146.26  C  250.93   146.26   252.83   144.36   252.83   142.01 " style="stroke-width: 1.42 ;&st7; " /><path d=" M  252.83,  142.01  C  252.83   139.66   250.93   137.76   248.58   137.76 " style="stroke-width: 1.42 ;&st7; " /><path d=" M  269.83,  443.71  C  267.48   443.71   265.58   445.61   265.58   447.96 " style="stroke-width: 1.42 ;&st7; " /><path d=" M  265.58,  447.96  C  265.58   450.31   267.48   452.21   269.83   452.21 " style="stroke-width: 1.42 ;&st7; " /><path d=" M  274.08,  452.21  C  276.43   452.21   278.33   450.31   278.33   447.96 " style="stroke-width: 1.42 ;&st7; " /><path d=" M  278.33,  447.96  C  278.33   445.61   276.43   443.71   274.08   443.71 " style="stroke-width: 1.42 ;&st7; " /><text style="&st18;" transform="matrix(&st16;  129.19  281.93 )">2</text><text style="&st18;" transform="matrix(&st16;  129.96  227.56 )">1</text><text style="&st18;" transform="matrix(&st16;  214.17  281.93 )">2</text><text style="&st18;" transform="matrix(&st16;  214.95  227.56 )">1</text><text style="&st18;" transform="matrix(&st16;  242.15  143.98 )">3E</text><text style="&st18;" transform="matrix(&st16;  234.55  143.98 )">1</text><text style="&st18;" transform="matrix(&st16;  305.55  261.54 )">TRLY</text><text style="&st18;" transform="matrix(&st16;  304.48  273.43 )">14</text><text style="&st18;" transform="matrix(&st16;  488.26  618.48 )">SB</text><text style="&st18;" transform="matrix(&st16;  490.16  635.48 )">G</text><text ewd:textID="11" style="&st18;" transform="matrix(&st16;  337.42  219.05 )">Main Body ECU</text><text style="&st18;" transform="matrix(&st16;  267.65  449.93 )">3B</text><text style="&st18;" transform="matrix(&st16;  256.86  449.93 )">11</text><text style="&st18;" transform="matrix(&st16;  253.96  509.42 )">19</text><text style="&st18;" transform="matrix(&st16;  253.96  560.41 )">15</text><text style="&st18;" transform="matrix(&st17;  268.26  473.94 )">LG</text><text style="&st18;" transform="matrix(&st17;  279.59  475.39 )">(*8)</text><text style="&st18;" transform="matrix(&st17;  268.26  537.68 )">LG</text><text style="&st18;" transform="matrix(&st17;  279.59  539.13 )">(*8)</text><text style="&st18;" transform="matrix(&st17;  268.26  592.92 )">LG</text><text style="&st18;" transform="matrix(&st17;  279.59  594.37 )">(*8)</text><text style="&st18;" transform="matrix(&st16;  482.0  601.49 )">LG(*8)</text><text ewd:textID="2" style="&st18;" transform="matrix(&st16;  388.41  97.24 )">* 8 :From Dec. 2014 Production</text><text ewd:textID="1" style="&st18;" transform="matrix(&st16;  388.41  88.74 )">* 7 :Before Dec. 2014 Production</text><text style="&st18;" transform="matrix(&st17;  242.76  123.1 )">B</text><text ewd:textID="16" style="&st18;" transform="matrix(&st16;  191.52  196.4 )">TAIL <tspan dy="6" x="0">Relay</tspan></text><text style="&st18;" transform="matrix(&st16;  238.27  251.64 )">10A <tspan dy="6" x="0">TAIL</tspan></text><text style="&st18;" transform="matrix(&st16;  386.63  662.39 )">7A</text><text style="&st18;" transform="matrix(&st16;  379.02  662.39 )">1</text><text style="&st18;" transform="matrix(&st17;  387.24  570.39 )">W-B</text><text style="&st18;" transform="matrix(&st16;  386.63  449.93 )">3B</text><text style="&st18;" transform="matrix(&st16;  378.25  449.93 )">8</text><text style="&st18;" transform="matrix(&st16;  381.64  261.54 )">GND1</text><text style="&st18;" transform="matrix(&st16;  381.74  273.43 )">11</text><text style="&st18;" transform="matrix(&st16;  237.35  32.08 )">(BAT)</text><text style="&st18;" transform="matrix(&st16;  263.76  56.17 )">100A <tspan dy="6" x="0">DC/DC</tspan></text><text style="&st18;" transform="matrix(&st16;  242.4  101.49 )">1C</text><text style="&st18;" transform="matrix(&st16;  234.55  101.49 )">1</text><text style="&st18;" transform="matrix(&st16;  239.67  86.47 )">2</text><text style="&st18;" transform="matrix(&st16;  153.28  251.64 )">7.5A <tspan dy="6" x="0">FOG RR</tspan></text><text ewd:textID="4" style="&st18;" transform="matrix(&st16;  96.86  366.37 )">FOG RR <tspan dy="6" x="0">Relay</tspan></text><text style="&st18;" transform="matrix(&st16;  154.1  449.93 )">19</text><text style="&st18;" transform="matrix(&st16;  165.66  449.93 )">3B</text><text style="&st18;" transform="matrix(&st16;  123.29  449.93 )">3</text><text style="&st18;" transform="matrix(&st16;  131.53  449.93 )">3D</text><text style="&st18;" transform="matrix(&st17;  132.28  471.96 )">G</text><text style="&st18;" transform="matrix(&st17;  166.28  473.87 )">SB</text><text style="&st18;" transform="matrix(&st16;  338.34  261.54 )">RFGO</text><text style="&st18;" transform="matrix(&st16;  337.7  273.43 )">27</text><text style="&st18;" transform="matrix(&st16;  337.42  211.95 )">G59(A)</text></svg>